A D/Templates////
A D/borland////
A D/borland55////
A D/borland56////
A D/config.stlport.win32-vc60////
A D/config.win32////
A D/config.win32-vc60////
A D/doc////
A D/egcs////
A D/emulation////
A D/gcc////
A D/gcc-295////
A D/gcc-libstdcxx-v3////
A D/generic////
A D/iso////
A D/mwerks////
A D/sgi////
A D/sgi730////
A D/stlport////
A D/sunpro////
A D/tests////
A D/vcl_sys////
A D/win32////
A D/win32-vc60////
A D/win32-vc70////
R D/win32////
R D/sgi730////
R D/config.win32-vc60////
R D/borland////
