/*=========================================================================

  Program:   Insight Segmentation & Registration Toolkit
  Module:    $RCSfile: CodeCopyright.txt,v $
  Language:  C++
  Date:      $Date: 2003-09-10 14:29:50 $
  Version:   $Revision: 1.2 $

  Copyright (c) Insight Software Consortium. All rights reserved.
  See ITKCopyright.txt or http://www.itk.org/HTML/Copyright.htm for details.

     This software is distributed WITHOUT ANY WARRANTY; without even 
     the implied warranty of MERCHANTABILITY or FITNESS FOR A PARTICULAR 
     PURPOSE.  See the above copyright notices for more information.

=========================================================================*/
