/* XPM */
static const char * lena_xpm[] = {
"131 131 229 2",
"  	c #A2A2A2",
". 	c #A1A1A1",
"+ 	c #A0A0A0",
"@ 	c #9E9E9E",
"# 	c #9D9D9D",
"$ 	c #9B9B9B",
"% 	c #9A9A9A",
"& 	c #999999",
"* 	c #989898",
"= 	c #9F9F9F",
"- 	c #A4A4A4",
"; 	c #A7A7A7",
"> 	c #ADADAD",
", 	c #ABABAB",
"' 	c #959595",
") 	c #7C7C7C",
"! 	c #636363",
"~ 	c #5A5A5A",
"{ 	c #616161",
"] 	c #6B6B6B",
"^ 	c #696969",
"/ 	c #6A6A6A",
"( 	c #6D6D6D",
"_ 	c #686868",
": 	c #717171",
"< 	c #757575",
"[ 	c #787878",
"} 	c #7B7B7B",
"| 	c #7D7D7D",
"1 	c #828282",
"2 	c #838383",
"3 	c #808080",
"4 	c #7F7F7F",
"5 	c #7E7E7E",
"6 	c #848484",
"7 	c #868686",
"8 	c #878787",
"9 	c #888888",
"0 	c #858585",
"a 	c #818181",
"b 	c #797979",
"c 	c #767676",
"d 	c #6F6F6F",
"e 	c #949494",
"f 	c #9C9C9C",
"g 	c #979797",
"h 	c #A6A6A6",
"i 	c #BCBCBC",
"j 	c #D6D6D6",
"k 	c #CACACA",
"l 	c #E7E7E7",
"m 	c #BABABA",
"n 	c #727272",
"o 	c #6E6E6E",
"p 	c #7A7A7A",
"q 	c #777777",
"r 	c #AFAFAF",
"s 	c #969696",
"t 	c #A8A8A8",
"u 	c #626262",
"v 	c #595959",
"w 	c #5F5F5F",
"x 	c #676767",
"y 	c #6C6C6C",
"z 	c #707070",
"A 	c #747474",
"B 	c #909090",
"C 	c #D1D1D1",
"D 	c #D5D5D5",
"E 	c #DEDEDE",
"F 	c #CBCBCB",
"G 	c #898989",
"H 	c #A3A3A3",
"I 	c #A9A9A9",
"J 	c #929292",
"K 	c #606060",
"L 	c #575757",
"M 	c #5E5E5E",
"N 	c #666666",
"O 	c #939393",
"P 	c #C0C0C0",
"Q 	c #D9D9D9",
"R 	c #DCDCDC",
"S 	c #737373",
"T 	c #3C3C3C",
"U 	c #252525",
"V 	c #AAAAAA",
"W 	c #8E8E8E",
"X 	c #919191",
"Y 	c #E2E2E2",
"Z 	c #C9C9C9",
"` 	c #2D2D2D",
" .	c #282828",
"..	c #8F8F8F",
"+.	c #B3B3B3",
"@.	c #BFBFBF",
"#.	c #5B5B5B",
"$.	c #393939",
"%.	c #313131",
"&.	c #373737",
"*.	c #D0D0D0",
"=.	c #D3D3D3",
"-.	c #DDDDDD",
";.	c #8A8A8A",
">.	c #363636",
",.	c #2A2A2A",
"'.	c #2F2F2F",
").	c #A5A5A5",
"!.	c #CFCFCF",
"~.	c #DBDBDB",
"{.	c #E0E0E0",
"].	c #BEBEBE",
"^.	c #8D8D8D",
"/.	c #3D3D3D",
"(.	c #2B2B2B",
"_.	c #353535",
":.	c #565656",
"<.	c #5C5C5C",
"[.	c #646464",
"}.	c #656565",
"|.	c #8C8C8C",
"1.	c #CECECE",
"2.	c #DADADA",
"3.	c #D8D8D8",
"4.	c #272727",
"5.	c #232323",
"6.	c #333333",
"7.	c #3A3A3A",
"8.	c #5D5D5D",
"9.	c #D4D4D4",
"0.	c #E3E3E3",
"a.	c #202020",
"b.	c #404040",
"c.	c #343434",
"d.	c #555555",
"e.	c #C1C1C1",
"f.	c #303030",
"g.	c #292929",
"h.	c #545454",
"i.	c #8B8B8B",
"j.	c #E4E4E4",
"k.	c #151515",
"l.	c #3E3E3E",
"m.	c #383838",
"n.	c #E1E1E1",
"o.	c #DFDFDF",
"p.	c #323232",
"q.	c #3B3B3B",
"r.	c #2E2E2E",
"s.	c #B5B5B5",
"t.	c #B6B6B6",
"u.	c #B1B1B1",
"v.	c #B7B7B7",
"w.	c #585858",
"x.	c #1E1E1E",
"y.	c #2C2C2C",
"z.	c #AEAEAE",
"A.	c #B8B8B8",
"B.	c #D7D7D7",
"C.	c #E6E6E6",
"D.	c #242424",
"E.	c #515151",
"F.	c #B4B4B4",
"G.	c #B9B9B9",
"H.	c #BBBBBB",
"I.	c #C6C6C6",
"J.	c #C8C8C8",
"K.	c #212121",
"L.	c #4F4F4F",
"M.	c #B0B0B0",
"N.	c #B2B2B2",
"O.	c #BDBDBD",
"P.	c #C3C3C3",
"Q.	c #C7C7C7",
"R.	c #ECECEC",
"S.	c #535353",
"T.	c #262626",
"U.	c #4B4B4B",
"V.	c #ACACAC",
"W.	c #CCCCCC",
"X.	c #E8E8E8",
"Y.	c #181818",
"Z.	c #4A4A4A",
"`.	c #C2C2C2",
" +	c #C4C4C4",
".+	c #414141",
"++	c #1D1D1D",
"@+	c #484848",
"#+	c #222222",
"$+	c #1A1A1A",
"%+	c #424242",
"&+	c #171717",
"*+	c #4E4E4E",
"=+	c #505050",
"-+	c #E5E5E5",
";+	c #525252",
">+	c #D2D2D2",
",+	c #EFEFEF",
"'+	c #454545",
")+	c #4C4C4C",
"!+	c #F0F0F0",
"~+	c #434343",
"{+	c #4D4D4D",
"]+	c #C5C5C5",
"^+	c #EAEAEA",
"/+	c #E9E9E9",
"(+	c #494949",
"_+	c #CDCDCD",
":+	c #444444",
"<+	c #474747",
"[+	c #464646",
"}+	c #161616",
"|+	c #131313",
"1+	c #1F1F1F",
"2+	c #121212",
"3+	c #191919",
"4+	c #0D0D0D",
"5+	c #F1F1F1",
"6+	c #EBEBEB",
"7+	c #EDEDED",
"8+	c #1B1B1B",
"9+	c #3F3F3F",
"0+	c #101010",
"a+	c #1C1C1C",
"b+	c #141414",
"c+	c #111111",
"d+	c #0B0B0B",
"e+	c #090909",
"f+	c #F2F2F2",
"  . + @ # $ % & * = - ; > , ' ) ! ~ { ] ^ / ( ^ _ / ( : < [ } | 1 2 2 2 1 3 4 5 1 2 6 6 6 6 2 1 7 8 9 9 8 0 2 1 1 1 2 6 6 6 6 6 6 6 6 2 1 a a 3 3 4 5 5 4 | b c : / d 1 e f @ . g * & % $ $ % % $ g % = $ * h i j k l m n ] o p q b } p b [ p } a 4 p [ | 1 | n b $ r ",
"@ @ # $ % * g s * + h t , t e | u v w ^ x _ y x _ / ( z A [ } | a 1 1 1 1 a 3 4 1 2 6 6 6 6 2 1 6 6 0 7 0 6 1 a a a 1 2 2 2 2 2 6 6 2 2 1 a 3 3 4 5 5 5 4 | b c : ] o 5 B * # + g * & % $ $ % % % g % + f s # > C D E F G { d [ c [ p p b [ p } } q q | 3 ) p ) a [ y ",
"# f $ % & * g g % H I t ; H J 5 K L M _ N x / N _ ^ y z A [ } ) 4 3 a 1 1 1 a 3 1 2 2 6 6 2 2 1 1 1 2 2 2 1 a a a a a a 1 1 2 2 6 6 2 1 a a 3 3 4 5 5 5 4 | p c n y y [ 9 O $ + * & % $ f $ $ % % s & = f e e $ P Q D R , _ : S A c b p b [ p } b | 5 } | 1 1 5 M T U ",
"@ # # f $ $ % % f h V ; H = B 5 K L M _ N x / N x ^ y z A [ p ) | 5 4 a 1 1 1 1 1 1 2 2 2 2 1 1 1 1 1 1 1 1 1 a 1 a a a 1 1 2 6 2 2 2 1 a 3 3 4 5 5 | 5 4 5 p q S ( / : 4 W & = f f # @ @ @ # f $ g g $ $ ' X O t k D Y Z W A ^ : A [ b b b b } [ 7 2 A b G 5 { T `  .",
"# # # f f f f f = ; V - + # ..4 { v w ^ x _ ] x x _ ] d S q p ) ) | 5 3 a 1 1 1 a 1 1 2 2 1 1 a 6 2 2 1 1 1 1 1 2 1 1 a 1 2 6 0 2 2 1 a 3 3 4 4 5 | | 5 4 5 } [ S d / y [ G g # = + . . . + = = # & s * & g ' e * +.Q R Q @.) K o n c b b b b p } | 5 5 2 } #.$.` %.&.",
"% % $ $ $ f f f   t ; . = # ..5 { v w ^ x _ y x N _ ] d S q p } ) | 5 3 a a a a a a 1 2 2 1 a a 7 0 2 1 a 3 a a 2 1 3 4 3 a 2 0 2 1 1 a 3 4 4 5 | ) | 5 4 5 } [ A : ] ^ S 7 ' $ .         . + = @ $ * g g * * * ' + *.=.R -.' / ] z < [ b b b p 1 < | J ;.M >. .,.'.` ",
"$ $ $ f # # @ @ ).; H @ @ @ X 5 K L M _ N x / N N _ / o n c b } ) | 5 3 3 3 3 3 3 a 1 1 1 1 a 3 7 0 1 3 5 | 5 5 3 4 | ) ) 5 a 1 1 1 a a 3 4 5 5 | ) ) 5 4 4 ) b S n y _ z 6 e & . . . . . + @ @ $ f $ & g * * g ' O +.!.~.{.].^.^ o A [ b b b p 5 3 7 a ! /.,.(._.&._.",
"@ @ = = + .     ; ; . f @ + X 5 M :.<.N [.}._ [.N x / o n c b } | | 4 3 3 3 4 4 3 a a 1 1 a a 3 7 6 a 5 ) } } } 5 ) p b p ) 5 3 1 1 a 3 4 4 5 5 ) ) ) 5 4 4 ) b S S ( x d 6 O * = = + + = @ # f & # @ $ g s s e e |.g 1.2.3.Y r _ ( S [ b b b p ( W |.:.4.5.` ` ` 6.7.",
"$ f f f + h t ; V ; + % @ . J | w :.8.x }.x ] N N _ y z A [ p } | | | 5 5 5 4 4 3 2 7 6 4 ) ) 5 3 6 8 2 } c q } | | 5 ) p p | 4 5 7 8 3 | 4 3 ) 4 | | 5 3 3 | } : : o ] : 3 ^.J @ @ @ @ @ @ @ @ f f # # f $ % & g J |.t D ~.9.0.% v 4 ^ 4 A 3 n | 1 ! '.a.$.b.` c.c.c.",
". . + . ).t t ).h ).= $ = . X | M d.<.N [.N / }.}.x / d S c [ b } } ) ) | | | | 4 4 5 ) } | a 6 } ) | | | ) | | ) ) p q [ ) 2 G 3 0 2 } [ 5 6 7 5 | ) | 5 5 ) p n n o ] : 4 |.X % $ f # @ # # f f f f f $ % * g s e ^.% @.2.-.2.e.[ { A 3 ] 5 6 1 L f.g.%._.c._.f.f.f.",
"H     ).t ; H = + . = # . . X } 8.h.#.N [.}.^ [.! N ^ o n < q [ p p } } } ) ) ) 4 | } ) 4 a 1 1 a 5 } } ) ) b c < c < A n S c b 8 4 c q 1 ;.a S 5 ) ) ) 5 | } b S S o ] z 5 ;...e s & f # # $ % f f $ $ & g ' e ' O W i.H C j.9.E h :.d c o 3 a }.%.k.,.l._.'.m.` ` ` ",
". @ + ).;   $ * % = = @   . B p 8.d.<.N [.N ^ }.[.N / o S c [ b } } } ) ) ) | | 4 4 3 2 7 0 4 b 1 a 3 4 4 3 4 4 7 ;...B ;.a b A ^ [ 7 7 ) c p a 4 | ) | 5 | } [ A S d / z | G W ..J s % f $ & * % % % & g e J X O ^.W 8 ^.i n.Q o.Z p { ^ | [ <.%.,. .p.q.7._.%.r.r.r.",
"= # . ; ).$ O O g @ . + H . B p M d.<.x }.N / N N _ y z A q b p ) | | | 5 5 5 5 3 5 5 3 6 2 5 p ) a 8 G ;.W s f V r s.t.u.t + $ 2 } < < p 4 1 2 3 5 | 5 4 5 } [ S S o / d | G ^.|...e * % % * s * * g s e J B W X 7 |.^.7 H !.o.o.D v.( y b w.6.x.` &._._.7.&.y.` ` ` ",
". . ).V . X i.W g = H   H . B ) 8.h.#.N [.}.^ }.N _ y : < [ p } | | | 5 5 4 4 4 4 ) p b ) 4 a 1 0 i.J O J s = t z.u.+.s.s.s.A.m @.. a A q } | ) 4 5 | | | ) b q n : ( ^ d | G W ^...O s * * g s ' ' e e J B W ^.^.0 i.X 9 B s.B.C.B.o.f A v f.D.%.y.(.f.c.6.%.f.y.y.y.",
"- - I V & 2 5 7 & . ).H H . B | ~ E.w.! { u N u }.x ] d A q b p ) ) ) | | | 5 5 ) 5 a 1 1 3 3 a W B X X X e & @ .   ).h I z.F.G.H.I.J.> 5 u ( 9 | } p p p b c S z z y ^ d | ;.W ..B J e s g g g J J J J X ..W ^.;.|.i.^.|.G f @.o.{.C.k ^ >.K.(.>.'.` %.p.'.'.6.r.r.r.",
"- ).V ; X q n | $ H h - H + X 5 L L.:.K M K ! w [.N / o n < q [ p } } } ) ) ) ) b 2 ..' B 0 ) q 0 6 2 8 ^.e * % - t > M.u.u.N.F.].O.P.Q.G.& [ _ } b [ q [ c S : d d ] _ d 5 ;...X X J O ' s g g B B X X B ..W ^.8 O |.8 W G W I F R.E E S.5.g.c.T.m.b.>.y.'.6.p.p.p.p.",
", ;   f 7 u { 2 # - t - H + J 3 ~ U.L.<.<.8.! u u [.x ] o : n S b [ b | a 4 b S ..3 b 5 5 [ [ 3 a 2 8 ;.^.J * # % ).V.> M.A.m v.O.@.O.P W.Z H c { ( 3 : b | u p o o / }./ b 9 B ..J W W O W ^.& B W ..J O B W ..^.G i.X e B ^.W 1.2.X.f T.Y.q. .p.7._.4.(.7.&.D.y.6._.",
", V.H J < :.8.2 f - t ).H + X 4 w.Z.L.8.M w ! u u [.x ] o : n S c [ p } ) ) | 5 6 [ S p | [ b 3 1 6 7 8 9 i...O f h z.r N.A.m A.F.P I.P O.`.I. +% w.w : [.< | N ] y ^ }.] } i.e ' s ..^.J ^.i.s X W ^...X B ..W |.|.^.X X W ^...% 0.; >.r.&.D.f.c._.p.r.y.'.%.'..+f.++",
"t , f 5 w U.M 7 f - t ).H + B 5 d.@+L.M K K [.u u [.x ] o : n S S q p b q p a 8 c o o c } [ p 3 3 1 6 0 0 8 i.W % H , r +.A.G.A.I.i s.H.k C F e.].B x _ / ] c / x ^ x [.] | W g $ $ J ^.^.7 2 W O ..|.^...X ..|.|...B ..W W X e @ 7 Z.#+g.'.(.>.c.f.%._.%.(.%.l.c.r.` ",
"H   i._ E.U.[.i.$ - t ).- = ..) h.@+L.K u u }.u u [.x ] o : n S < q [ [ [ p 4 2 ( / ( < b [ p 5 5 3 6 7 8 ;.^.X e f h > N.t.G.G.O.e.Q.J.@.t.m  +W.j > J A w.y z N _ N ! ] | W g % = * W 7 [ A a O J ..^...X ..;.|.X J ^.^.e & & f y.$+l.4.#+T _.f.r.p.>._.p.m.%+&+%+: ",
". s q v *+E._ G $ - t h - = ^.p h.@+=+K u u }.! u [.x ] o : n S [ q q b ) ) b c ( ( : c [ q b ) | 3 6 7 8 G |...X * - r s.A.m O.i i ].P ].].Z B.3.3.-+{.3 @+( u }.x }.u ^ } |.' s + # X a / { ( |.X O ....X W 9 |.J X i...$ $ X U.&.D.4.c.&.p.%.` p.c.%.c.T l.q.` ( h ",
"f 9 N ;+;+d.N 2 % - t h - @ |.[ L Z.=+K { u }.! u [.x ] o : n S b q q p | p n / z n < c c c [ b 4 1 0 7 7 7 8 G O * - u.A.A.m ].G.u.r O.>+R 9.J.*.!.-.,+i x E.M u [.u K x b i.e O @ # e 2 [.L.E.} G O J ..X ..9 |.J B ;.O # ^.z k.$.f.K.q.T  .'.f._.c.r.6.b.'+b./ W - ",
"^.< v S.w.:.[.2 % H t h - @ i.q ~ )+E.w K { }.[.u [.x ] o : n S c q b p b A o ^ : < q < A < q b 4 2 7 9 9 9 G i.e g H M.s.N.N.v.).P D 9.k J.k W.P.B.F !.!+M.E.<.8.w M 8.N b |.' ' $ & s |.^ ~+>.! ) B J ..X B i.i.X ..|.g * n b.4.K.` T >.` '.%.c.p.p.c.$.~+d.[.O O B ",
"5 N =+h.8.L }.8 % H I h - @ i.c <.{+E.M w K }.[.u [.x ] o : n S S [ } p A o y y : < q A n A q b 5 1 9 i.^...X O O ' = V.r V I z.Z >+*.]+I.=.D W.F 1.9.Z ^+/+8 (+w.#.#.#.}.p ^.g & & e s e d l.D.;+: |.X W X X ^.;.X ..^.& O <.$+7.r.%.7.>.f.%.p.&.` './.%+@+N ;.% ^.|.",
"8.M ~ v v h.[.7 s = ).- H @ ^.p v {+d.}.}.! ! w [.x _ ^ o < c S [ [ z 9 [.} N z S S n : z S [ | 1 0 G |.X O W 9 ' * = H # # s.9.k W.W.Z ]+]+J.W.P j 2._+9.n.Q.g )+l.v #.}.[ 5 - * g * g |.( :+U /.[.a i.e O |.i.i.|.% G ; : a.(.(.%.c.f.r.p.c.c.4.l.&.'.{+d 6 * W g + ",
":.w.L v ~ h.u 2 s = ).- H @ ^.p ~ {+h.! [.u ! K { }.x _ o c q A A q 3 < x p }.: n n S S A q | a 5 6 i.W i.7 7 G a g # g h I._+O.Z k k J.I.I.Q.Z `.Z F Z C -.2._+V.8.<+S.! S @ B % * & * |.o :+U T l.x W W W s B B O i.= 2 ` T.g.%.>.&.p.r.f.%.f.(.&.c.m.8.0 O X s f - ",
";+:.L #.8.:.u 1 s = ).- H @ ^.p #.{+;+{ { { [.u w ! N _ o c q A ( 3 G u / c _ z z n A c b | 2 8 B ;.9 i.9 a 6 |.W 3 W t.F e.O.J.P.P. +I.Z F k Z *.Z J._+1._+j j.l ).7.L.S.b e ^.% & & & W d [+4.}+.+K : ;.* ^.3 ^.B e = =+|+r.'.c.m.m.6.f.%.%.'.&.4.p.L p B s B @   h ",
"w.#.~ 8.M L [.6 s = ).- H @ ^.p #.)+=+M M w [.! K [.x _ o A A z ^ % ) K x o : y d n c p | 1 8 i.J 8 0 W ..2 ) | G . s.m i e.e.m ].].P ]+W.*.!.W.=.W._+=.1.]+J.9.2.-+q T ~ n ) @ * g & & ..n (+,.,.f.q.w 7 6 4 e 9 G @ ]  .p.` >.p.>.>.p.p.c._.p.7.1+.+a X 9 ..* . H - ",
"M w #.~ ~ S.u 6 s = ).- H @ ^.p ~ U.L.<.8.M [.[.u N _ ^ ( : z / n F.u ] ! _ } ^ d S [ | 3 6 9 i.| 3 G B G p < p . t. +O.s.v.G.v.P P e.I.W.!._+k ]+Q.k _+!.*.1._+W.,+j .+w N 8 + ' ' g & ..S U.` ~+2+#+U.u + Q.  f + 2 r.a.q.g.&.6.>._.p.p.>._.%.g.6.x s X 9 e # = = = ",
"M M v L :.L.w a s = ).- H @ ^.p w.(+*+#.<.M [.! ! x ^ ^ y d y N W G.d.S { x ) ^ z A p 5 a 2 0 8 2 ;.;.) d A ^.h P.z.> P e.r z.P ]+ + +I.Q.J.I.]+]+k Z  +k j B.!.>+{./+^.>.A ..B ' ' g * W n Z.(.$+_.++b.G.Q i j k D d 3+c.K.6.$.>.&._.%.%.c.p.y.5.<...J 8 g ).f f f f ",
"#.<.v v w.E.w 3 s = ).- H @ ^.p :.@+{+<.8.M ! u { }._ ^ y d y N s.).w ( }.y < ( n c ) 4 3 3 3 a W |.5 o A J r i > m t.).> I.]+r e.`.P.`.e.e.P.]+1.1.k ]+Q.1.C 1.=.C B.D :+d G i.& * * * ^.o '+T./.4+<._+!.P.R ~.Y 5+* #+/.++/.&._._.6.'.%.c.p.y.(+1 f ^.^.. h @ # f f ",
"w.#.#.M M :.u 1 s = ).- H @ ^.p h.<+{+<.M M ! { M ! N _ y z o x C ..d ! / : ( : S q ) 4 4 | | | | [ : b # @.A.f > ; V F.v.+.v.`.G.i @.].O.@.]+k F J.J.k Z Q.k *.*.P.^+Q f <+..' f $ % * i.] b.K.|+W 1.i O.D 2.B.B.l D 4.%.%.q.'.'.f.'.` %.&._.f.) e ' X @ = & - @ @ # ",
"M { M w { 8.}.| s H I h ; - ..< h.Z.=+#.8.{ }.K u ! N x | K S 3 =.;.M N y x / : } } q < b 4 4 p } y ) ).u.@ # F.> V V.F.A.A.H.e.O.v.s.i J._+Q.@.m J.!.Z J.1.!.J.I.]+_+o.Q.4 ] $ % g ' e 8 ! &.x.u.`.P `.B.B.k *.C =.o.:+D._.&.` ,.c.y.%.7.U y.u * s e g f = @ f @ @ @ ",
"w u w K u M N 5 '   I ; ; ).B c :.)+;+M w ! x u [.}.x ^ } x ] O _+8 #.{ x [./ S < [ b } 1 9 0 5 [.8   H ).> ; s V G.i M.M.].O.z.r r N.A.].P.P.`.`.J.I.H.m `.I.`.C Z  +1.=.G.* |.s = . + | l.K 9.t.J.k W.Q =.Q._+D E E T ,.6.&.r.` %.r.p.f.D..+a e ' * f = = f % f f f ",
"K [.{ { [.w _ 3 e . t ; t ; O b v L.d.K { }.^ [.}.N _ ] q o w M.H.4 8.! x [._ o S [ } } | 5 b n a * H % O f h ; , G.H.M.r A.F.)., M.v.m m H.P ]+k Z @.+.+.@.I. + +W.!.J.F j `.g X # % ) ) H.2.G.P.1.1.W.C F I.!.=.X.C ` p.%.>.%.r.r.%.%.4.r.u = B s # . . @ % * % % % ",
"u }.u u }.K ^ a O . t t V I ' } ~ L.d.K { }.^ [.[.}.x ] : : w.Z ; b ! ] y N N N d q } c n A q q = $ e |.;.O h s.z.h t N.N.I ; r r F.G.G.v.v.H.@.P.P v.u.t.`.J.Q.H.`.1.Q.O.1.!.V.e X 1 t {.I.I >+!._+J.]+Q.I.F 9.!.6+t.x.>.f._.c.y.` 6.'.` {+1 H J * + H + f % % * * * ",
"u }.u ! }.{ ^ 1 e . I t , V s | v *+h.w w ! x { u ! N _ ] y <.B.  | / ( ^ }.x _ ] < } c S ) i.g ^.g e G J t V % >   . V.> ).; F.M.r r u.+.s.s.s.F.F.N.+.m P e.O.]+F.G.e.G.].]+G.B , *.Z M.P.3.`.*.I. +J.J.Z !.9.=.7+s 8+m.%.6.6.,.'.6.p.:+< s O * f + + # $ f @ * * * ",
"u }.u u }.K ^ a '   V I V., g | w.*+S.M M { }.w K { }.}.^ u ( 2.I 9 S y u ! ( z : b ) q q 1 O # |.7 8 e + . # $ t > V   H > M.V.r , I V.F.A.A.s.u.F.A.i ].O.G.s.i N.A.@.M.; v.k F.1.O.F.=.*.].>+k @.J.=.W.J._+W.2./+n K.>.c.f.'.(.%.p.l.x X * ;.@ = = # f $ # = % % % ",
"{ [.{ u [.K _ a s - , V V., g | v *+S.M M { [.w K u N [.^ v 1 j , X 3 < N }.o d c [ [ [ 4 G W ^.O a 6 % $ i.J > ).V I H ).V.z., r , I V.N.t.t.F.F.t.H.@.O.G.t.s.t A.H.M.I I s.Z Q.H.P.*.k  +J.k J.].W.=.].t. +Z D 3.(+T.r.m.'.r.'.f.%.;+8 g B g   + @ # @ @ # f f f f ",
"K [.{ { [.w _ 3 g ).V., V., g | ~ L.h.M w { }.w { u _ [.] ;+J C ).e |.2 : / ] x z d z } ^.& ' G b O . s ;.B $ # h & $ V.r   - +.V.V ; ; I , V., r u.t.A.F.M.u.s.; m ; e u.F ].V.P.1.k Q.!.I.].F W.P F Z t . H.F Z  +,.T.4.7.'.'.c.'.f.u $ O 8 I H + # @ + + # & @ @ @ ",
"8.u M #.M M ^ 4 g ).V.I I I * a 8.*+S.K K w u K u u [.! ! }.2 *.t * O W q }.! K ( o 6 B 9 ^.;.d f ..|.* # s J s ' V , + ).V ).  ; . . ).- . ).> V F.v.m > t G.G.f . I u.A.@.I.F F ]+@.O.e.I.k F *.]+J.e.% )...).Q ( x.9+r.` '. .` p.K ^...W % @ . . + = @ # f f f f f ",
"8.! w #.w w / 3 g ).V.I V I * a <.*+S.K K w ! K u ! }.{ { #...Z > $ O ..} _ }.x ] ^.7 } B 9 [ i.G e B 2 9 $ $ 9 O @   - t ).H V ).. . ).).  - , t r N.* ; H.@ & I r v.O.e. +Q.Z t.O.I.Z J.I.I.Q.]+j P.H & u.e t I.%+a.` '.'.` p.y.<+< e e O f   = = = @ # # f f f f f ",
"M ! w <.K K ] 1 g ).V.V V I * a #.{+;+K K w ! K u ! }.M w L.  P.u.# X B a ] }.y a 0 i.6 q | |.X ..9 0 ;.B J O s ; = % $ * J e = f % $ + H   - t I ; g t F.O X N.N.v.].`.`.P @.@.J.e.H.O.I._+_+Z I.=.F.$ H h |.A.> U r.g.c.6.` &.` ! ^.g * & f - # # # f f f f f $ $ $ ",
"M [.K 8.{ u ( 6 * h > V V V & 1 ~ )+E.w w w ! { { u }.M K @++.P.v.h s ' W c ^ S ^.p 0 9 n 4 g |.W 3 3 X s ^.^.% i.;.J & s ^.4 o . + +     = f $ B r - f g + i > G.i P P ].i m m ].@. +W.C *.Z `.Q I.V % 2 y 9 E S ++%.6.p.&.>.&.q.} & J g f $ + % $ $ $ $ $ f f % % % ",
"w }.{ w ! [.d 7 * h > , , V & 1 v U.E.w w w ! { K K }.w { @+s.Z ].F.+ % % 6 : [ ) 9 < S B ^.| ^.q 8 i.2 8 e J 1 ) A d x ] ;.s 3 ) 4 7 W g # f & 7 v g J ..I.N.M.P. + +`.P @.e.P.P Q.W.Z P. +*.-.*.> ..y {+[.r 9.(.a.5.7. .c.7.6.v ;.& W g . f # % % % % $ $ $ $ & & & ",
"K N u K [.N : 9 & ; z., , , % 2 w.Z.=+M w w ! { { w ! { { )+).C i H.= ^.e 7 z A b q A 5 W |.a 4 ) 2 G i.|.|.8 3 0 A { (+U.1 V % | } < ] { :.'+&.b.q.9+m i 7 C e.]+]+ +e.P e. +J.=.k P. +W.*.F ]+O < w..+N m 3.z k.c.T.q.4.y.r.c.) X g O f - . # $ $ $ $ $ $ $ $ & & & ",
"K x ! { }.x n G & ; z., V., % 2 L (+L.M w w ! { ! M { ! M =+;.9.i e.$ } 8 6 z z p N 4 O ) 5 i.[ ;.5 1 e J 5 b 7 n ] n x d.o 6 o :+@+@+[+<+'+$.(.U T f s H >+N.9.@.P P @.].@.e. +@.`.k j D G.;.}.K S.=+_ V.Q.- 1+g.7.c.r.&.r.#+{+' W ' = = +   # # # # f $ $ % % * * * ",
"{ x [.{ N _ S ;.& ; z.V.V., % 2 L (+L.8.M w ! { }.w K ! <.;+c D  +W.= < 2 G q c ^ 3 0 0 8 < : i.| 9 G 3 ) 3 | n | _ }.S.f.b.N N K K #.=+@+/.,.}+E.+ % H _+Z P.@.i @.`.`.e.P P e.`.*.>+s.1 ~ *+;+<.! 1 s.]+}.b.#+6.4.>.3+[+>.#+: = 9 O ; + % = $ = @ @ # f $ % % g g g ",
"x _ ! u }.! d ;.& h V.I V V % 2 8.[+S.#.M N K ! K 8.x v [.d.L D Z t.).8 6 % 0 u : 6 |.1 b 5 6 6 | ^.;.[ } 9 q h.'+*+'+%.$.{ z L %+{ { Z.~+%+4+y % B ).@.m G.@.A.A.N.P ]+s.m k Q.1.v.f 4 K d.8.N O ' F.F ..4.0+[+b.K.` 6.m.$.<+J |.* H -       + @ @ # f f $ % % % & * ",
"_ ^ [.u }.! d ;.* h > I V V % 6 8.[+S.#.8.}.w ! ! v N <.N #.h.u.]+ ++.# i.| c z ..2 [ q } ) b c 0 0 8 6 A M L.)+{ b. .#+v p :+K.M :+)+y.[+p.a i.% M.`.G.I u.i v.].].H.F.i >+1.M.;.w.K 7 6 8   > g s._+1 8+ .*+g.$.'.,.>._.>.! ' ^.& H - H - -   @ @ # # f $ % % % & * ",
"^ / }.[.N ! o 9 * h > V V , $ 0 <.[+S.~ 8.}.w ! }.d.}.{ N u h.1 =.D V h = c S < X p o b 2 4 ) 4 3 S z S [.@+l.[+T.f.` l.L U.l.=+S ] g.'+)+a 9 $ v.`.m > u.G.s.M.v.P i i J.].X _ Z.) c ^ g u.  = H._+8 T.8+c._.%.f.7.g.&.p.T 1 e X $ - ).- ).h - = @ @ # f $ $ % % & * ",
"/ y N [.N u y 0 * h > V , , f 7 <.'+;+~ 8.}.w u }.d.N N [.x ~ ! ]+-.V V t c } 5 [ c p a 4 p 4 G } ^ :.=+E.)+b.&.'+.+#+=+E.U :+'+#.4.n |+' } , , k O.t z.`.t.t A.r A.i Z I.W L.9+=+) c < . h @ e.I.x f.%.r.p.$.'.` >.'.%.c.h.i.^.& . h ).- ).).  = = @ # # f $ $ % & * ",
"/ y x }.N K ^ 1 * h > V , V.# 8 #.'+;+~ <.[.M u ! w.x ^ u ^ [.<.7 C  +m . o | 7 : 5 6 } S c ) 4 [ { *+{+{+%+6.(.q _.T.)+%+6..+%.h.r.4 o u J e.W.m H.+.t.m ).  P.N.G.A.].O...8.S.( w.S 0 } ).W.r <. .K.>.%.%./.$.r.(.>.y.9+n 3 0 . h t ).H -   = + = = @ # f f $ % & * ",
"/ y N [.[.M N | * ).> , V.> @ 9 #.:+E.v <.[.M u { M }._ }./ y u v +._+P.H p p S p a 5 S < a 1 [ K @+@+M L 6.4.&.u &+[+b.y.(+_.@+d.<.{ B 3   O.A.M.G.s.> z.z.V.M.N.e.].G. +i G :.{ ! c q ) V $ 9+8+c.r.,.9+$.,.7.`  .&.r.:.0 c 7 ).t t -   H   # + + = @ @ # f f % & * ",
"^ ] N ! ! <.u p * ).> , V.z.= G #.:+E.v #.! 8.{ { ! w N ( ( o _ L @ *.Q.+ 2 c ^ b b p ) 3 5 A ^ @+_.7.h.d.q.6.%+w 9+.+,.%.'+U (..+E.(+q +.A.V.V.+.I t , > F.F.t G.P.I.`.k *.= h.<+U.(+n V.e Z. .T a+_.@+` m.<+K. .>.r.$.: 0 p X - ; ).    - H = + + = = @ # # f % & * ",
"_ / }.u u ~ K [ * ).> , > z.= G #.:+E.v #.! 8.{ { }.~ ! S z ( / ~ f -+C ..: : 3 z n 4 i.3 ! {+(+[+$.f.&.<+{+:+&.$.b >.4.c.Y.%.f.) L.e O M.A.t.i , * I O.I f u. +_+P `.]+e.P.t A $.[+U.<.6 e x y.4.6.6.'.$.b.q._.5.'+U :+6 5 2 f   - H + . h h   . + + = @ # # f % & * ",
"x x ! }.}.#.K } ' H V., V.> @ 8 M [+;+~ <.}.K [.! { u x o : z o S.J -+P x ^ a n _ 0 | } c }.x.Z.'.p.c.y.)+:.6.(+K.u y b.&.#+y.;.}.W f + m `.u.t $ V F.r ; , G. +@.]+1._+W.!.+.1 Z.#+$.L.$ . m.'.` '.c.7.l.T c.` p.p.r.}.9 7 * B & f . ).h ).  + H . = # # # = + * * g ",
"x x ! }.}.~ K p ' - V., > z.@ 8 w <+S.#.8.N { }.}.[.[.^ z A S z n [.E t M 3 #.: ) 7 v w w.d.,.*+y.>.6.(.$.@+6.:.{+(+)+~+4+5.B z , r s i.V.@.s.r ).H + + V G.`.P.k k F Q.Z C m ^.L y.'.%+7 - :+>.f.p.>.q./.7.p.(.>.,.q.A ^.G s $ ' g & $ # = = + H H   . = # f $ & & * ",
"x x ! }.}.~ K p ' - V., > z.@ 9 K (+d.<.w x u N x N x y S c < S q ^ H.u./ y : | a 7 w.;+m.%.%.8. .q.c.%.(./.f.w.w ~+d.r.8+d e s z.N.. = H.].V ).I - = . r @. +e.F Z k Z *.R F H M _.5.&.y , ;+&.c.>.m.q.T &.f.(.&.D.;+0 ....s h g s e O e s & % # @ + . + # $ & & * g ",
"N N u [.[.~ K p s - > V.> z.= 9 { Z.:.8.K _ ! _ _ x x y S q c S z n ..> b [.J 4 a / u b.q.D.(.*+r.9+6.q.r.T ` '+S.'.p 3+} 9 ^.s.G.N.* s +.v.; t * . I V.M.G.e.]+I.Q.1.!.>+~.1.> u /.a.6.v z.M ` >.m.7.T q.&.%.` p.(.( W |.% % t @ f & s e O O O O e g & % $ % % g g s ",
"N N u [.[.v w b s ).> V.z.r = G u Z.L M K ^ [._ x N N ] n c < n A [.) 9 q 4 G q 1 /.E.a+:._.4.r.%+:+r.m._.l.6.c.U.a.'+N 1 8 I   P.G.# $ v.v.+ % ' . V V.r A.`.J.I.Z !.1.F =._+t.< {+T.%.<+h ] g.>.m.q.q.7.&.c.p.,..+2 |.G H +   . . . = # & ' O X B B B X O ' s * g s ",
"N }.{ ! ! v w b g ).z.V.z.r = G { Z.:.8.K ^ ! _ N }.}./ : < A : A 0 S 5 } S W p ] p.Z.&+}.p.'.&.;+~+g.y.7.7.%+%.d.&+m.1 5 H h @ t e.].z., @ e + z.M.M.z.u.m @.@. + +Z k F 3.R W.8 :.r.,.m.s p f.m.7.T T $.>._._.,.M |.9 W h H f # + H ).- . f & s e X W |.|.W ..g g s ",
"}.}.{ ! ! w.M [ g h z.> r M.+ ;.{ (+d.8.w _ ! x N }.N ] : < A n i.O h.[.6 c 6 n @+)+%+%.x x.>.@+(+m.` 4.%+c.=+>.@+4.2 M O.V t   M.F m ^.[ A 2 . $ t +.F.u.+.A.H.@.i `.Z _+B.C m p <+r.D.c.G 9 $.T l.9+T &.c.6.c.6.[ G G $   + # $ @ . - - . # % & * s O B W |.|.B ..W ",
"}.}.{ ! ! w.M [ g h z.> r M.+ ;.K (+d.<.w x u N x N x y n c < S H.#.%.a.a +.L.h.$.{ 5.b.y $+>.>._.(.c.y.)+'.L m.b+A < V.V P u.g H.`.+ p } c <.{+w.a V s., t s. +P m @.J.J.P.t a M '. .#+&.6 ..q.9+.+.+/.>.p.%.6./.7 2 |.t f # + f @ + + = f * s * * & & g e B W 9 8 7 ",
"x _ ] ! N 8.S.p O - r z.M.N.- B 8.*+;+K { u N ! _ { w ] ^ 5 : g $ w [+5.7 x <.%.h.9+T v [+'./.l..+'+4.5.D.( $.r.b...* + Z , . G.I.9 n B f g ^.A ~ Z.h.8 M.V ; @.+.@.t.].% x ^ v p ~ .+ .f.y f <+7.l.'+/.` f.7.&.L 6 a J h f + ' f $ $ $ # # % * & * * % # f g J ;.7 a ",
"}.N _ K [.#.;+b O - r z.r u.  W 8.*+E.M w { }.! =+c / K N A @ g J , g 2 8.*+>.'+N m.N '.U.b.>.r.,.#._.&.U x._.U } a F.P M.=.- , S ~ } L >.w.S.=+y n < a O $ I `.1.k `.O z ~ .+h.*+.+7.,._.( - L.c.b.9+p.` p.6.f.o 6 G s . @ # g $ % % $ # # % * % * g * % & ' J ..i.0 ",
"u u }.<.K w.L.c O - r z.r r + i.M {+*+#.M K [.u ! { :.8.G.# 5 - |.$ M E.$+[+'+d ~ U.q 8+~+~+l.f.D..+M .+` $+r.h...; +.t.F +.`.w.'+a+6.>.U T /.T.%+z 9 2 7 s t A.@.P & v T >.f.$.>.m.T (.6.u H *+>.'+$.g.p.6.r.c.;.1 O $ $ = & * % & & % f f $ * & * g g * g e J B ^.9 ",
"K K u v 8.h.)+A O ).M.r r r = G w {+{+~ M K }.u <.{+(+].F z H 7 i.x c.%.b.L '+m.q.y [.(.f.%.*+<+4. .h.T c.c./.4 $ u.V.P.i `.M 9+U U.%.` c.q +.%+5.#.4 3 0 s I A.Q > &.y.:+w 3 4._.$.7.T.f.:.h ;+%+@+c.y.7.r.y.L.% 5 $ + * . e g & * * & $ f % * s s g g ' J ..|.0 0 6 ",
"K K { L ~ ;+Z.n O ).u.M.M.r = G { *+*+<.K ! N u o M Z.( X V $ % q )+m.f.:+/.~+T %+o { p.,.4.[+=+5.7.x.>.r.D.#.1 u.@ Q.e.>+[ )+v _.{+b.~ S.A 3.P h.^ n A 5 B > _+C G p.m.%+} +.Z.'.r.'.U 7.S.M.#.L.:+r.p.T U %.n & 5 # H & = J ' * g g * % % * s e ' ' O W 9 2 3 4 2 G ",
"! u u L v =+(+: O ).u.N.N.u.. i.! L.=+K N _ _ u K L.g.p i.e.j <.Y.U ~+#.(+l.l.~+^ v b ` p.'.(..+(.>.D.,.g.b.] @ . Q.t.>+a ^ 1 A ~+#.S S.[.i =.t.6 b o < 6 W V.2.+.[.[ d v O ..=+p.(.y.y.<+U.z.~ h./.,._.m.5.9+8 W G f . $ % O e & * g * & & s e J J X ^.9 2 1 1 O % H ",
"x N [.w.~ =+@+z J ).N.+.s.F.H ^.[.;+h.}.] ( ] u a+S.0 # G.h S..+{+=+=+'+ .l.d.L n w 3 (+'.6.#+%.>.U l.8+T : 8 H.N.M.1.< _ ^...9 ..^ c p + `.@ h X 3 S 5 i.|.t Q 1.c ^.7 B N._ &.'+_.%.c.)+l.V.! S.$.y.6.p.%.:.i.0 % % f f O s ' % & g g * g e X W W |.G G W g @ M.s.i ",
"/ _ N v ~ =+@+z J ).+.F.t.s.)...}.S.:._ d z y ! N * % ^ q (+D. .N [./ q.c.~+<.m.v | o q #+` ` r.%.c. .b+~ ] N.I  +W.< K ^.X 2 s 8 s 0 A < A 3 $   B | | 1 6 h R e.  s 5 n }.(+d.S.q.%.c.)+m.t.} E.7.%.p.f..+^ 9 3 I * * f W & g $ & * g g s O B ;.G 9 9 ..@ N.@.i @.P ",
"! 8.~ E.h.@+9+^ X - N.F.t.t.h B [.L.{ ! x y }.1 . ^._ _.v m.q.y./.< 6 / 4.y.:+/ M S.a ;+7.r. .6.%.f.1+f.W d W.; 9.( ;+| 8 |.$ O # $ ' X s =   +   9 ;.9 1 7 = 9._+u.t i.1 7 y ( M q.` %.b.c.t.c ~+q.4.T '.g.J 5 O g $ $ * s s * X e ' O X X ..|.X 4 3 @ v.i ].]+O.O.O.",
"u <.v =+;+'+T x B H u.+.t.t.h B ] L.L #.u ( / 3 G { ~ < _.1+7.#.N <.9+'.f.U.)+~+< N A / 4.,.q.1+p.,. .^ ] u.h >+p #.x 6 6 i.# $ - ).H +   t V ; + G |.9 3 6 f C 9.s.V O i.;.n c u /.p.>.b.` N.2 l.c.g.m.'..+X 4 s & $ % g ' s * O e e J X X W |.7 8 g u.P P ].`.H.H.H.",
"M v L {+*+.+$.[.B H u.N.F.s.).B ] {+h.u d 5 5 8 W 2 6 7.S.{+] U.A ( ~ 6.4.r.)+<.w 7 L.d.^ >.a.m.6. .9+a 6 N.J.. c.L [ a a ..f f ; > u.r z.M.r V.@ ;...G 4 a * W.~.A.t $ e ;.q 5 _ /.>.q..+D.V e $.(.r.f.` u ..2 % $ % * ' e ' g e O J J J ..i.9 a g +.]+Z  +P @.i i O.",
"L S.;+Z.U.9+m.}.B   r u.+.F.)...}.U.h.] A 4 3 b y $.~+E.T.7.#._ A <.U.T.g.#+/.'+d.%+_.N 0 l.'.,.6.K.N [ u.z.W.&.&.x p A 2 ' g s H > s.s.N.M.> I # |.O i.5 3 s Q.-.A.. # g 8 p 3 ] $.c.q.:+1+@ @ T T.&.,.r.p |.W # f % g ' e ' s e J J e J i.0 2 .., ]+F Q.]+P.@.P.P. +",
"L.{+*+<+@+/.$.x B   z.r u.N.- ..[.)+E.x }./ n 8.:.A S.%+w.<.7.9 x .+'.K.7.f.&.'.b.g.4.x 3 u g.a+5.%.3 0 Q.W.{ 3+U.: q n 8 X W g @ I +.F.u.z.I - $ ^.O i.5 3 O @.-.i # # & 0 5 4 _ f.f.$.<+x.X = U.T.b.T.$.0 ;.& = # & s ' ' e e J B J ' B 7 a 2 V O.Q.`.]. +Q.P.J.Z Z ",
"U.Z.{+'+[+q.m.x B . > > M.u.H ..x L.=+] x o 3 u ) E.w d./ m.g.u [.U..+T /.(.f.q.'.(+(.x b |.p.y.c+/ } H n.J $+7.:+_ b | 9 7 G = $ ).z.r r > ; + * G ..8 | a ..t.o. +@ # % 7 6 ) #.g.p.$.(+++0 # K T..+T.;+8 |.. @ f * g g s e J X ..X O |.1 7 X @.]+P.H.m  +k k k k k ",
"U.U.*+'+:+m._.}...+ V.V.z.M.H ..N L.;+b b 4 W M f.2 S {+r.( T } ) ;+r._.6.r.T.%.L %.U.$ y ] : 3+y.9 5 I.m 6.D.Z.T 8.[ 1 0 2 ;.f & + ).t V , ).# O 6 9 3 p 3 ;., E k = $ * 8 G q U.D.$.T Z.a+| f A #+7. .A G X . # % * * & * e X O ......7 1 O V  +P.e.].P I.W.!.W.W.F ",
"*+{+L.'+~+_.p.u ..+ V.V.z.M.H ..u )+;+3 3 } } m.< ~ K [+:+y K c 4 <.c.T T. .r.E./ b.w ' =  .#.4+u z * l =+U  .:+%+<.A | a 8 W J g $ @ . h t H % ..4 2 } [ 4 8 - ~._+@ g e 7 ;.n 9+5..+b.Z.$+b # 3 x.6.g.|.|.' = $ & * & % & ' B e ..^.i.1 2 @ ].@.@.`.]+Q.J._+>+!.!.1.",
"E.[+*+U..+f.f.w |.+ z.M.u.N.H ..8.~+M x N 9 } %+L.=+K ;+L.w )+{ 7 {+c.r.T #+f.)+%+O ! d.U.'.++7.< q A.3 r.#+a.K b.8.c } | 8 W W ' s & # . . # % i.A 2 ;.2 6 7 * 3.{.i.- O 4 ;.M  .&.y.Z.~+x.{ . G &.K.(+J B g @ * g g s ' e e O g |.J W ) ^.F.`.P @.e.Q.1.*._+k _+_+_+",
":.U.E.U.b.r.r.8.^.+ z.r u.N.- B c =+}.d N q ^ .+~ < L.[+=+v @+w.6 h.U. ..+$.5.(+/ ` 5 %+D.f.6.' = | P { d+>.f.M :+w c } | 7 ^.^.' s * f = @ $ * G S 4 2 5 2 9 = Z D X * i.7 3 Z.4.>.r.Z.b.5.*+H i..+#+v ' B & = g g s s ' e e O e ^.B i.3 * i  +P `.]+Z _+!.1.W.1.1.1.",
":.)+E.U.b.6._.! ... > z.u.+.).X b {+M o x o u Z.~ 5 U.++G q.b.K 1 u ^ K.m.(+3+f.[+'+w g.K.8+h.F N.M.d (.D.4.6.w Z.{ c } | 6 ;.i.e ' g % # # % g i.c [ z ^ ] d ;.G.`.* |.6 i.( p.T._.p.)+/.` 6.- W *+U n * B $ + g g s ' ' e O O B W ^.7 8 ;  + +`.]+k W._+1.!.*.!.!.!.",
"=+@+L.(+:+/.:+S J . V.> M.F.h X ( [+;+u N n K <+S.u y.~ u ;+7.: p ] }  .,.L l.K.++3 f.r.b.b.o = O.X U 8+%+5.,.N E.[.c ) | 1 9 G J J ' * f # f & O a } y x ^ ] G s.V.$ G 7 0 h.T.g.&.7.*+T >.+++ B w.f.8 & B f @ g s s ' e O O J ^...;.a ..+.J.e. +Z 1.!.1._+*.=.!.!.!.",
"{+<+*+@+[+'+=+3 '   , , M.F.; O y {+;+~ _ b ~ p.M f.<+: r.S.8.[.z y a %+,.u b  ._.E.@+<.: G n 1 +.#+>.&.y.9+g.( L N < ) | 3 7 G ....J g f = @ # * ..;.4 ;.O O F.m # & W ;.z l.g.y.7.~+=+/.T }+O O 8.:+J s J % $ s s ' e e O J J |.X 7 5 s m ]+].J.W.*.*.1.1.C 9.*.*.*.",
"*+(+L.[+:+<+h.2 g H V V M.s.I O / E.S.v : 2 #.%.#.[+z 5.:+.+#.#.o N 1 8.7.w.[ g.m.b.4 ' z.b / I w Y.T /.'.>.` ] <.x A } | 3 0 G ^.^...e & # # # g s e ..t F.z.W.P g e B 8 ;+f.'.f./.U.L.9+T a+| * 8.K e O g & * s ' ' e O J J X ^.B 1 4 = O.`.e.W._+!.!.!.!.C >+C C C ",
")+@+)+%+b.'+h.1 & - I t r t.I e ^ )+*+M p 2 <..+d.q :+U %+h._.~ / h.3 z <.)+%+6.&.( f t.. E.< 7 x.@+D.'.)+D.` u K _ S } 5 4 6 ;.^.|.^.B ' * * g O g ' ' v.e.r Q.@.$ X ;.p >.(.p.%./.L.)+b.>. .N @ #.5 ..X # % g ' ' e e O J X X ^...3 6 I P `.J.!.1._+1.!.C C *.>+>+>+",
"<+:+(+l./.'+h.2 % - t t r t.V ' : )+{+[.| q E.<+z {+y.)+[+l.;+9+8./.} } 1 h.a+E.}.n ; @.L.o W 0+p.>.,.c.{+m.y.#.{ _ n } 5 4 6 i.^.|.|.W X O J X W g g $ ]+!.v.W.H.+ ..1 o U y.f.%.T =+(+b.%.%.:.H ~ X |.B   % g ' ' e O O J X X ^.^.5 8 M.`.P.!.C 1.F W.*.>+*.1.>+>+>+",
":+q.9+U.7.@+=+3 % h > V.u.t.t O S '+L.^.E.a Z.` o %+m.>.q.y E.E.U.d.<+8.7 l.Z.3 - ].F ! M & f.g.Z.>.%.6.b.Z.a+h.:.#./ | 2 4 a G |.^.i.9 7 9 W e B ..X X & r M.g H A G # 6.4.T y.$.l.S.)+9+'+8+Z.g < i.X B . g e O e e O J X ..W ^.^.0 5 F.P._+!.=.C !._+_+*.9.j D D D ",
"/.&.T @+m.(+;+a & h z.> u.t.I e o 7.i.;+! * &.'+q.9+'+U.c.L / y ;+)+8.o ^ E.a 2 `.Y ) )+* [.4. .%+6.f.c.l.<+x.;+h.w.x p a | 4 7 8 ;.9 5 o }.}._ | < y K K n < w | c ;.w >.5.b.r.q.q.E.*+T '+#+~+g ) B ' J + * g e e e e O X ..W ^.|.0 4 v.I.1.*.*.!.1.1.!.>+D B.=.=.=.",
"&._.T '+&.)+:.2 & ; r z.N.t.V s z ( n Z.G q b.<+` m.&.)+T N ) ~ _ <.{ L {+}.$ 3 n.  S.2 O 1+m.,.m.f.f.&.q.:+#+*+=+h.u < | p ) 2 G X s ^.) o y d d A 3 9 ..@ % a c e 0 _.r.(.>.,./.&.*+;+$.<+(.7.g 8 s & ' @ & % ' ' ' e O X ..W W i.6 a H.k C >+_+1.!.*.>+9.D j 9.9.9.",
">.>.T ~+>.=+#.2 g h M.M.+.t.V g p a %.< O <..+L l.p.>.%+'+2 c 7.}.y L [+! 2 ^.| s.b ( O.%.'.&.c.%.'.%.q.7.~+,.Z.*+=+<.d [ q b 3 | 8 X X G 4 ) ) 3 ;.@ , > N.h ;...@ ! p.1+q.,.,./.>.)+h.m.(+_.p.' X & % * % & $ s s ' ' O X ..W ..G a 6 e.1.9.9.1.*.C =.9.9.=.>+C C C ",
"c._.$./.c.S.#.) e ).u.u.+.t.V g ) .+'+8 ( d ,.3 &.y.h.:+.+X / *+d.8.w ^ 3 e G 7 W O m .+b.g.<+(.r.p.p.9+$.~+p.:+)+U.h.N : n c 5 3 0 |.B ^.7 5 b 2 3 6 2 3 i.B 6 % : >.'.#+q.6.%.$.7.U.d.7.U.q.r.X % * * & g & % g g s ' O X ..W W 0 5 7 I.>+j j >+=.9.D 9.>+*.1.W.W.W.",
"p.p.6.>.p.w.<.< X H M.M.N.F.I g d 4.< 2 {+M _.p (.4.#.l.[+. ( z d =+/ 6 }.c 9 * r i [.%. .%+r.%.f.c.%.b.>.%+m.T (+:+Z.#.x ] : p 0 8 ;.W B ^.7 3 ) q p } } i.% g B :+y.4.&.r.9+p.6.:+U.h.b.{+/.'.W + ' s f s % & * * g s e X ..W ^.a } 7 k D B.B.D j j j 9.C 1._+*.*.*.",
"6.%.'.6.>.u [.< W   M.M.u.N.; s N :+x 1 =+/.h.E.,.%.@+%.*+@ o c |.w u A h.{ d + C n ,./.y.r.m.f.p.>.r.l.p.9+q.p.'+/.b.L.<.u ] c b } 4 2 7 9 G G W ..& # e e O G [.T p. ./.p./.6.y.L.{+;+[+*+T p.W h J e + * f * & * * s e X ..W |.5 q 8 _+B.B.B.j j D D =.>+*.!.=.=.=.",
"_.6.f.c.T ( ( p |.+ r r M.u.h ' / Z.:+3 ~ (+L %+U '+:+f.(+3 ! S a z S.u [ < =+@ I c.c.6.g._.l.f.6.>.(.T './.q.y..+m.$.[+h.<.x n a 7 ;.i.;.|.J * g % t >   @ $ B (.b.(.` r.:+6.q.4.:.*+E.Z.L.q._.W I X e - % = * & & * s e X ..W i.) c 7 1.3.B.j D D 9.=.=.=.>+>+_+_+_+",
"r.c.'.6.l.x ! b |.. r > M.t.I J _ %+~ z [+%./ q.r./.@+%.[+5 _.9+p 4 | M 0 ) u N ! 6.9+#+>.%.[+` m.'.p._.` r.m.7.9+7.q.9+$._.@+! S ) 7 |.W B s $ - h , I t V.g z 4.m._.%.T _.` T %.d.8.*+*+E.%+%.G + # ' = $ ..' % & s O O J ^.7 ;.a ] h *.o.9.C !.Q 3.1.1.D !.P >+k I.",
"r.c.r.` 6.8.{ 3 ^.  r > r t., ' ) U [+_ U T h.[+/.9+.+'.%+W )+'+)+) 2 a W ^.S.#.(._.l..+T.~+b.6.7.f.6.>.r.'.$.7.q.$.9+'+/.%._.:+M _ < 3 9 B $   =   ; h     |.}.` b.7.'.7./.>.q.6.:.w =+E.d.<+&.J = ' i.' ' ..s ' e e e e O ^.8 9 4 o > D Y j >+C 1.*.j >+Z _+Q +...^ ",
",.p.` y.r.d.<.3 ..- r V , u.; J ~ '+6 K Z.'.#.c.:+$.c. .c.' N *+'+n x A n I 0 f y ++m.f.T g.L  ./.%.p.>.'.%.m.m.7.$.9+'+.+m.m.b.~+U.w.! ( [ 2 |.% $ @ % J ..p :.a+c.$.>..+'+&.(.6.:.w ;+;+:.Z.l.& & 8 p 2 G G ..O J O e J ^.7 a a [ : t.j R >+!._+B.D k Z Z M.W L /.D.",
"(.f.` '.%.S.S.A B - r ; h ,   ..8.|.i.M ] ++M p.~+6._.y.g.i.p { (+8.x b w ' S ~ g w 4.` f.'+[+y.9+%.f.c.'.%.&.c./.7.m.T ~+{+~ [.< b 4 0 ;.B * # H . -   = ).@ 0 (+@+T '.f.>.$.7._.d.w ;+E.S.Z..+$ ..p o S p ) 5 8 8 i.B X |.9 7 } c ) I.j 9.!.C 1.>+_+]+P.> / U 1+4.p.",
"l.$.y.y.r.{+@+N i.. z.t ; > h ' f 8 /.u 7.D.'+U.9+p.<+/.` : a q &.c.S 3 { 0 8 )+u V { 4.p.d.b.'..+f.r.p.'.%._.f.l.7.c.c.%+~ n 4 4 3 1 2 0 8 i.^.e J g f - m I.O.F W =+>._.q.$.%.m.L K S.E.E.(+:+# ;.b : z A < : : : q 1 8 7 9 ^.p < 7 9.B._+!.j D e.P F , u y.1+7.<+S.",
"K E.$.f.y.:+T ~ 1 $ V.V , F.r + |.~+<.8.Y.f./.b.q.y.:.(+T Z.z b b u & A L.L ) S.: |.a @+c.p.#.1+:+p.` p.%.6._.r.$.q.&.6.9+~ : b 3 a 6 8 ;.^...B 9 6 ;.X % u.]+P.I._+>+V.w ,.U (.m.:.M h.E.=+U.(+= G a a p p p : ] N x ( ( _ y < S x 5 >+!. +k >+C *.J.h [.y.,.[+U.E.d.",
"4 n ~ )+7.~+p.{+) g , V , +.z.= 8.<+f ~+,.(.q.:+b.4.M =+;+ .h.^ #.w.p d.{ u c : O A <+2 ` 7.~+K.(+_.'.c.c.&.&.r.&.l./._.l.w.y n [ p | 2 9 i.|.|.e X & + - F.`.P F ]+!.9.Q.V K e+f.{+L *+{+)+(+)+= G ;.B 0 2 0 p p d ^ x K :.~ }.z w.o k W. +F 1.k 1.I w %.&.(+)+@+*+;+",
"..G p y L.@+y.%+p s I ; ; > h s < W S 5.p.#+4.b {+,.}.L _ 8+'+8./ o 8.m.S b z 8 / 0 :+w.q l.5.6.{+&.%.>.>.7.$.'.$.%+b._./.v : [ ) | a 8 i.^.|.i.9 G * - t F.].m A.e._+k _+E m / T.~+*+<+<+<+[+U.# 9 ^.g ;.9 ^.1 9 } S : / u ^ [ q :._ k =.*.j =.W.= 8.6.7.d.w.<+#.K 8.",
"4 * G 1 ( ;+g.~+) % V.V V.+.).;.F.7 {+(.++6.1+U.M }.L <+9+:.v 6.< >.[+~+_ d 4 O s U 2 9+;.(./.a.(+7.f.6.$.$._.6.T l.v l.&.#.o } < p a 8 G ;.i.|.i.X &   t r F.A.i P I.k 1.C D 3.q g.E.m.b.[+/.=+g s O B W W W W ;.6 1 2 } d o c 5 v e =.B.2.D k Q.h.g.E.v *+L M K #.:.",
"d X e O 4 [.%.b.| $ > , > F.h |.@.S U._.` %./.<+ .h.7.c.<+7.6.%./ 9+h.&.[.L 5 2 3 z #.8 L A T._.@+/.6.%.&.7.>.f.9+%+! )+c.:.d [ b 5 6 9 G G ;.i.W O $ . ; V.M.F.A.O.`.Q.F 1.>+D J.n ` f.{+8.` w ' e O X B W W ^.|.0 2 6 5 A < 5 4 o V.Q C D =.I.H =+$.v #.d.u / 8.<.#.",
"*+} & H O ) q./.5 f M.> z.s.t ..r h._.y.y.K.(+'.4.y.l.;+7.T.%+6.@+w.>.v T _ ( 6 [ * [.q h.9 1+,..+l._.r.c.l.q.f.l.[+o w '.L.n A 5 1 8 ;.;.G G ;.X s f + - t V.r F.G.@.P.Q.F !.>+-+P.S.T.b.@+++b X J O O J B W |.W 8 6 7 a p ) 7 3 7  +~.F 9.*.i S )+U.K 8.8.y d <.w u ",
"(.#.O I @ W .+&.5 # N.r r t.V J f w '.r.p.(.{+y.~+3+w.u 6.g.[+.+.+L.~+=+#.=+z q 5 O 1 6.d ..` K.q.l.>.y.p..+b.p.&.[+n ( ,.(+c A 3 2 9 ;.;.;.;.i.X ' % @ . ).I > N.t.i e.]+Z 1.C W.X.F.y.g.'.#+a W B J e O X ^.i.W 9 8 9 1 p 5 G ;.$ !.j k 2.F ; d.)+L ! K }./ u w ! x ",
"a+~+;.I . ' 9+'.| @ F.M.M.t., ' 6 A ` ,.'.$./.` m.#+N %+l.>.a+(+)+*+(+:.S [+M [.0 J : 4.w e.'.f./..+$.` %.l./.f.'.(+o A  .<+b b 3 2 8 ;.;.i.|.W ..J g $ = H I > u.s.i e.]+Z 1.C _+-+/+8.#+$.,.5 ^...J e O B |.;.i.9 9 9 3 b a X h u.9.>+C {.i G ;+d.M }._ y [.;+u N ^ ",
"K._.1 I H * 7.g.) @ F.u.r t.V.s [ : y.T.g.7.g.(.r.a.b b.m./.5.&.~+Z.c.[.] w @+! |.X M p.U.I.U D.'+'+T %.%.&._.y.p.L ] c y.Z.b 5 3 2 8 G G ;.|.W ^.B ' & #   t V.M.F.H.P ]+Z 1.C 3.2.C.r T.%.#+^.W B J O J ..i.G 8 7 9 0 ) p ..I I.I.Q D 3.2.- ( ~ K }.] d ] M ;+[.N x ",
"T.T.[ I h f m. .p # F.u.r s.V.g ..#.$.6._.q.'.6.` &.7 (+y.c.@+g.p.r.l.b.S <.*+K B W ] ~+[.$ /.&+@+%+7._.6.6.p.f.b.( ( [ c.L.c a 2 0 8 9 8 8 G i.W B e g % = ).V z.+.G.@.P.J._+C =.B.3.X.Z.}+4.& B X J J X W ;.9 6 6 0 3 [ 3 h 1.9.1.~.3.j I.G 8.~ u ^ z d { ~ [.N }.! ",
"5.3+( ; t = $.y.b # F.u.z.F., g g %.6.r.f. .,.4.8+o | ,._.U .+'.U q.,.)+<+< c.#.|.' b ^ 8 B / y.:+q._.>.>.c.c.m.{+3 : p 7.S.A 1 0 8 9 9 7 0 7 9 ..X e s & # H ; V.u.A.O.`.Q.W.!.=.2._+f+2 2+~+^.X J J X ..^.;.9 1 1 1 ) < 7 G.^+C k Q Q *.F.[ w.S.w / n ] d.L A ^ [.w ",
"++D./ V - % {+D.o . > z.u.z.V.% a h.c.T.%.p.5.c.;+q.[.7.y.$.p.'.K.@+++)+%+{ A c ;.o | = t $.>.%.p.c.>._.c._.$./.! G o A 6.~ 5 4 3 7 i.|.9 7 9 |.;.W J ' * $ + H ; > s.i `.Q.W.!.1.j j D W.|+%+..X B B ..^.|.;.;.7 G ) 3 } s 9.C *.D >+j W.s ^ y w 8.z c w ~ _ _ _ <.;+",
"++a.{ h I . S.5.o . > z.u.> , & G *+c.%.6.'.g..+$.y.#.T 6.T _.%.r.b.9+<+r.'.p | |.] {+w [.b / A w.v ;+%+%.r.q.(+/ 1 c z /.8.} 1 1 8 |.|.9 7 8 ;.;.^.J ' g $ =   ; V.F.H.e.I.F !.>+B.j 3.B.q.Z.J e J B ^.;.G 9 9 6 8 ) 4 b e C B.k >+j !.s.8 ] ( <.N z _ v M ^ N w w.h.",
"x.x.d.+ , ; <.U o . > z.u.> V g W :+f._.` ,.'.:+p.(.d.m.6._.f.'.(._.6.{ U /.( ( | N y  .` q.l.%+S.v :.~+` y.~+#.S } 1 u <+[.) 7 0 G ^.^.G 7 8 G ;.^.X e s & @ . )., N.G.]. +k 1.!.>+>+D R d E.B O X ..^.i.i.|.|.7 8 3 a 4 g W.2.Q.=.E F f p : o #.o / L w.[.N ! ~ w.~ ",
"#+a.U.& t ).[.y.( + > r u.> V g O [+6.p.4.%.$./.c.f.)+%.%.f.6.&.T.p.f.8.l.=+_ y ^ { G L.L.K.,.(.c.l.:+7.` p.)+}.b } ;.{+{+: 2 8 9 i.W ^.;.8 7 8 G |.B O ' * f = - I r t.i `.J.W._+!.C C ~.+ { ..J J J X ..W ^.|.G 8 1 2 0 e F.]+`.C n. +G n n [.M / #.=+{ x 8.w 8.<.M ",
"T.U :+O   + y c./ @ V.r N.z.V g & L b.f. ..+:+6.y.'.%+%.T &.T %+'.m.d.,.u '.u o < M *+0 ) )+&.l.p.>.&.p.f.q.S._ p ) 6 /.;+| W 7 i.|.W W i.G 8 8 9 i...X O s % #   h > +.A.@.I.k *.>+Q =.2.I.| ^.6 7 ;.W B ..^.|...9 7 7 G i...= e.!.Q v.4 y / d.! M *+d.( N d.<.u <.v ",
" .T.q.W   + A m.x $ , z.N.r , * X w :+(. .:+l.,.` _.%+m.Z.m._.c.p.b.@+#+/ .+l.T ( :+_.q 8 &.r.y.$.6.y.g.p.<+{ n } b ( q.K 2 X 7 |.^.W W ^.i.9 8 8 ;.W B J e * $ . ).V M.t.i  +Z 1.W.Q *.D B.g [ <.u ( b 6 |.B O J i.X B ' i.} X W.j C I p ^ ! d.K S.{+w o { d.8.{ d.Z.",
"T.#+%.i.t ; } &.[.& I z.+.M.> & 2 8.~+,.(.$.r.(.>.9+l.>.)+p.,.T.(.T y.~+! [ 7.1+@+6.w.:.A  ._.f.f.,.T.,.q.h.( ) ) o )+(+q a i.G ^.^.^.W W ^.;.9 8 ;.^...X O s & = H t z.+.m `.J.W. +D W.9.-.V.w.[+U.;+<.x : b | 4 a e g # J 5 . B.E ]+O o 8.w.<.d.=+~ N K #.M { 8.)+q.",
"5.x. .;.z.r 3 6.u g t z.+.M.z.% 5 8.:+%.6.p.U >.m./.p.(.<+%.r.y.` p.'+)+}.3 / '+@+*+! @+c.l.T.y.(.,.` &.(+M z b | [.c.w.9 ) 6 |.^.|.^.W ..W i.G 7 G ^...B J s * =   ; V.N.G.e.Q.C P.j *.2.-+].[+d.;+*+U.Z.)+L.E.{ ] ;.X $ J 6 F.j ~.F.p ~ (+@+8.U.E.x _ ;+:.x [.~ [+c.",
"5.a.y.1 > , $ T [.X ).> z.M.+.& ~ z b.c.y. .g.[+_.6.$.7.7.9+%.f.p._. . .{+d H x ~ ^ l.y.y.'.q.g. .(.f.7.*+x q ) 5 g.>.| 0 6 X 0 9 ;.|.W W ^.;.G 7 7 8 ;.W J g & % @ H I z.s.i e.J.*.k ~.!.E E u L ^ #.}.)+U.T 6.'./.h./ h +.* I.W.9.+ :.b.[+(+{+d.x _ d.E.u ^ K =+T f.",
":+9+%+9 z.N.  [+! X ).z.M.u.+.* ^ ( p.` p._.y.m._.%.>.7./.l.6.%.#+c.$.%+5.T 6 2 b ~ c a+7.f.g.,. .T.y.:+x 5 [ _ [+%.#.i.2 3 W 7 9 ;.|.W W ^.i.G 8 8 9 G ^.X ' g * f   ; > +.m @.`.C F B._+3.o.6 d.x u ] ;+h.'+T r.++y.| >+ +@  +0.u.] :+%+'+(+S.w }.w E.;+{ N M Z.$.r.",
"#.#.w.8 t s.h =+{ B h M.N.N.+.* z / ` (.6.7.r.%.&.f.p.m.b.m._.f.y.p.p.)+x.%.8.[ A q <.&.6.4.y.D. .f.l.S./ c o K g.U.) ^.1 6 ^.7 G ;.|.^.W ^.|.i.G G 9 G i.W J e s % = - V M.v.i O.>+k >+1.C o.u.d.{ / z ~ M ;+<+m.U D.4 C H.V.!.1.q 7.q.~+%+{+M N 8.E.*+w.[.! <.)+9+&.",
"L }.^ 7 - t.; M K B ; N.+.F.+.* ^ x 6.%.` 6.'.c.$.f.'.>.'+p.q.>.6.>.p..+b.[+.+M { n m.m.y.D.f.5.6.m.@+}.5 q U.1+(+( 1 4 2 W ^.6 G ;.|.^.W W ^.^.i.i.;.G ;.^...B e g #   ; > F.A.H.C J.1.=.*.~.C M w.y z w }.<.;+<+Z.m.b ]+I.@.F.a [+%.~+~+'+v }.K =+[+E.[./ u v *+'+b.",
"@+u n 8 H A.)./ K B ; N.F.s.s.& [.8.'.p.y.c.6.%.7.f.r.$.L.p.)+Z.#+/.{+%.S.U.&.[.d %+;+c+$.` U g.D.*+d { 7.,./.w.z a 4 [ 0 |.9 9 ;.;.|.^.W W W W W ^.i.;.i.|.W ..J s $ = - V u.s.i W.]+F B.>+j R A =+x / u x { ~ S.v [+3 *.B.r y '+m.b.Z.@+v ^ w E.'+'+~ d d { h.[+b./.",
"7.h._ } # s.f d { B h u.F.s.t.$ K L.#+'.f.9+$.g.T 6.f./.L p.w u ,.&.:.U U.;+b._ b :..+1+$.` g.4..+7.f.` T :.] A b 3 3 3 0 1 1 ^.;.i.i.|.W ..B B B ..^.|.|.^.W ..X ' & @   t r +.O. + +k D 9.=.2.* {+w ! [.x [.u [.K #.1 , # : '+:+@+U.(+S.y y ;+~+:+E.x < o #.)+9+T $.",
"_.~+S._ & v.$ q u X h M.N.s.v.# ;+'+#+6.r./.T ` %+m.c./.:.4.K _ {+ .S.$.c.#.Z.:.c S 4.m.%.T.p.g.D.c.(+8.o p } < p } 3 6 2 1 0 ;.;.i.i.|.W ..X X J B ..^.^.W ..X X e & #   ; z.N.m H.]+Z _+=.=.3.P =+v M ^ ^ x ] A y < < d { L.L #.w.{+*+{ x w.)+l.{+u : S x ;+.+T q.&.",
"7.T [+w # P.).9 ! X ).r N.s.A.= 9+b.` q.4.f.T $.@+l.>.q.L.Y.L { u 1+{ u 8+;+(+Z.| {+U.3+m.4. .>.;+K y z n q ) 5 6 } ) 3 1 ;.|.a i.i.i.|.W ..X J J X ..W W ..X J X e & # . ; > N.A.t.Q.J. +*.9.3.~.h.:.8.y ] ^ : [ d 5 ^ u z { ( }.<.*+v / :..+{+l.L d c d K U.$.m.&.6.",
"c.c./.Z.G.Z `.V.] i.).F.r A.G.0 Z.m.,.q.r.q.7.l.$.%+r.d.@+%.{ <+5 {+U d  .c.d '.8.#.7.f.$+r.'+l.N / : < q [ p } 5 4 a a a 2 7 G 7 8 9 ;.|.W B B X X J O O O J X O e g $ + ).I V.u.t.O. +J.W.*.=.E G T [.M ! ) : z A < o x _ o A u u <.~ w.@+.+{+;+/ 5 p [.*+9+&.f.m./.",
"6.6.7.<+v.J.P.> y |.h F.r v.A.2 (+&.g.q.r.T q.b..+%+m.w '+f.! %+N w ` / &.p.v 7.&.#.<.h.a.T.U.M x ] n c [ b } ) 5 4 a a a 2 7 G 7 8 9 ;.|.W B B B X J O O O J J e ' g $ + - t , M.s.i P.Q.F !.>+R $ Z.[.8.w c S ) } [ A < [ [ < w 8.:.:.v {+<+S.N c 5 d h.9+_.%.%+U.S.",
"p.%.&.~++.I. +M.o ^.h F.r v.t.3 [+_. .7.'././.%+Z.9+[+( 9+r.N /.U.z m._ [+r.~+[+(.E.w.}.7..+d.M _ ( S [ p } ) | 5 4 a a a 2 7 G 7 8 9 ;.|.W B B B X J O O O O J s g * $ = H ; I r F.H.e.I.Z 1.*.B.N.#.{ 8.8.( A 0 3 b b 1 9 3 S <.L *+E.#.h.L.~ [ 4 p { ~+%.` '.(+d.{ "};
