/* XPM */
static const char * icon_xpm[] = {
"128 128 2136 2",
"  	c #FFF7C6",
". 	c #FEF6C5",
"+ 	c #FFF6C5",
"@ 	c #FFF6C3",
"# 	c #FFF5C2",
"$ 	c #FFF5C0",
"% 	c #FFF6BF",
"& 	c #FEF5BE",
"* 	c #FFF4BC",
"= 	c #FFF7C8",
"- 	c #FFFAC6",
"; 	c #F5EFBF",
"> 	c #FCF5C7",
", 	c #F9F2C6",
"' 	c #FBF4C6",
") 	c #FDF6C2",
"! 	c #FFFAC0",
"~ 	c #F9F3B5",
"{ 	c #FEF7C3",
"] 	c #FFFAC7",
"^ 	c #F8EEBD",
"/ 	c #FFF9C8",
"( 	c #FEF2C2",
"_ 	c #FFF6C9",
": 	c #FEF1C4",
"< 	c #FFF1C5",
"[ 	c #FFF4C7",
"} 	c #FFF0C5",
"| 	c #FFF4C8",
"1 	c #FBEFBF",
"2 	c #FFFEC9",
"3 	c #FDF4BB",
"4 	c #FCF6BA",
"5 	c #FEF5BC",
"6 	c #FFF9C5",
"7 	c #FDF5C4",
"8 	c #FFFAC9",
"9 	c #FCF5BF",
"0 	c #FFFBC4",
"a 	c #FDF7BD",
"b 	c #FAF5BE",
"c 	c #FEF9C2",
"d 	c #F7F0B9",
"e 	c #FFFFC9",
"f 	c #FDF4BD",
"g 	c #F6EDB4",
"h 	c #FFFAC2",
"i 	c #FEF0BF",
"j 	c #FFF4C3",
"k 	c #FFF3C3",
"l 	c #FFF6C4",
"m 	c #F9EFBA",
"n 	c #FFF7BE",
"o 	c #F7EBB7",
"p 	c #FFFBC5",
"q 	c #FCF1BB",
"r 	c #FFF8BF",
"s 	c #FCF3BC",
"t 	c #FEF4C1",
"u 	c #FFFDCA",
"v 	c #F8F5C2",
"w 	c #F8F5C0",
"x 	c #FFFEC6",
"y 	c #EEE9AF",
"z 	c #FFFFC6",
"A 	c #F6F1B1",
"B 	c #FCF7B7",
"C 	c #FFF7C1",
"D 	c #FFFAC4",
"E 	c #FBF0BA",
"F 	c #FDF3BE",
"G 	c #FFFFCC",
"H 	c #F7EDB8",
"I 	c #FFFFCA",
"J 	c #FFFAC5",
"K 	c #FFF5BE",
"L 	c #FEF2B8",
"M 	c #FFF9BE",
"N 	c #FFF6CD",
"O 	c #FBF1CD",
"P 	c #F9F6D5",
"Q 	c #F2EFCC",
"R 	c #FFFBD6",
"S 	c #FCF9CE",
"T 	c #F8F4C5",
"U 	c #F6F3C0",
"V 	c #FFFCC5",
"W 	c #F8F3BB",
"X 	c #FCF5BE",
"Y 	c #FEF8BE",
"Z 	c #F7EEB5",
"` 	c #FFF8BD",
" .	c #FFFAC1",
"..	c #FCF2BD",
"+.	c #FFF3C1",
"@.	c #FFF7C4",
"#.	c #FFF5BF",
"$.	c #FFF9C4",
"%.	c #FAF2C3",
"&.	c #F9F1CC",
"*.	c #FFF8DC",
"=.	c #080000",
"-.	c #030000",
";.	c #0D0B00",
">.	c #040100",
",.	c #1A1500",
"'.	c #E8E4C7",
").	c #FBF8D9",
"!.	c #FFFBDB",
"~.	c #FFFDCB",
"{.	c #F7F1BD",
"].	c #FFF9BD",
"^.	c #FFFBC0",
"/.	c #FDF2BC",
"(.	c #FFF7CB",
"_.	c #FFF6C6",
":.	c #FBF0C3",
"<.	c #FFFAD3",
"[.	c #FAF3D6",
"}.	c #090400",
"|.	c #040000",
"1.	c #070400",
"2.	c #020106",
"3.	c #010002",
"4.	c #080607",
"5.	c #050402",
"6.	c #090600",
"7.	c #F4F0CB",
"8.	c #FFFED4",
"9.	c #EDEAB7",
"0.	c #FFFDC5",
"a.	c #F9F0B7",
"b.	c #FFF1C6",
"c.	c #FAF0BF",
"d.	c #FFF6CB",
"e.	c #FCF3D2",
"f.	c #F9F3DD",
"g.	c #090803",
"h.	c #000000",
"i.	c #000103",
"j.	c #06070B",
"k.	c #000004",
"l.	c #010103",
"m.	c #040406",
"n.	c #010000",
"o.	c #060100",
"p.	c #F1ECCE",
"q.	c #FFFCD2",
"r.	c #F4EEBA",
"s.	c #FFF2C7",
"t.	c #FFF7C0",
"u.	c #FDF5C6",
"v.	c #070100",
"w.	c #070300",
"x.	c #000005",
"y.	c #000108",
"z.	c #000009",
"A.	c #000100",
"B.	c #060807",
"C.	c #020204",
"D.	c #000002",
"E.	c #09070C",
"F.	c #010004",
"G.	c #090500",
"H.	c #080300",
"I.	c #F5F1CC",
"J.	c #FEF7C0",
"K.	c #FFF9C3",
"L.	c #FDEFBE",
"M.	c #FFF3C7",
"N.	c #FFF7C9",
"O.	c #FCF7DA",
"P.	c #00010D",
"Q.	c #00020C",
"R.	c #FAF9B8",
"S.	c #FCF4C5",
"T.	c #FCF3C8",
"U.	c #FEF7CD",
"V.	c #06030E",
"W.	c #020202",
"X.	c #030100",
"Y.	c #FAFAD6",
"Z.	c #F6F5BC",
"`.	c #FCF9B6",
" +	c #050503",
".+	c #000105",
"++	c #000200",
"@+	c #070800",
"#+	c #ECE6CC",
"$+	c #FFFEE4",
"%+	c #FFFFBF",
"&+	c #F6F1BA",
"*+	c #FCF4C6",
"=+	c #FFFDD0",
"-+	c #F8F0C2",
";+	c #F6F2CD",
">+	c #060606",
",+	c #EEEDD1",
"'+	c #FEFCC9",
")+	c #FFFFC0",
"!+	c #FFFBBF",
"~+	c #F7F6D7",
"{+	c #050600",
"]+	c #010300",
"^+	c #000501",
"/+	c #000300",
"(+	c #FBF9D3",
"_+	c #FFFCCD",
":+	c #FCEEBD",
"<+	c #F7F2BA",
"[+	c #FFFFD0",
"}+	c #FEF3C6",
"|+	c #FBF1C0",
"1+	c #FFFFD3",
"2+	c #F7F6D8",
"3+	c #060608",
"4+	c #0B0800",
"5+	c #FAF7CE",
"6+	c #F1ECB4",
"7+	c #FFFBC1",
"8+	c #030300",
"9+	c #070803",
"0+	c #050500",
"a+	c #FCF8C9",
"b+	c #FCF1B9",
"c+	c #FFFABF",
"d+	c #F7EFC0",
"e+	c #FFFACD",
"f+	c #FFFBC8",
"g+	c #FFF9BF",
"h+	c #E9E6AF",
"i+	c #FFFFD9",
"j+	c #040404",
"k+	c #030002",
"l+	c #FDF9D6",
"m+	c #FFFFCD",
"n+	c #F8F1BA",
"o+	c #030207",
"p+	c #07040B",
"q+	c #F5F0D3",
"r+	c #FFFACB",
"s+	c #FFFCC7",
"t+	c #FEEEBA",
"u+	c #FFF8C7",
"v+	c #FFFDCF",
"w+	c #F5E8BC",
"x+	c #FFFBBD",
"y+	c #F0EFC1",
"z+	c #FDFCDD",
"A+	c #010101",
"B+	c #040308",
"C+	c #09040A",
"D+	c #F6F1D1",
"E+	c #FAF4C2",
"F+	c #FFFCC6",
"G+	c #070500",
"H+	c #070000",
"I+	c #FFF9D5",
"J+	c #FFFBCA",
"K+	c #F2E8B7",
"L+	c #FFFAD0",
"M+	c #F7EFBE",
"N+	c #FFF7CA",
"O+	c #FBF6BC",
"P+	c #FDFACD",
"Q+	c #F2F1D2",
"R+	c #0E0B00",
"S+	c #F4F0CA",
"T+	c #FEF7C1",
"U+	c #F6ECBB",
"V+	c #F7F3CD",
"W+	c #F9F4D4",
"X+	c #F6EFD2",
"Y+	c #FFFED7",
"Z+	c #FAF5BD",
"`+	c #FFFFD1",
" @	c #F9F4CC",
".@	c #FAEFC2",
"+@	c #F4E7BD",
"@@	c #FFFBCC",
"#@	c #F7F4CB",
"$@	c #040200",
"%@	c #06050A",
"&@	c #FAF8C8",
"*@	c #FAF5BB",
"=@	c #FFF8CA",
"-@	c #FFFDC0",
";@	c #FBF6BE",
">@	c #FFF8C4",
",@	c #FAF1B8",
"'@	c #FFFDBB",
")@	c #FFFDBD",
"!@	c #EFEEB8",
"~@	c #FDFBD2",
"{@	c #FEF4C3",
"]@	c #FFF8CB",
"^@	c #FFFBD1",
"/@	c #FFF4C5",
"(@	c #FFF4BE",
"_@	c #FFFECA",
":@	c #0E0900",
"<@	c #F4F3D5",
"[@	c #FEFDC7",
"}@	c #FFFBBC",
"|@	c #F3ECB5",
"1@	c #FBF4BD",
"2@	c #FCF4C3",
"3@	c #FEF6C7",
"4@	c #FFF8C9",
"5@	c #FBF3C4",
"6@	c #FFF3C9",
"7@	c #FFF5C7",
"8@	c #FFF8C1",
"9@	c #F9F5C6",
"0@	c #F4F1D2",
"a@	c #04000C",
"b@	c #FDF7C5",
"c@	c #FFF5C1",
"d@	c #FCF5C1",
"e@	c #FAF2C1",
"f@	c #FFF6C2",
"g@	c #FCF0BC",
"h@	c #FEFACD",
"i@	c #FAF7D6",
"j@	c #040300",
"k@	c #060409",
"l@	c #050100",
"m@	c #F6F2D9",
"n@	c #FEFBD2",
"o@	c #FDF7C3",
"p@	c #FAF3BC",
"q@	c #FFF9C7",
"r@	c #FDF4C9",
"s@	c #FBF3C5",
"t@	c #FAF2C4",
"u@	c #F9F1C0",
"v@	c #FBF4C0",
"w@	c #FFFCC8",
"x@	c #FEF9BF",
"y@	c #FBF8C5",
"z@	c #FEFAD4",
"A@	c #0A0600",
"B@	c #FFFFDC",
"C@	c #F4F0C1",
"D@	c #FCF7C0",
"E@	c #FFFEC8",
"F@	c #FEF4D0",
"G@	c #FFF7CE",
"H@	c #F5EDBC",
"I@	c #F3F5C3",
"J@	c #FBFCD4",
"K@	c #030200",
"L@	c #020003",
"M@	c #F1EEC5",
"N@	c #FDF9CA",
"O@	c #F7F2BB",
"P@	c #FDF6C0",
"Q@	c #FFF4C6",
"R@	c #FDF4CB",
"S@	c #FFFBCD",
"T@	c #FFFDC9",
"U@	c #F8F0BF",
"V@	c #F5EDBE",
"W@	c #FFFFD4",
"X@	c #F3F8D8",
"Y@	c #040500",
"Z@	c #010005",
"`@	c #0A080D",
" #	c #050400",
".#	c #F5F6D6",
"+#	c #FFFBC7",
"@#	c #FBF6BF",
"##	c #F9F4BD",
"$#	c #FFFFC8",
"%#	c #F9F2BC",
"&#	c #FFFFDA",
"*#	c #F6EBCB",
"=#	c #020500",
"-#	c #FFFDD8",
";#	c #FAF8C7",
">#	c #F7F0BA",
",#	c #FFFAC8",
"'#	c #F8EFC4",
")#	c #FFFECD",
"!#	c #FFFEC7",
"~#	c #F9F3B9",
"{#	c #FFF8C2",
"]#	c #FFFBD0",
"^#	c #E9DEC0",
"/#	c #100400",
"(#	c #05060A",
"_#	c #FEF8D6",
":#	c #FFF9CB",
"<#	c #FAF3BD",
"[#	c #F9EFBC",
"}#	c #FEF8C6",
"|#	c #FAF4C0",
"1#	c #FCF6BC",
"2#	c #FFFCC0",
"3#	c #FDF4CD",
"4#	c #FFFBE3",
"5#	c #0B0000",
"6#	c #0A0700",
"7#	c #FFF8CF",
"8#	c #FDF3C2",
"9#	c #FDF1BD",
"0#	c #FDF1BF",
"a#	c #FFFCCB",
"b#	c #FCF1C3",
"c#	c #FFF9CA",
"d#	c #FBF5C1",
"e#	c #FEF7CB",
"f#	c #FEF7C9",
"g#	c #FFFDCD",
"h#	c #FDF9CC",
"i#	c #F8F1C5",
"j#	c #FDF8C0",
"k#	c #F9F8C8",
"l#	c #F5F5DB",
"m#	c #000404",
"n#	c #010200",
"o#	c #FCF6D4",
"p#	c #FFF9CE",
"q#	c #F7F4C7",
"r#	c #FFFCCE",
"s#	c #F8F1BD",
"t#	c #0C0B00",
"u#	c #0E0C00",
"v#	c #F5F0CA",
"w#	c #FCF2C1",
"x#	c #FFFACF",
"y#	c #F4ECBE",
"z#	c #F4F1C8",
"A#	c #05020D",
"B#	c #05050F",
"C#	c #E9E4CE",
"D#	c #FFFFD8",
"E#	c #FCF8CB",
"F#	c #FFF8CC",
"G#	c #F5F1CB",
"H#	c #0E0A01",
"I#	c #01000C",
"J#	c #010007",
"K#	c #060300",
"L#	c #F9F3D9",
"M#	c #FFFDC3",
"N#	c #FCF6C6",
"O#	c #FFFBCB",
"P#	c #F9EEC0",
"Q#	c #FFF8C3",
"R#	c #F5EEB8",
"S#	c #FFFAD2",
"T#	c #030005",
"U#	c #060000",
"V#	c #FCF5D8",
"W#	c #F9F1C3",
"X#	c #FFFECB",
"Y#	c #F9F3BF",
"Z#	c #FDF5C7",
"`#	c #060200",
" $	c #090300",
".$	c #FFFFDF",
"+$	c #F5E9BF",
"@$	c #F8F2BE",
"#$	c #F6F4C1",
"$$	c #FFFCC4",
"%$	c #FEF2C8",
"&$	c #FFFBCF",
"*$	c #FBF1BC",
"=$	c #FCF8D3",
"-$	c #FDF8D2",
";$	c #F2E8C4",
">$	c #FFF5CB",
",$	c #FBF7C7",
"'$	c #FFF4CD",
")$	c #FAEDC3",
"!$	c #FCF7BF",
"~$	c #F7F7C3",
"{$	c #F6F7CD",
"]$	c #FEF5CC",
"^$	c #FFF8D5",
"/$	c #FDF1CB",
"($	c #FFFBD2",
"_$	c #F7F3C4",
":$	c #FCFAC7",
"<$	c #FFF6CC",
"[$	c #FFF7CD",
"}$	c #FEFBC6",
"|$	c #F9FAD0",
"1$	c #000508",
"2$	c #FCF1C4",
"3$	c #FFF7D2",
"4$	c #FFF7CC",
"5$	c #FCF8C8",
"6$	c #F2F2CC",
"7$	c #060800",
"8$	c #000007",
"9$	c #00000C",
"0$	c #030102",
"a$	c #090800",
"b$	c #F7F5CE",
"c$	c #FBF3C2",
"d$	c #FBEDC6",
"e$	c #FBF5C3",
"f$	c #FEF2CA",
"g$	c #F6F3D2",
"h$	c #0A0A00",
"i$	c #03030D",
"j$	c #02000C",
"k$	c #F5F1CE",
"l$	c #FCEFC5",
"m$	c #FCF0C8",
"n$	c #FFFFE1",
"o$	c #0A020D",
"p$	c #FFFDDA",
"q$	c #FFF9CC",
"r$	c #F6F3BC",
"s$	c #FAF4C4",
"t$	c #FFFED5",
"u$	c #FFF8D0",
"v$	c #EDE7C3",
"w$	c #0A0500",
"x$	c #191300",
"y$	c #EEE8C4",
"z$	c #FAF3C7",
"A$	c #FFF9C9",
"B$	c #FFFACC",
"C$	c #FBF2CB",
"D$	c #FFF3CB",
"E$	c #FBF0C2",
"F$	c #FFFFD6",
"G$	c #EAE5C5",
"H$	c #FFFDEA",
"I$	c #FFFDE6",
"J$	c #FDF6DA",
"K$	c #EAE4C2",
"L$	c #FDF6CA",
"M$	c #F6EFC1",
"N$	c #FAF1C6",
"O$	c #FBF7C8",
"P$	c #FCF3CC",
"Q$	c #FFF8CE",
"R$	c #FBF1BE",
"S$	c #FAF6D1",
"T$	c #FCF5C9",
"U$	c #FFFFD2",
"V$	c #F9F3C3",
"W$	c #FDF6C8",
"X$	c #FFFFD5",
"Y$	c #FBF4CA",
"Z$	c #FCFBC5",
"`$	c #FBF7CA",
" %	c #FFF5C8",
".%	c #FBF5B9",
"+%	c #FFFAC3",
"@%	c #FAF6C7",
"#%	c #FFFDC6",
"$%	c #FFFDC7",
"%%	c #FFF9CD",
"&%	c #F7F0C6",
"*%	c #FEF6CF",
"=%	c #FAF3C9",
"-%	c #FDF6CC",
";%	c #FFF9CF",
">%	c #FFF3D0",
",%	c #FFF7D4",
"'%	c #FFF9D2",
")%	c #FFF8D1",
"!%	c #F9F5C8",
"~%	c #FAF6C9",
"{%	c #FCEFC2",
"]%	c #F9F2BE",
"^%	c #F9F2C8",
"/%	c #FFF9D0",
"(%	c #FCF3CA",
"_%	c #F8EFC6",
":%	c #FFFBCE",
"<%	c #FEF8C4",
"[%	c #FCF2BF",
"}%	c #FFFDD3",
"|%	c #FFFED0",
"1%	c #FEF9CF",
"2%	c #FCF7CD",
"3%	c #FFFCCA",
"4%	c #FBF4BE",
"5%	c #FFF7D0",
"6%	c #FDF5CE",
"7%	c #FBF3CC",
"8%	c #FCF5CB",
"9%	c #FCF4CD",
"0%	c #FCFAD3",
"a%	c #FCFAD1",
"b%	c #FBF8CF",
"c%	c #FAF5CD",
"d%	c #F8F3C9",
"e%	c #F4EEBE",
"f%	c #F7F3C3",
"g%	c #F8F6C6",
"h%	c #F9F1C2",
"i%	c #FDF5D0",
"j%	c #FFF9D4",
"k%	c #FFFCD7",
"l%	c #F0E8C3",
"m%	c #FAF9DD",
"n%	c #ECE9CA",
"o%	c #F9F4CE",
"p%	c #FFFACE",
"q%	c #FFFFD7",
"r%	c #F1EDC8",
"s%	c #F7F4D3",
"t%	c #F6EEBF",
"u%	c #FFFAD5",
"v%	c #FFF8D3",
"w%	c #FEF6D1",
"x%	c #FAF2CD",
"y%	c #FCF4CF",
"z%	c #F7EFCA",
"A%	c #B1A984",
"B%	c #010100",
"C%	c #161300",
"D%	c #D6D2B7",
"E%	c #FDF7D5",
"F%	c #FFF9C6",
"G%	c #FEF6C8",
"H%	c #FAF2CB",
"I%	c #C7C2A2",
"J%	c #4D4930",
"K%	c #3A3724",
"L%	c #3E3D2B",
"M%	c #D9D1A3",
"N%	c #FBF3CE",
"O%	c #918964",
"P%	c #DFDAC4",
"Q%	c #FFF9D9",
"R%	c #FFF6BE",
"S%	c #FFF7C2",
"T%	c #FFFCD8",
"U%	c #BAB49A",
"V%	c #C1B98B",
"W%	c #FCF7D1",
"X%	c #FFFADC",
"Y%	c #A39E88",
"Z%	c #8C887C",
"`%	c #000102",
" &	c #E0DFC3",
".&	c #FDF9D4",
"+&	c #FFF7C7",
"@&	c #FBF2C7",
"#&	c #8A866B",
"$&	c #4C4938",
"%&	c #8A8776",
"&&	c #A39F86",
"*&	c #FEF6B8",
"=&	c #FDEFCA",
"-&	c #F6F1C7",
";&	c #FFFDD5",
">&	c #FFFEDB",
",&	c #F1EDD2",
"'&	c #080500",
")&	c #030502",
"!&	c #DCDBC7",
"~&	c #FBFADE",
"{&	c #FDF8DA",
"]&	c #FDF4D5",
"^&	c #FCF9D0",
"/&	c #FBF8CD",
"(&	c #FBF8CB",
"_&	c #FBF9C9",
":&	c #8B8970",
"<&	c #060700",
"[&	c #080600",
"}&	c #F4EFD1",
"|&	c #FEFBC8",
"1&	c #FFFCC2",
"2&	c #F6F4CE",
"3&	c #F5F4D5",
"4&	c #0B0B03",
"5&	c #05040C",
"6&	c #030208",
"7&	c #040001",
"8&	c #05020B",
"9&	c #020300",
"0&	c #F6F4CD",
"a&	c #FDFDD9",
"b&	c #F9F9DD",
"c&	c #020107",
"d&	c #020005",
"e&	c #00000B",
"f&	c #010206",
"g&	c #040006",
"h&	c #040509",
"i&	c #010109",
"j&	c #FBFADB",
"k&	c #F7F6C6",
"l&	c #F6F2C2",
"m&	c #FCF9D6",
"n&	c #F6F5D7",
"o&	c #FFFFED",
"p&	c #020200",
"q&	c #070510",
"r&	c #F8F7D9",
"s&	c #F6F1CB",
"t&	c #F4F0D5",
"u&	c #030303",
"v&	c #050304",
"w&	c #F2F0CA",
"x&	c #FBF5C5",
"y&	c #FFFAD4",
"z&	c #F9F0C7",
"A&	c #FCF6D2",
"B&	c #FAF5D8",
"C&	c #E2DDC7",
"D&	c #0F0A00",
"E&	c #FBF5DB",
"F&	c #FDF8C1",
"G&	c #FEF2CC",
"H&	c #FEF5CA",
"I&	c #FAF5CF",
"J&	c #FFFEDE",
"K&	c #9D987B",
"L&	c #262216",
"M&	c #4C483C",
"N&	c #726D5A",
"O&	c #F6F0CC",
"P&	c #FCF3BA",
"Q&	c #FFF2D1",
"R&	c #FEF9D3",
"S&	c #FEF8D4",
"T&	c #3A3410",
"U&	c #4C4622",
"V&	c #F5F0C8",
"W&	c #FDF8D0",
"X&	c #FFFEDA",
"Y&	c #B8B298",
"Z&	c #AEA678",
"`&	c #EEE6B8",
" *	c #FFFAD6",
".*	c #F8F2CE",
"+*	c #FCF7CF",
"@*	c #FBF6CE",
"#*	c #FFF5C4",
"$*	c #C2BD9F",
"%*	c #49442E",
"&*	c #393625",
"**	c #393728",
"=*	c #D1C99B",
"-*	c #FFFFDB",
";*	c #F8F3CD",
">*	c #FBF6D0",
",*	c #FFFED8",
"'*	c #F1EDCA",
")*	c #F8F5D6",
"!*	c #FFFEE0",
"~*	c #F5EDBF",
"{*	c #FFFDD9",
"]*	c #F7F1CD",
"^*	c #F9F3CF",
"/*	c #FFFDD7",
"(*	c #FFFCD4",
"_*	c #FFFED1",
":*	c #F9F3C1",
"<*	c #FBF5D1",
"[*	c #FEF9D1",
"}*	c #FDF7C7",
"|*	c #FFF5CE",
"1*	c #FEF0C9",
"2*	c #FCF8DB",
"3*	c #F8F7C7",
"4*	c #FDFBD4",
"5*	c #F6F5C5",
"6*	c #FFFED2",
"7*	c #FFFDD6",
"8*	c #F7F5CC",
"9*	c #FBFACE",
"0*	c #FCF9CC",
"a*	c #F6F3C8",
"b*	c #FFFCD6",
"c*	c #FFFCD1",
"d*	c #F9FAD2",
"e*	c #FCFCD8",
"f*	c #F6F7D5",
"g*	c #FCFBCF",
"h*	c #FFFDD4",
"i*	c #F9F7CE",
"j*	c #FBFACC",
"k*	c #FFFECE",
"l*	c #FAFAC8",
"m*	c #FCFACA",
"n*	c #FFFCCF",
"o*	c #FBF7D2",
"p*	c #FEFBD0",
"q*	c #F9F9D5",
"r*	c #FAF8CF",
"s*	c #FDFBCB",
"t*	c #FFFECF",
"u*	c #FFFCD0",
"v*	c #FAF8D1",
"w*	c #F6F6D2",
"x*	c #FDFBCA",
"y*	c #FEFCCC",
"z*	c #F7F4C9",
"A*	c #FAF6D0",
"B*	c #F7F5C4",
"C*	c #FBF7D1",
"D*	c #F5F5BF",
"E*	c #F3F1BE",
"F*	c #FBFAC4",
"G*	c #F7F5C2",
"H*	c #F9F6C9",
"I*	c #FBF4C8",
"J*	c #F8F2C0",
"K*	c #FBF9D0",
"L*	c #F5F6BD",
"M*	c #FDFBC8",
"N*	c #FDFAC3",
"O*	c #FAF8D2",
"P*	c #FCFAD4",
"Q*	c #F8F5CC",
"R*	c #F9F4CA",
"S*	c #FCF4D0",
"T*	c #FFFCD5",
"U*	c #F9F1CA",
"V*	c #F7F0C2",
"W*	c #FFFBD7",
"X*	c #F9F0CF",
"Y*	c #FDF4D3",
"Z*	c #FFF8D4",
"`*	c #FFFED9",
" =	c #FFFEDF",
".=	c #FFF8D9",
"+=	c #FFF8DB",
"@=	c #FBEFD5",
"#=	c #FEF3D7",
"$=	c #FFF7DC",
"%=	c #FFFEE1",
"&=	c #FEF1D1",
"*=	c #FDF2D4",
"==	c #FFF6D6",
"-=	c #FCF1D1",
";=	c #FFF7D3",
">=	c #FDF5D1",
",=	c #FEF5D6",
"'=	c #FFFADB",
")=	c #FAF1D0",
"!=	c #FFF6D3",
"~=	c #FDF3CF",
"{=	c #FBF1CE",
"]=	c #FFF3CD",
"^=	c #FFF8D2",
"/=	c #FEF1CE",
"(=	c #FFF5CF",
"_=	c #FFF4CE",
":=	c #FEF5CE",
"<=	c #FFFAD1",
"[=	c #FAF1CA",
"}=	c #FFF9D6",
"|=	c #FFFAD7",
"1=	c #FCF2CE",
"2=	c #FFF5D2",
"3=	c #FCF0C6",
"4=	c #FFF4D1",
"5=	c #FFF2D5",
"6=	c #F8EECB",
"7=	c #FEF5D4",
"8=	c #FDF2D2",
"9=	c #FCF2CF",
"0=	c #F7EDCA",
"a=	c #FFF5D5",
"b=	c #FFF7D7",
"c=	c #FFFDDD",
"d=	c #FFF2D2",
"e=	c #FCEFCD",
"f=	c #F9ECCA",
"g=	c #FFF6D4",
"h=	c #FDF0D0",
"i=	c #F8EFC8",
"j=	c #FCF1D5",
"k=	c #FBEFD7",
"l=	c #FFF8DE",
"m=	c #FFF8D8",
"n=	c #FFF1D7",
"o=	c #FFF6DB",
"p=	c #FFF5DA",
"q=	c #FFF7DA",
"r=	c #FFFADA",
"s=	c #FFF5D3",
"t=	c #F7F2C8",
"u=	c #FFFBD4",
"v=	c #F9EFCC",
"w=	c #FFFDE1",
"x=	c #FCF1D3",
"y=	c #FFFED3",
"z=	c #FDF2D6",
"A=	c #FCEDD6",
"B=	c #FFF3D6",
"C=	c #FFF3D1",
"D=	c #FFF4D4",
"E=	c #FFF7D5",
"F=	c #FFF7CF",
"G=	c #FDF0CE",
"H=	c #FFF8D7",
"I=	c #FFF7D6",
"J=	c #FFFCDC",
"K=	c #FFF6D0",
"L=	c #FFF6CE",
"M=	c #FCEFCF",
"N=	c #FFF2CF",
"O=	c #FEF1CF",
"P=	c #FFFBD3",
"Q=	c #FFFBD5",
"R=	c #FFF5D6",
"S=	c #FFFBD9",
"T=	c #FEF4D1",
"U=	c #FFF7D9",
"V=	c #FAEDCA",
"W=	c #FEF3C5",
"X=	c #FDF1C9",
"Y=	c #FFF6D1",
"Z=	c #FFF4CA",
"`=	c #FFF6C8",
" -	c #F7ECBE",
".-	c #FDF2C5",
"+-	c #FEF9D9",
"@-	c #FFFFE7",
"#-	c #FEFAD7",
"$-	c #FFFFDD",
"%-	c #F7F3CE",
"&-	c #F9F7C7",
"*-	c #FFFFCF",
"=-	c #FBFECF",
"--	c #FCFFD0",
";-	c #F9FBCC",
">-	c #F7F9CA",
",-	c #FEFCD5",
"'-	c #F8F5D2",
")-	c #FFFFE0",
"!-	c #FAF9CB",
"~-	c #FBF9C8",
"{-	c #F6F4C3",
"]-	c #F6F3C6",
"^-	c #FFF9E1",
"/-	c #F7F4C1",
"(-	c #FBF8C3",
"_-	c #FEFACA",
":-	c #F9F6BF",
"<-	c #FDFAC7",
"[-	c #F6F2C5",
"}-	c #FBFDCC",
"|-	c #F7F3C6",
"1-	c #F7F4BF",
"2-	c #FBF8C1",
"3-	c #F8F6BD",
"4-	c #F6F2C3",
"5-	c #FCFAC9",
"6-	c #F7F2CC",
"7-	c #F6F1C9",
"8-	c #F8F4C7",
"9-	c #F8F4C4",
"0-	c #FCF9C4",
"a-	c #FBFBC5",
"b-	c #FCFCCA",
"c-	c #F3F2C4",
"d-	c #F6F4CB",
"e-	c #FBF9D2",
"f-	c #F3F1CA",
"g-	c #FFFECC",
"h-	c #FCF6C2",
"i-	c #FAF5CB",
"j-	c #F9F6CB",
"k-	c #F1EEC1",
"l-	c #FDFCCE",
"m-	c #050505",
"n-	c #060604",
"o-	c #020011",
"p-	c #08060B",
"q-	c #010009",
"r-	c #03060B",
"s-	c #000104",
"t-	c #02020C",
"u-	c #00000E",
"v-	c #000012",
"w-	c #000106",
"x-	c #020008",
"y-	c #04010A",
"z-	c #060702",
"A-	c #010012",
"B-	c #020001",
"C-	c #060407",
"D-	c #01000B",
"E-	c #06030A",
"F-	c #06000A",
"G-	c #030007",
"H-	c #010204",
"I-	c #040008",
"J-	c #010010",
"K-	c #020100",
"L-	c #070506",
"M-	c #07050A",
"N-	c #01000E",
"O-	c #080609",
"P-	c #030009",
"Q-	c #05040A",
"R-	c #050706",
"S-	c #03000D",
"T-	c #080412",
"U-	c #04010C",
"V-	c #0C0912",
"W-	c #020006",
"X-	c #02050C",
"Y-	c #00010A",
"Z-	c #060814",
"`-	c #050704",
" ;	c #050409",
".;	c #010504",
"+;	c #020703",
"@;	c #030600",
"#;	c #01010B",
"$;	c #04050A",
"%;	c #090B00",
"&;	c #0C0A15",
"*;	c #070B0E",
"=;	c #060A00",
"-;	c #000109",
";;	c #000609",
">;	c #080B02",
",;	c #040301",
"';	c #08061C",
");	c #03030B",
"!;	c #040210",
"~;	c #080516",
"{;	c #030004",
"];	c #060203",
"^;	c #080901",
"/;	c #000606",
"(;	c #020808",
"_;	c #0A0B03",
":;	c #090506",
"<;	c #0A0718",
"[;	c #0A0B0D",
"};	c #090909",
"|;	c #080A09",
"1;	c #010500",
"2;	c #020400",
"3;	c #0A0C09",
"4;	c #050308",
"5;	c #0E0E18",
"6;	c #00010B",
"7;	c #00040E",
"8;	c #00020B",
"9;	c #040017",
"0;	c #101000",
"a;	c #040400",
"b;	c #0B0600",
"c;	c #0D0510",
"d;	c #080100",
"e;	c #1C1117",
"f;	c #070009",
"g;	c #07000E",
"h;	c #1B0F1B",
"i;	c #0D0400",
"j;	c #0A0000",
"k;	c #0C0000",
"l;	c #06021D",
"m;	c #151314",
"n;	c #0B0100",
"o;	c #060400",
"p;	c #090305",
"q;	c #040010",
"r;	c #04000E",
"s;	c #0A0502",
"t;	c #050200",
"u;	c #110C00",
"v;	c #090003",
"w;	c #060012",
"x;	c #060013",
"y;	c #0F060B",
"z;	c #0D0000",
"A;	c #0B0400",
"B;	c #191514",
"C;	c #07011B",
"D;	c #06001A",
"E;	c #151110",
"F;	c #0D0600",
"G;	c #110400",
"H;	c #100B00",
"I;	c #0B0203",
"J;	c #060010",
"K;	c #10070C",
"L;	c #070200",
"M;	c #0B0207",
"N;	c #060009",
"O;	c #090200",
"P;	c #0F0800",
"Q;	c #0D0409",
"R;	c #040009",
"S;	c #060007",
"T;	c #0C0700",
"U;	c #1B111C",
"V;	c #070010",
"W;	c #1F131F",
"X;	c #0A0200",
"Y;	c #0A0300",
"Z;	c #090000",
"`;	c #060004",
" >	c #040005",
".>	c #0D0407",
"+>	c #090100",
"@>	c #0E0E10",
"#>	c #080810",
"$>	c #100005",
"%>	c #0D0100",
"&>	c #F3EF98",
"*>	c #F6F19F",
"=>	c #F3E7BD",
"->	c #150800",
";>	c #F0E7AC",
">>	c #F1EA92",
",>	c #F9F297",
"'>	c #F2EC8A",
")>	c #F4EE8C",
"!>	c #EFE88D",
"~>	c #F6ED9E",
"{>	c #E5DA9A",
"]>	c #170A00",
"^>	c #180900",
"/>	c #E9DB9A",
"(>	c #FFF7A7",
"_>	c #F5EA8E",
":>	c #FAF18C",
"<>	c #F2E684",
"[>	c #FFF397",
"}>	c #F9EB93",
"|>	c #120F00",
"1>	c #E5E4A3",
"2>	c #F4F29B",
"3>	c #EEEA86",
"4>	c #F5F08C",
"5>	c #F2E98A",
"6>	c #FAEF96",
"7>	c #F4F099",
"8>	c #EDE5A6",
"9>	c #120600",
"0>	c #ECE4A3",
"a>	c #FFFBA2",
"b>	c #EBE887",
"c>	c #F2EF92",
"d>	c #F6F193",
"e>	c #E8E483",
"f>	c #FFFA9F",
"g>	c #EEE5A2",
"h>	c #140700",
"i>	c #0E0000",
"j>	c #F8EEB0",
"k>	c #F0EA92",
"l>	c #FDEE9B",
"m>	c #F4E98F",
"n>	c #F7EF8D",
"o>	c #EFE987",
"p>	c #F7F39C",
"q>	c #E9E6A3",
"r>	c #140F00",
"s>	c #F7EF84",
"t>	c #161100",
"u>	c #E4E19E",
"v>	c #F8F49D",
"w>	c #F1EB89",
"x>	c #F6EE8C",
"y>	c #F8ED93",
"z>	c #FCED9A",
"A>	c #F4F08F",
"B>	c #EDE986",
"C>	c #F9F498",
"D>	c #ECE39E",
"E>	c #F3EAA9",
"F>	c #F3EE93",
"G>	c #F0ED86",
"H>	c #F4EE9A",
"I>	c #F5EBB0",
"J>	c #0E0100",
"K>	c #F7F18F",
"L>	c #F3EE88",
"M>	c #ECE885",
"N>	c #FFF9A5",
"O>	c #E9E1A0",
"P>	c #110700",
"Q>	c #0D0200",
"R>	c #F0E9B5",
"S>	c #F7F296",
"T>	c #EDEA83",
"U>	c #F8F58A",
"V>	c #EFEB87",
"W>	c #FEF8A4",
"X>	c #E8DF9E",
"Y>	c #130700",
"Z>	c #160600",
"`>	c #EADC9D",
" ,	c #FFF4A2",
".,	c #F5ED8A",
"+,	c #F3EC82",
"@,	c #EFE782",
"#,	c #FAF196",
"$,	c #F7EC9A",
"%,	c #F0E9B2",
"&,	c #0D0300",
"*,	c #FFF8A7",
"=,	c #ECE789",
"-,	c #F3ED8D",
";,	c #F7F095",
">,	c #F5EA9B",
",,	c #EFE69B",
"',	c #FAF1AE",
"),	c #100900",
"!,	c #E5E1BE",
"~,	c #171300",
"{,	c #000406",
"],	c #FCEE85",
"^,	c #FFE99F",
"/,	c #F8E98E",
"(,	c #0C0002",
"_,	c #FFEB95",
":,	c #FDEA81",
"<,	c #FFEA7A",
"[,	c #FFEA85",
"},	c #FBEB7A",
"|,	c #FFE983",
"1,	c #FFE97B",
"2,	c #F8ED84",
"3,	c #F4ED82",
"4,	c #FFEB7C",
"5,	c #FFED87",
"6,	c #FCF084",
"7,	c #FFED8F",
"8,	c #FFEC83",
"9,	c #FBEB8B",
"0,	c #000600",
"a,	c #060005",
"b,	c #FAEE80",
"c,	c #FFEA88",
"d,	c #FDE986",
"e,	c #FDEE87",
"f,	c #FEED85",
"g,	c #FFEC86",
"h,	c #FFEC80",
"i,	c #FDEF82",
"j,	c #FFF087",
"k,	c #FFE877",
"l,	c #FDEB87",
"m,	c #FAEB84",
"n,	c #FBED82",
"o,	c #FEEC86",
"p,	c #FFEF89",
"q,	c #040003",
"r,	c #FFEE7C",
"s,	c #FFEB88",
"t,	c #FDEC84",
"u,	c #FCEB7F",
"v,	c #FFEC81",
"w,	c #FFEC82",
"x,	c #FBEE7E",
"y,	c #0A000C",
"z,	c #000302",
"A,	c #120000",
"B,	c #FFE985",
"C,	c #F5E786",
"D,	c #FDF080",
"E,	c #FFEA7D",
"F,	c #FEEC80",
"G,	c #FFEA86",
"H,	c #FAEA88",
"I,	c #F8EC7C",
"J,	c #FFEC85",
"K,	c #FEEA87",
"L,	c #FFEB86",
"M,	c #FBE979",
"N,	c #000201",
"O,	c #FEEC7C",
"P,	c #FFEC87",
"Q,	c #FBE784",
"R,	c #FFE88B",
"S,	c #FDF37A",
"T,	c #F8EC74",
"U,	c #FFE686",
"V,	c #FCEC8D",
"W,	c #FFEC8B",
"X,	c #FBE788",
"Y,	c #FEF087",
"Z,	c #FBEC91",
"`,	c #FFE78A",
" '	c #FEE97C",
".'	c #F9F589",
"+'	c #060002",
"@'	c #0A0008",
"#'	c #F4F085",
"$'	c #FEE97E",
"%'	c #FFE588",
"&'	c #FAE781",
"*'	c #FDEE91",
"='	c #FFF186",
"-'	c #FCE887",
";'	c #FFED7F",
">'	c #FFEB7E",
",'	c #FEEB85",
"''	c #FFEB85",
")'	c #FFEA7F",
"!'	c #F9E586",
"~'	c #FFEB91",
"{'	c #000400",
"]'	c #020800",
"^'	c #FDE88B",
"/'	c #0B0011",
"('	c #050000",
"_'	c #FAED7B",
":'	c #FFE688",
"<'	c #F7EB85",
"['	c #F6E980",
"}'	c #FCEA7E",
"|'	c #FFEA77",
"1'	c #FEE883",
"2'	c #FAEA79",
"3'	c #FFE880",
"4'	c #FFE879",
"5'	c #F7EC82",
"6'	c #030104",
"7'	c #F3EC81",
"8'	c #FFEB7B",
"9'	c #FFED86",
"0'	c #FCF082",
"a'	c #FFEC8D",
"b'	c #FFEB80",
"c'	c #FBEB89",
"d'	c #FDEF86",
"e'	c #FDEC82",
"f'	c #FFEA84",
"g'	c #FFEB87",
"h'	c #FDF088",
"i'	c #FFEF8E",
"j'	c #FFE47B",
"k'	c #FFF18C",
"l'	c #F4E87A",
"m'	c #F3E875",
"n'	c #FFE780",
"o'	c #FFF396",
"p'	c #FEF188",
"q'	c #FFE982",
"r'	c #FCEC7D",
"s'	c #FFEB7F",
"t'	c #0A000A",
"u'	c #0D0002",
"v'	c #F2E177",
"w'	c #FFE97A",
"x'	c #FBEA76",
"y'	c #FFF582",
"z'	c #FDEF74",
"A'	c #FCE878",
"B'	c #FBE97B",
"C'	c #FFEA83",
"D'	c #F9EE7B",
"E'	c #FFEB82",
"F'	c #FDEA84",
"G'	c #FBE882",
"H'	c #FFEC90",
"I'	c #FAF081",
"J'	c #FCEE81",
"K'	c #FFED8C",
"L'	c #FCEE8D",
"M'	c #FFF18B",
"N'	c #F9EC79",
"O'	c #F7EA82",
"P'	c #FFED7D",
"Q'	c #FFF089",
"R'	c #FFEC79",
"S'	c #EBE877",
"T'	c #F3EF81",
"U'	c #FFF07D",
"V'	c #FFF583",
"W'	c #F7EA81",
"X'	c #F4E872",
"Y'	c #FFF286",
"Z'	c #FEEC7E",
"`'	c #FFEC7C",
" )	c #FDEA83",
".)	c #FFE872",
"+)	c #FFF081",
"@)	c #F7E581",
"#)	c #12070F",
"$)	c #0C0107",
"%)	c #FCED76",
"&)	c #FFE771",
"*)	c #FFF889",
"=)	c #FAF67B",
"-)	c #FEE773",
";)	c #FEE77F",
">)	c #F9EA75",
",)	c #FEE77D",
"')	c #FFE773",
"))	c #F6EB7F",
"!)	c #F4EC7F",
"~)	c #FFEA78",
"{)	c #FCEF7D",
"])	c #FCEB83",
"^)	c #000500",
"/)	c #FFEA82",
"()	c #FDE87D",
"_)	c #FEEE7F",
":)	c #FDEC80",
"<)	c #FDE680",
"[)	c #F6EB81",
"})	c #FAE884",
"|)	c #F9E272",
"1)	c #FFF688",
"2)	c #FCF478",
"3)	c #FAF273",
"4)	c #FFF383",
"5)	c #F6DE70",
"6)	c #F6E384",
"7)	c #F4E97D",
"8)	c #FBE47A",
"9)	c #FFE981",
"0)	c #FDEB7D",
"a)	c #FBEC79",
"b)	c #FFEA7C",
"c)	c #12070B",
"d)	c #EEE570",
"e)	c #FFF275",
"f)	c #F6E969",
"g)	c #FAEE76",
"h)	c #FCEC72",
"i)	c #FFE980",
"j)	c #FAE675",
"k)	c #F9E777",
"l)	c #FBEC85",
"m)	c #FAED7A",
"n)	c #FFE97F",
"o)	c #FBEA78",
"p)	c #FDEC7A",
"q)	c #FFEA80",
"r)	c #FDE781",
"s)	c #FDF58A",
"t)	c #FBEF83",
"u)	c #F7DF73",
"v)	c #F8ED81",
"w)	c #060500",
"x)	c #F5E875",
"y)	c #FFEE7D",
"z)	c #F9EB6E",
"A)	c #FBEE7B",
"B)	c #FDEB6F",
"C)	c #FFE574",
"D)	c #FFF178",
"E)	c #F6F07E",
"F)	c #090002",
"G)	c #F5EF7F",
"H)	c #FDE970",
"I)	c #FCE271",
"J)	c #FBE96D",
"K)	c #F7EA77",
"L)	c #FBEE6E",
"M)	c #FDEA74",
"N)	c #FFE979",
"O)	c #FCEE83",
"P)	c #F2E66C",
"Q)	c #061007",
"R)	c #0C130C",
"S)	c #F3E674",
"T)	c #010700",
"U)	c #080007",
"V)	c #FEF076",
"W)	c #FFE969",
"X)	c #F2EA7B",
"Y)	c #EDEB74",
"Z)	c #FDE978",
"`)	c #FEE870",
" !	c #FEE87B",
".!	c #FAEA71",
"+!	c #FEE879",
"@!	c #FFE671",
"#!	c #F6EA7A",
"$!	c #F6EC7D",
"%!	c #FFE973",
"&!	c #FCED78",
"*!	c #FFEA75",
"=!	c #FCEA7C",
"-!	c #070004",
";!	c #FCE877",
">!	c #FDEE79",
",!	c #FCEC7B",
"'!	c #FFEF79",
")!	c #F7ED7E",
"!!	c #FDF07E",
"~!	c #FFF26F",
"{!	c #EFE76B",
"]!	c #F4EC6F",
"^!	c #F7F06E",
"/!	c #F1E96C",
"(!	c #FFEF6F",
"_!	c #FAEC7F",
":!	c #F9EF7E",
"<!	c #FFF37A",
"[!	c #FCEB77",
"}!	c #FCEB75",
"|!	c #FFEB76",
"1!	c #FAEB76",
"2!	c #0A0007",
"3!	c #FEEA79",
"4!	c #000402",
"5!	c #0F0909",
"6!	c #E8E268",
"7!	c #FDEE6F",
"8!	c #F9EC6C",
"9!	c #F5E576",
"0!	c #FFEB81",
"a!	c #FFE28D",
"b!	c #FCE772",
"c!	c #FBE774",
"d!	c #FFE87B",
"e!	c #F9ED75",
"f!	c #FDE976",
"g!	c #FEEA77",
"h!	c #FFEE76",
"i!	c #F2ED78",
"j!	c #FAF07D",
"k!	c #FFED73",
"l!	c #F9F077",
"m!	c #FDF276",
"n!	c #F9E471",
"o!	c #FBEC6F",
"p!	c #F8E976",
"q!	c #FFED72",
"r!	c #F4EC7D",
"s!	c #080002",
"t!	c #080004",
"u!	c #F5ED80",
"v!	c #FFF079",
"w!	c #FFED7C",
"x!	c #FDE96E",
"y!	c #F6E772",
"z!	c #FFF677",
"A!	c #FEE974",
"B!	c #FDED7C",
"C!	c #FEEA7A",
"D!	c #FDE581",
"E!	c #F8EE73",
"F!	c #FAEB78",
"G!	c #070304",
"H!	c #100213",
"I!	c #F8E86F",
"J!	c #FFE667",
"K!	c #FBF084",
"L!	c #F9EE85",
"M!	c #FEEB75",
"N!	c #FFE96D",
"O!	c #FAEA70",
"P!	c #FFE876",
"Q!	c #FFE86F",
"R!	c #F7EC78",
"S!	c #F6EB78",
"T!	c #FFE871",
"U!	c #FAEC71",
"V!	c #FFEA6D",
"W!	c #FFE975",
"X!	c #FCE86F",
"Y!	c #FBE76C",
"Z!	c #F2E67A",
"`!	c #03000E",
" ~	c #060405",
".~	c #F4E56E",
"+~	c #FEE85E",
"@~	c #FBF07A",
"#~	c #F8EC80",
"$~	c #FBF178",
"%~	c #FFEA61",
"&~	c #F6E774",
"*~	c #050112",
"=~	c #FBE868",
"-~	c #FFE874",
";~	c #FDEA71",
">~	c #FFEA72",
",~	c #F9EA73",
"'~	c #0A0006",
")~	c #010914",
"!~	c #F5EB7C",
"~~	c #FBE872",
"{~	c #FDED73",
"]~	c #FCEA7A",
"^~	c #FFEB79",
"/~	c #FCDB7C",
"(~	c #FFEB72",
"_~	c #FCE971",
":~	c #FFE777",
"<~	c #FAE97D",
"[~	c #F8ED71",
"}~	c #FFE774",
"|~	c #FDE871",
"1~	c #FDEA72",
"2~	c #030400",
"3~	c #FFEF74",
"4~	c #F2EB76",
"5~	c #FAEF7C",
"6~	c #FFE770",
"7~	c #F1E672",
"8~	c #0F090D",
"9~	c #F1E26F",
"0~	c #FEE678",
"a~	c #FFFB82",
"b~	c #F5E377",
"c~	c #FFE57B",
"d~	c #FAE16D",
"e~	c #16070C",
"f~	c #0D0007",
"g~	c #F4E97F",
"h~	c #FAE06F",
"i~	c #FFE177",
"j~	c #FFEB77",
"k~	c #F5E375",
"l~	c #FFF076",
"m~	c #FDE676",
"n~	c #FEE976",
"o~	c #FDE76F",
"p~	c #FCE57B",
"q~	c #FAF074",
"r~	c #F8E273",
"s~	c #06050B",
"t~	c #F5E279",
"u~	c #0A0408",
"v~	c #000205",
"w~	c #09000C",
"x~	c #F6E36B",
"y~	c #FFF179",
"z~	c #120B00",
"A~	c #110500",
"B~	c #FFE987",
"C~	c #FEEA71",
"D~	c #FFEA6A",
"E~	c #FFE977",
"F~	c #FCEA6C",
"G~	c #FFE972",
"H~	c #FFE86B",
"I~	c #F6EB77",
"J~	c #FFE76C",
"K~	c #FAEB6C",
"L~	c #FFE967",
"M~	c #000401",
"N~	c #FFE96F",
"O~	c #FAE767",
"P~	c #FBEC6B",
"Q~	c #FBEB71",
"R~	c #040004",
"S~	c #FFEA69",
"T~	c #FFEF85",
"U~	c #F8E586",
"V~	c #FFEE84",
"W~	c #FFE86A",
"X~	c #FEE86E",
"Y~	c #FCEA6A",
"Z~	c #0C0004",
"`~	c #01000A",
" {	c #0B0007",
".{	c #FFF690",
"+{	c #FFEC7E",
"@{	c #FBE76E",
"#{	c #FFED74",
"${	c #FFEC65",
"%{	c #FFEC6E",
"&{	c #FFED70",
"*{	c #FCEA6E",
"={	c #FAE878",
"-{	c #FFE66F",
";{	c #FBE76A",
">{	c #FDE96C",
",{	c #FFE678",
"'{	c #FDF27E",
"){	c #F9E978",
"!{	c #FFE779",
"~{	c #FBEA7E",
"{{	c #FFED80",
"]{	c #FFEC73",
"^{	c #F7E279",
"/{	c #FBDA71",
"({	c #FCF279",
"_{	c #FFEF78",
":{	c #FBDA73",
"<{	c #FFEE7E",
"[{	c #FEEC70",
"}{	c #FDE470",
"|{	c #FCE774",
"1{	c #FBE669",
"2{	c #FBED72",
"3{	c #FDE869",
"4{	c #FFED6A",
"5{	c #FBEE6B",
"6{	c #FFE87A",
"7{	c #FFE984",
"8{	c #090001",
"9{	c #000A00",
"0{	c #000503",
"a{	c #0B000B",
"b{	c #FEEA6D",
"c{	c #FFE26C",
"d{	c #FEEA65",
"e{	c #EBE680",
"f{	c #F3E582",
"g{	c #FFE074",
"h{	c #FFE867",
"i{	c #FEE871",
"j{	c #FBEA68",
"k{	c #FFE769",
"l{	c #F7EB71",
"m{	c #F6EA74",
"n{	c #FFE669",
"o{	c #FFE862",
"p{	c #FCE969",
"q{	c #000301",
"r{	c #FAE663",
"s{	c #FAEC67",
"t{	c #FFE271",
"u{	c #F3E25E",
"v{	c #F9E262",
"w{	c #F3DD70",
"x{	c #FCE973",
"y{	c #F6E071",
"z{	c #FFEC75",
"A{	c #F9E165",
"B{	c #F6E65F",
"C{	c #FFE772",
"D{	c #FCE966",
"E{	c #FCEB67",
"F{	c #FFE66D",
"G{	c #F7E76D",
"H{	c #0B0001",
"I{	c #FDE86B",
"J{	c #220D00",
"K{	c #EFDA5A",
"L{	c #FFE56D",
"M{	c #F8E55B",
"N{	c #FFE463",
"O{	c #FFEA6B",
"P{	c #FFE56F",
"Q{	c #FAE975",
"R{	c #F9EC6A",
"S{	c #FFE46C",
"T{	c #FBE764",
"U{	c #FFE76B",
"V{	c #FEEA6F",
"W{	c #060501",
"X{	c #FEE66A",
"Y{	c #FDE966",
"Z{	c #FFE77B",
"`{	c #F6E766",
" ]	c #F6E362",
".]	c #FFEE77",
"+]	c #F5E269",
"@]	c #0E0800",
"#]	c #100600",
"$]	c #FFEC67",
"%]	c #FFEC6C",
"&]	c #F7E461",
"*]	c #FFE170",
"=]	c #FFEF67",
"-]	c #E6DE4D",
";]	c #130A00",
">]	c #150C00",
",]	c #DFD748",
"']	c #FFF169",
")]	c #FFE473",
"!]	c #FEE56F",
"~]	c #FBE776",
"{]	c #FBE963",
"]]	c #FFEB69",
"^]	c #FBE671",
"/]	c #FEE972",
"(]	c #FCE565",
"_]	c #FBEC6D",
":]	c #FDEA6A",
"<]	c #FCE865",
"[]	c #F8E15F",
"}]	c #FEED69",
"|]	c #F9DC5A",
"1]	c #181400",
"2]	c #160C00",
"3]	c #FBDE66",
"4]	c #000507",
"5]	c #090004",
"6]	c #F6E360",
"7]	c #FFEB54",
"8]	c #F7F15D",
"9]	c #F9EA59",
"0]	c #FFE66A",
"a]	c #FCE86B",
"b]	c #FFE763",
"c]	c #FFE670",
"d]	c #FAE967",
"e]	c #FFE76D",
"f]	c #FFE665",
"g]	c #F5EA6E",
"h]	c #F8E972",
"i]	c #FFE668",
"j]	c #FAE965",
"k]	c #FFE85E",
"l]	c #000303",
"m]	c #FFE868",
"n]	c #FAE65F",
"o]	c #FCEC65",
"p]	c #FBE96B",
"q]	c #FFE368",
"r]	c #FEF049",
"s]	c #E9EA8C",
"t]	c #E2E288",
"u]	c #FFEF5D",
"v]	c #FDDA5C",
"w]	c #FFEF72",
"x]	c #FEED55",
"y]	c #F9E94C",
"z]	c #FFEC6D",
"A]	c #FDD95E",
"B]	c #FFEF61",
"C]	c #E3E38D",
"D]	c #E8E98C",
"E]	c #FCEE45",
"F]	c #FFE061",
"G]	c #FEE767",
"H]	c #FCEA64",
"I]	c #FFE56C",
"J]	c #F7E86B",
"K]	c #FEE668",
"L]	c #ECEC7A",
"M]	c #E9D781",
"N]	c #FFF44D",
"O]	c #FFE45C",
"P]	c #FFE873",
"Q]	c #F9E278",
"R]	c #FEE274",
"S]	c #FDE868",
"T]	c #F9E666",
"U]	c #040600",
"V]	c #FAED6A",
"W]	c #FFE469",
"X]	c #FBE762",
"Y]	c #FDE964",
"Z]	c #FFE26E",
"`]	c #F9EB56",
" ^	c #FFF55A",
".^	c #FCDB50",
"+^	c #FFF15F",
"@^	c #E3DF96",
"#^	c #F1EB9D",
"$^	c #FFED45",
"%^	c #FFEA5E",
"&^	c #F8E857",
"*^	c #F9E062",
"=^	c #FBE34B",
"-^	c #FDF852",
";^	c #E7DF9E",
">^	c #E3DB9C",
",^	c #FFFD59",
"'^	c #F9E14B",
")^	c #FFE86D",
"!^	c #F7E754",
"~^	c #FFE958",
"{^	c #FCE571",
"]^	c #FBE462",
"^^	c #FAEB6A",
"/^	c #FEE763",
"(^	c #FEEB6B",
"_^	c #FFEB4C",
":^	c #F1F086",
"<^	c #EBE784",
"[^	c #FFEC5A",
"}^	c #0C0005",
"|^	c #02020A",
"1^	c #F6E95F",
"2^	c #FFE560",
"3^	c #FFE75F",
"4^	c #FFE659",
"5^	c #FDE75E",
"6^	c #FEE85F",
"7^	c #FDE760",
"8^	c #FEE660",
"9^	c #FFE65E",
"0^	c #FFE55B",
"a^	c #F9E95E",
"b^	c #000307",
"c^	c #000202",
"d^	c #F5E85C",
"e^	c #FFE55D",
"f^	c #FFE45F",
"g^	c #FCE65F",
"h^	c #FDE65C",
"i^	c #FFE556",
"j^	c #FDE75D",
"k^	c #FEE75D",
"l^	c #FEE65E",
"m^	c #FFE559",
"n^	c #F8E95C",
"o^	c #F4E75A",
"p^	c #FDE358",
"q^	c #FEE45B",
"r^	c #FBE55B",
"s^	c #FCE557",
"t^	c #FFE454",
"u^	c #FDE65A",
"v^	c #FCE559",
"w^	c #FFE658",
"x^	c #FFE458",
"y^	c #F7E859",
"z^	c #000305",
"A^	c #F5E655",
"B^	c #FEE453",
"C^	c #FDE453",
"D^	c #FBE554",
"E^	c #FFE44F",
"F^	c #FEE554",
"G^	c #FDE551",
"H^	c #FCE654",
"I^	c #FEE555",
"J^	c #FFE351",
"K^	c #F6E655",
"L^	c #000304",
"M^	c #F6E853",
"N^	c #FEE54D",
"O^	c #FBE64F",
"P^	c #FDE54F",
"Q^	c #FFE44E",
"R^	c #FEE44F",
"S^	c #FFE550",
"T^	c #FDE44A",
"U^	c #FDE54D",
"V^	c #FFE34D",
"W^	c #FFE14D",
"X^	c #F5E552",
"Y^	c #000204",
"Z^	c #F7E851",
"`^	c #FEE447",
" /	c #FDE545",
"./	c #FCE549",
"+/	c #FEE54A",
"@/	c #FFE44A",
"#/	c #FEE34A",
"$/	c #FFE44B",
"%/	c #FBE343",
"&/	c #FFE248",
"*/	c #FEDF47",
"=/	c #F4E34F",
"-/	c #000403",
";/	c #F5E64B",
">/	c #FCE341",
",/	c #FCE340",
"'/	c #FAE443",
")/	c #FCE446",
"!/	c #FFE347",
"~/	c #FFE246",
"{/	c #FAE33F",
"]/	c #FBE544",
"^/	c #FDE547",
"//	c #FFE145",
"(/	c #FDDE45",
"_/	c #F3E24C",
":/	c #F4E54A",
"</	c #FBE23F",
"[/	c #FAE23A",
"}/	c #F9E33F",
"|/	c #FFE143",
"1/	c #FFE344",
"2/	c #FEE243",
"3/	c #FBE23D",
"4/	c #FBE440",
"5/	c #FCE444",
"6/	c #FDDF43",
"7/	c #F3E24A",
"8/	c #110007",
"9/	c #F1DC43",
"0/	c #FFDF47",
"a/	c #FFE040",
"b/	c #FCE43A",
"c/	c #FDE43F",
"d/	c #FCE43C",
"e/	c #FFE23C",
"f/	c #FFE13B",
"g/	c #FBE33B",
"h/	c #FDE53D",
"i/	c #FDE13F",
"j/	c #FFE341",
"k/	c #FFDF3E",
"l/	c #FFE043",
"m/	c #E4D03D",
"n/	c #100003",
"o/	c #0F0000",
"p/	c #FBE73A",
"q/	c #FFDF31",
"r/	c #FFE030",
"s/	c #FFE434",
"t/	c #FEDD40",
"u/	c #FFE142",
"v/	c #FFE03D",
"w/	c #FEE13D",
"x/	c #FEDE3B",
"y/	c #FCDF3B",
"z/	c #FFDC43",
"A/	c #FDDB3C",
"B/	c #FFE63D",
"C/	c #FFDF2F",
"D/	c #FFE234",
"E/	c #F0DA36",
"F/	c #F9E840",
"G/	c #FCDC31",
"H/	c #FFE534",
"I/	c #FEE229",
"J/	c #FFE239",
"K/	c #FFE433",
"L/	c #FFDC33",
"M/	c #FDDF33",
"N/	c #FEE034",
"O/	c #FFDD34",
"P/	c #FFDF36",
"Q/	c #FFE236",
"R/	c #FFDE35",
"S/	c #FFE53E",
"T/	c #FFDF35",
"U/	c #FFDF32",
"V/	c #FFDE2F",
"W/	c #FEDE35",
"X/	c #EBDB3D",
"Y/	c #000207",
"Z/	c #000800",
"`/	c #0A0400",
" (	c #F1E738",
".(	c #F6DC2F",
"+(	c #FFE430",
"@(	c #EFD715",
"#(	c #FDE428",
"$(	c #FEE21C",
"%(	c #FDDE35",
"&(	c #F8E035",
"*(	c #F9E136",
"=(	c #FEDF36",
"-(	c #FCDD34",
";(	c #F8D91C",
">(	c #FCE025",
",(	c #F6DC27",
"'(	c #FFE335",
")(	c #FBE037",
"!(	c #E0D734",
"~(	c #000700",
"{(	c #00050D",
"](	c #0B0002",
"^(	c #F1DF3F",
"/(	c #FCDB38",
"((	c #FFDF39",
"_(	c #FFE235",
":(	c #FCD933",
"<(	c #F9E52E",
"[(	c #FCE32E",
"}(	c #F8E42D",
"|(	c #FBE22D",
"1(	c #FFDB3E",
"2(	c #FFE041",
"3(	c #FDD734",
"4(	c #FEDC3D",
"5(	c #E4D33F",
"6(	c #000414",
"7(	c #080015",
"8(	c #FDE53B",
"9(	c #FFE42B",
"0(	c #FAD814",
"a(	c #FFEB1C",
"b(	c #F9DC1E",
"c(	c #FBDD1B",
"d(	c #FFDB28",
"e(	c #FFD928",
"f(	c #FFD827",
"g(	c #FFDA27",
"h(	c #FFDC29",
"i(	c #FFDA29",
"j(	c #FFDD2A",
"k(	c #FDDC1F",
"l(	c #F7D919",
"m(	c #FFE51F",
"n(	c #F9D713",
"o(	c #FFEB31",
"p(	c #F9E03E",
"q(	c #110000",
"r(	c #010013",
"s(	c #1C0F00",
"t(	c #E2D62C",
"u(	c #FCE243",
"v(	c #F2DC39",
"w(	c #F3E836",
"x(	c #E6DF2F",
"y(	c #F2EB2B",
"z(	c #FAE226",
"A(	c #FBE226",
"B(	c #F8E024",
"C(	c #F9E024",
"D(	c #F9E125",
"E(	c #EFE627",
"F(	c #EAE12A",
"G(	c #F5E83A",
"H(	c #F5E039",
"I(	c #F6DD38",
"J(	c #D6C923",
"K(	c #190F00",
"L(	c #000B07",
"M(	c #000022",
"N(	c #160D00",
"O(	c #140000",
"P(	c #110015",
"Q(	c #08000C",
"R(	c #050006",
"S(	c #0A000E",
"T(	c #130010",
"U(	c #000019",
"V(	c #000A02",
"W(	c #010006",
"X(	c #010008",
"Y(	c #FCFBDF",
"Z(	c #FEFADF",
"`(	c #FFFBE0",
" _	c #FFFBDE",
"._	c #FEFBDC",
"+_	c #FDFADB",
"@_	c #FDFAD9",
"#_	c #FDF8D8",
"$_	c #FFFAD8",
"%_	c #FDF8CE",
"&_	c #FFFADD",
"*_	c #FFF9DF",
"=_	c #FFF8DF",
"-_	c #FFF7DE",
";_	c #FFFBDD",
">_	c #FEF9DB",
",_	c #FFF9DC",
"'_	c #FDF6D9",
")_	c #FFF9D7",
"!_	c #FDF7D3",
"~_	c #FEFCD6",
"{_	c #FEFAD5",
"]_	c #FDF9D3",
"                . . . . . . . . + + + + + + + + @ @ @ @ @ @ @ @ @ @ @ @ @ @ @ @ # # # # # # # # $ $ $ $ $ $ $ $ $ $ $ $ $ $ $ $ $ $ $ $ $ $ $ $ $ $ $ $ $ $ $ $ % % % % % % % % % % % % % % % % & & & & & & & & * * * * * * * * * * * * * * * * * * * * * * * * ",
"                . . . . . . . . + + + + + + + + @ @ @ @ @ @ @ @ @ @ @ @ @ @ @ @ # # # # # # # # $ $ $ $ $ $ $ $ $ $ $ $ $ $ $ $ $ $ $ $ $ $ $ $ $ $ $ $ $ $ $ $ % % % % % % % % % % % % % % % % & & & & & & & & * * * * * * * * * * * * * * * * * * * * * * * * ",
"                . . . . . . . . + + + + + + + + @ @ @ @ @ @ @ @ @ @ @ @ @ @ @ @ # # # # # # # # $ $ $ $ $ $ $ $ $ $ $ $ $ $ $ $ $ $ $ $ $ $ $ $ $ $ $ $ $ $ $ $ % % % % % % % % % % % % % % % % & & & & & & & & * * * * * * * * * * * * * * * * * * * * * * * * ",
"                . . . . . . . . + + + + + + + + @ @ @ @ @ @ @ @ @ @ @ @ @ @ @ @ @ @ @ @ @ @ @ @ $ $ $ $ $ $ $ $ $ $ $ $ $ $ $ $ $ $ $ $ $ $ $ $ $ $ $ $ $ $ $ $ % % % % % % % % % % % % % % % % & & & & & & & & * * * * * * * * * * * * * * * * * * * * * * * * ",
"                . . . . . . . . + + + + + + + + @ @ @ @ @ @ @ @ @ @ @ @ @ @ @ @ @ @ @ @ @ @ @ @ $ $ $ $ $ $ $ $ $ $ $ $ $ $ $ $ $ $ $ $ $ $ $ $ $ $ $ $ $ $ $ $ % % % % % % % % % % % % % % % % & & & & & & & & * * * * * * * * * * * * * * * * * * * * * * * * ",
"                . . . . . . . . + + + + + + + + @ @ @ @ @ @ @ @ @ @ @ @ @ @ @ @ @ @ @ @ @ @ @ @ $ $ $ $ $ $ $ $ $ $ $ $ $ $ $ $ $ $ $ $ $ $ $ $ $ $ $ $ $ $ $ $ % % % % % % % % % % % % % % % % & & & & & & & & * * * * * * * * * * * * * * * * * * * * * * * * ",
"                . . . . . . . . + + + + + + + + @ @ @ @ @ @ @ @ @ @ @ @ @ @ @ @ @ @ @ @ @ @ @ @ $ $ $ $ $ $ $ $ $ $ $ $ $ $ $ $ $ $ $ $ $ $ $ $ $ $ $ $ $ $ $ $ % % % % % % % % % % % % % % % % & & & & & & & & * * * * * * * * * * * * * * * * * * * * * * * * ",
"                . . . . . . . . + + + + + + + + @ @ @ @ @ @ @ @ @ @ @ @ @ @ @ @ @ @ @ @ @ @ @ @ $ $ $ $ $ $ $ $ $ $ $ $ $ $ $ $ $ $ $ $ $ $ $ $ $ $ $ $ $ $ $ $ % % % % % % % % % % % % % % % % & & & & & & & & * * * * * * * * * * * * * * * * * * * * * * * * ",
"= = = = = = = = = = = = = = = =                 . . . . . . . . . . . . . . . . + + + + + + + + @ @ @ @ @ @ @ @ - ; > , ' ) ! ~ { ) ] ^ / ( _ : < [ } | 1 2 3 4 $ $ $ $ $ $ $ $ $ $ $ $ $ $ $ $ % % % % % % % % % % % % % % % % & & & & & & & & 5 5 5 5 5 5 5 5 ",
"= = = = = = = = = = = = = = = =                 . . . . . . . . . . . . . . . . + + + + + + + + @ @ @ @ @ @ @ @ ) 6 7 . 8 9 0 a b c d e f g * h i j k k l m % n $ $ $ $ $ $ $ $ $ $ $ $ $ $ $ $ % % % % % % % % % % % % % % % % & & & & & & & & 5 5 5 5 5 5 5 5 ",
"= = = = = = = = = = = = = = = =                 . . . . . . . . . . . . . . . . + + + + + + + + @ @ @ @ @ @ @ @ o p q r s $ t 7 u v w x y z A B C C D E F G H I $ $ $ $ $ $ $ $ $ $ $ $ $ $ $ $ % % % % % % % % % % % % % % % % % % % % % % % % 5 5 5 5 5 5 5 5 ",
"= = = = = = = = = = = = = = = =                 . . . . . . . . . . . . . . . . + + + + + + + + @ @ @ @ @ @ @ @ J K L M % 8 N O P Q R S T U V W X Y Z `  ...+.1 $ $ $ $ $ $ $ $ $ $ $ $ $ $ $ $ % % % % % % % % % % % % % % % % % % % % % % % % 5 5 5 5 5 5 5 5 ",
"= = = = = = = = = = = = = = = =                 . . . . . . . . . . . . . . . . + + + + + + + + @ @ @ @ @ @ @ @ @.$ #.$.%.&.*.=.-.;.>.>.,.'.).!.~.{.x ].^./.k (.$ $ $ $ $ $ $ $ $ $ $ $ $ $ $ $ % % % % % % % % % % % % % % % % % % % % % % % % 5 5 5 5 5 5 5 5 ",
"= = = = = = = = = = = = = = = =                 . . . . . . . . . . . . . . . . + + + + + + + + @ @ @ @ @ @ @ @   _.:.<.[.}.|.1.2.3.4.5.-.6.|.|.7.8.9.0.a.p ( b.$ $ $ $ $ $ $ $ $ $ $ $ $ $ $ $ % % % % % % % % % % % % % % % % % % % % % % % % 5 5 5 5 5 5 5 5 ",
"= = = = = = = = = = = = = = = =                 . . . . . . . . . . . . . . . . + + + + + + + + @ @ @ @ @ @ @ @ c.d.e.f.|.g.h.i.j.k.k.l.m.3.n.4.o.p.q.r.a #.i s.$ $ $ $ $ $ $ $ $ $ $ $ $ $ $ $ % % % % % % % % % % % % % % % % t.t.t.t.t.t.t.t.5 5 5 5 5 5 5 5 ",
"= = = = = = = = = = = = = = = =                 . . . . . . . . . . . . . . . . + + + + + + + + @ @ @ @ @ @ @ @ u.<.v.w.n.x.y.z.A.B.A.A.C.D.E.F.G.H.I.~.J.K.L.M.$ $ $ $ $ $ $ $ $ $ $ $ $ $ $ $ % % % % % % % % % % % % % % % % t.t.t.t.t.t.t.t.5 5 5 5 5 5 5 5 ",
"N.N.N.N.N.N.N.N.N.N.N.N.N.N.N.N.= = = = = = = = = = = = = = = = = = = = = = = = = = = = = = = = . . . . . . . . $ O.h.P.Q.A.H.=.R.0.S.T.U.}.|.V.W.h.X.Y.Z.`.4 @.@ @ @ @ @ @ @ @ @ @ @ @ @ @ @ @ $ $ $ $ $ $ $ $ $ $ $ $ $ $ $ $ $ $ $ $ $ $ $ $ % % % % % % % % ",
"N.N.N.N.N.N.N.N.N.N.N.N.N.N.N.N.= = = = = = = = = = = = = = = = = = = = = = = = = = = = = = = = . . . . . . . . > G. +.+++@+#+$+%+&+*+=+-+;+6.n.h.>+-.,+'+)+!+# @ @ @ @ @ @ @ @ @ @ @ @ @ @ @ @ $ $ $ $ $ $ $ $ $ $ $ $ $ $ $ $ $ $ $ $ $ $ $ $ % % % % % % % % ",
"N.N.N.N.N.N.N.N.N.N.N.N.N.N.N.N.= = = = = = = = = = = = = = = = = = = = = = = = = = = = = = = = . . . . . . . . ~+{+]+^+/+(+_+:+<+[+}+|+- 1+2+X.h.3+|.4+5+6+7+@ @ @ @ @ @ @ @ @ @ @ @ @ @ @ @ @ $ $ $ $ $ $ $ $ $ $ $ $ $ $ $ $ $ $ $ $ $ $ $ $ % % % % % % % % ",
"N.N.N.N.N.N.N.N.N.N.N.N.N.N.N.N.= = = = = = = = = = = = = = = = = = = = = = = = = = = = = = = = . . . . . . . . 8+h.k.9+0+a+b+c+6 d+e+f+g+h+i+8+j+k.k+|.l+m+n+t @ @ @ @ @ @ @ @ @ @ @ @ @ @ @ @ $ $ $ $ $ $ $ $ $ $ $ $ $ $ $ $ $ $ $ $ $ $ $ $ % % % % % % % % ",
"N.N.N.N.N.N.N.N.N.N.N.N.N.N.N.N.= = = = = = = = = = = = = = = = = = = = = = = = = = = = = = = = . . . . . . . . h.o+p+-.q+r+s+t+u+v+w+l x+z y+z+A+B+C+w.D+E+F+# @ @ @ @ @ @ @ @ @ @ @ @ @ @ @ @ $ $ $ $ $ $ $ $ $ $ $ $ $ $ $ $ $ $ $ $ $ $ $ $ % % % % % % % % ",
"N.N.N.N.N.N.N.N.N.N.N.N.N.N.N.N.= = = = = = = = = = = = = = = = = = = = = = = = = = = = = = = = . . . . . . . . G+-.H.H+I+J+K+L+M+N+q.+.c+O+P+Q+D.k.-.R+S+G T+U+@ @ @ @ @ @ @ @ @ @ @ @ @ @ @ @ $ $ $ $ $ $ $ $ $ $ $ $ $ $ $ $ $ $ $ $ $ $ $ $ % % % % % % % % ",
"N.N.N.N.N.N.N.N.N.N.N.N.N.N.N.N.= = = = = = = = = = = = = = = = = = = = = = = = = = = = = = = = . . . . . . . . V+W+X+Y+{ Z+`+ @J+.@+@@@b+K.#@$@B+%@-.$@&@*@0 =@@ @ @ @ @ @ @ @ @ @ @ @ @ @ @ @ $ $ $ $ $ $ $ $ $ $ $ $ $ $ $ $ $ $ $ $ $ $ $ $ % % % % % % % % ",
"N.N.N.N.N.N.N.N.N.N.N.N.N.N.N.N.= = = = = = = = = = = = = = = = = = = = = = = = = = = = = = = = . . . . . . . . -@;@>@,@'@)@!@~@{@]@^@/@(@_@7.:@x.k.1.<@[@}@|@]@@ @ @ @ @ @ @ @ @ @ @ @ @ @ @ @ $ $ $ $ $ $ $ $ $ $ $ $ $ $ $ $ $ $ $ $ $ $ $ $ % % % % % % % % ",
"N.N.N.N.N.N.N.N.N.N.N.N.N.N.N.N.N.N.N.N.N.N.N.N.N.N.N.N.N.N.N.N.N.N.N.N.N.N.N.N.= = = = = = = = = = = = = = = = 1@F+2@3@N.*+4@5@6@7@#.8@9@0@X.n.a@-.6.I.b@8@8@c@+ + + + + + + + @ @ @ @ @ @ @ @ @ @ @ @ @ @ @ @ @ @ @ @ @ @ @ @ $ $ $ $ $ $ $ $ $ $ $ $ $ $ $ $ ",
"N.N.N.N.N.N.N.N.N.N.N.N.N.N.N.N.N.N.N.N.N.N.N.N.N.N.N.N.N.N.N.N.N.N.N.N.N.N.N.N.= = = = = = = = = = = = = = = = d@  %.4@= = J+e@f@g@J+h@i@6.j@k@-.l@m@n@o@p@F q@+ + + + + + + + @ @ @ @ @ @ @ @ @ @ @ @ @ @ @ @ @ @ @ @ @ @ @ @ $ $ $ $ $ $ $ $ $ $ $ $ $ $ $ $ ",
"N.N.N.N.N.N.N.N.N.N.N.N.N.N.N.N.N.N.N.N.N.N.N.N.N.N.N.N.N.N.N.N.N.N.N.N.N.N.N.N.= = = = = = = = = = = = = = = = r@s@t@_+7 u@v@w@x@y@z@o.G.n.3.k.>.A@B@C@D@E@] + + + + + + + + + @ @ @ @ @ @ @ @ @ @ @ @ @ @ @ @ @ @ @ @ @ @ @ @ $ $ $ $ $ $ $ $ $ $ $ $ $ $ $ $ ",
"N.N.N.N.N.N.N.N.N.N.N.N.N.N.N.N.N.N.N.N.N.N.N.N.N.N.N.N.N.N.N.N.N.N.N.N.N.N.N.N.= = = = = = = = = = = = = = = = F@G@s@H@) m+d@u@I@J@K@l@F.L@j@++B@M@N@I O@P@7 Q@+ + + + + + + + @ @ @ @ @ @ @ @ @ @ @ @ @ @ @ @ @ @ @ @ @ @ @ @ $ $ $ $ $ $ $ $ $ $ $ $ $ $ $ $ ",
"N.N.N.N.N.N.N.N.N.N.N.N.N.N.N.N.N.N.N.N.N.N.N.N.N.N.N.N.N.N.N.N.N.N.N.N.N.N.N.N.= = = = = = = = = = = = = = = = O R@S@- T@U@V@W@X@/+Y@Z@`@-. #.#E++#@###$#>@U@5@+ + + + + + + + @ @ @ @ @ @ @ @ @ @ @ @ @ @ @ @ @ @ @ @ @ @ @ @ $ $ $ $ $ $ $ $ $ $ $ $ $ $ $ $ ",
"N.N.N.N.N.N.N.N.N.N.N.N.N.N.N.N.N.N.N.N.N.N.N.N.N.N.N.N.N.N.N.N.N.N.N.N.N.N.N.N.= = = = = = = = = = = = = = = = <.r@7 %#T+5@&#*#=#A.l.3.|.H.-#;#p@8@G >#{ b@b@,#+ + + + + + + + @ @ @ @ @ @ @ @ @ @ @ @ @ @ @ @ @ @ @ @ @ @ @ @ $ $ $ $ $ $ $ $ $ $ $ $ $ $ $ $ ",
"N.N.N.N.N.N.N.N.N.N.N.N.N.N.N.N.N.N.N.N.N.N.N.N.N.N.N.N.N.N.N.N.N.N.N.N.N.N.N.N.= = = = = = = = = = = = = = = = '#)#!#~#{#]#^#/#x.(#n.-.}._#:#<#e $.[#u+7 }#q@|#+ + + + + + + + @ @ @ @ @ @ @ @ @ @ @ @ @ @ @ @ @ @ @ @ @ @ @ @ $ $ $ $ $ $ $ $ $ $ $ $ $ $ $ $ ",
"N.N.N.N.N.N.N.N.N.N.N.N.N.N.N.N.N.N.N.N.N.N.N.N.N.N.N.N.N.N.N.N.N.N.N.N.N.N.N.N.= = = = = = = = = = = = = = = = 4@) 1#2#<#3#4#5#z.k.n.6#[.7#8#C 9#0#a#b#c#E+d#c + + + + + + + + @ @ @ @ @ @ @ @ @ @ @ @ @ @ @ @ @ @ @ @ @ @ @ @ $ $ $ $ $ $ $ $ $ $ $ $ $ $ $ $ ",
"e#e#e#e#e#e#e#e#f#f#f#f#f#f#f#f#N.N.N.N.N.N.N.N.N.N.N.N.N.N.N.N.N.N.N.N.N.N.N.N.N.N.N.N.N.N.N.N.N.N.N.N.N.N.N.N.g#h#i#6 j#k#l#A.m#n#$@o#p#.@N+r@= = = = = = = =                 . . . . . . . . . . . . . . . . + + + + + + + + @ @ @ @ @ @ @ @ @ @ @ @ @ @ @ @ ",
"e#e#e#e#e#e#e#e#f#f#f#f#f#f#f#f#N.N.N.N.N.N.N.N.N.N.N.N.N.N.N.N.N.N.N.N.N.N.N.N.N.N.N.N.N.N.N.N.N.N.N.N.N.N.N.N.q#h#r#s#$#q#t#n.x.n#u#v#3@w#3@x#= = = = = = = =                 . . . . . . . . . . . . . . . . + + + + + + + + @ @ @ @ @ @ @ @ @ @ @ @ @ @ @ @ ",
"e#e#e#e#e#e#e#e#f#f#f#f#f#f#f#f#N.N.N.N.N.N.N.N.N.N.N.N.N.N.N.N.N.N.N.N.N.N.N.N.N.N.N.N.N.N.N.N.N.N.N.N.N.N.N.N.h#i#y#T+I z#|.A#B#n.C#D#<#0   > = = = = = = = =                 . . . . . . . . . . . . . . . . + + + + + + + + @ @ @ @ @ @ @ @ @ @ @ @ @ @ @ @ ",
"e#e#e#e#e#e#e#e#f#f#f#f#f#f#f#f#N.N.N.N.N.N.N.N.N.N.N.N.N.N.N.N.N.N.N.N.N.N.N.N.N.N.N.N.N.N.N.N.N.N.N.N.N.N.N.N.E#F#1+9 8@G#H#I#J#K#L#f#f M#T+N#= = = = = = = =                 . . . . . . . . . . . . . . . . + + + + + + + + @ @ @ @ @ @ @ @ @ @ @ @ @ @ @ @ ",
"e#e#e#e#e#e#e#e#f#f#f#f#f#f#f#f#N.N.N.N.N.N.N.N.N.N.N.N.N.N.N.N.N.N.N.N.N.N.N.N.N.N.N.N.N.N.N.N.N.N.N.N.N.N.N.N.O#s@P#Q#R#S#>.T#|.U#V#W#V Y @#X#= = = = = = = =                 . . . . . . . . . . . . . . . . + + + + + + + + @ @ @ @ @ @ @ @ @ @ @ @ @ @ @ @ ",
"e#e#e#e#e#e#e#e#f#f#f#f#f#f#f#f#N.N.N.N.N.N.N.N.N.N.N.N.N.N.N.N.N.N.N.N.N.N.N.N.N.N.N.N.N.N.N.N.N.N.N.N.N.N.N.N.Y#Z#N+J+D 9@`#4+o. $.$+$J+- @$#$= = = = = = = =                 . . . . . . . . . . . . . . . . + + + + + + + + @ @ @ @ @ @ @ @ @ @ @ @ @ @ @ @ ",
"e#e#e#e#e#e#e#e#f#f#f#f#f#f#f#f#N.N.N.N.N.N.N.N.N.N.N.N.N.N.N.N.N.N.N.N.N.N.N.N.N.N.N.N.N.N.N.N.N.N.N.N.N.N.N.N.$$_+%$&$*$- ~@<@=$-$;$S#>$:#,$X#= = = = = = = =                 . . . . . . . . . . . . . . . . + + + + + + + + @ @ @ @ @ @ @ @ @ @ @ @ @ @ @ @ ",
"e#e#e#e#e#e#e#e#f#f#f#f#f#f#f#f#N.N.N.N.N.N.N.N.N.N.N.N.N.N.N.N.N.N.N.N.N.N.N.N.N.N.N.N.N.N.N.N.N.N.N.N.N.N.N.N.a b#'$)$J !$~${$,$=@]$^$/$($_$:$= = = = = = = =                 . . . . . . . . . . . . . . . . + + + + + + + + @ @ @ @ @ @ @ @ @ @ @ @ @ @ @ @ ",
"e#e#e#e#e#e#e#e#e#e#e#e#e#e#e#e#e#e#e#e#e#e#e#e#e#e#e#e#e#e#e#e#f#f#f#f#f#f#f#f#N.N.N.N.N.N.N.N.N.N.N.N.N.N.N.N.=@<$[$u@}$|$/+1$I#h.K@i+y@>@2$3$N.N.N.N.N.N.N.N.= = = = = = = = = = = = = = = = = = = = = = = =                 . . . . . . . . + + + + + + + + ",
"e#e#e#e#e#e#e#e#e#e#e#e#e#e#e#e#e#e#e#e#e#e#e#e#e#e#e#e#e#e#e#e#f#f#f#f#f#f#f#f#N.N.N.N.N.N.N.N.N.N.N.N.N.N.N.N.c#4$>$[+5$6$7$8$9$0$a$b$,$c$e+d$N.N.N.N.N.N.N.N.= = = = = = = = = = = = = = = = = = = = = = = =                 . . . . . . . . + + + + + + + + ",
"e#e#e#e#e#e#e#e#e#e#e#e#e#e#e#e#e#e#e#e#e#e#e#e#e#e#e#e#e#e#e#e#f#f#f#f#f#f#f#f#N.N.N.N.N.N.N.N.N.N.N.N.N.N.N.N.e$*+f$S@i#g$h$i$j$-.>.k$a+U@:#l$N.N.N.N.N.N.N.N.= = = = = = = = = = = = = = = = = = = = = = = =                 . . . . . . . . + + + + + + + + ",
"e#e#e#e#e#e#e#e#e#e#e#e#e#e#e#e#e#e#e#e#e#e#e#e#e#e#e#e#e#e#e#e#f#f#f#f#f#f#f#f#N.N.N.N.N.N.N.N.N.N.N.N.N.N.N.N.!#u.N m$q.n$X.Z@o$|.o.p$=+= %.q$N.N.N.N.N.N.N.N.= = = = = = = = = = = = = = = = = = = = = = = =                 . . . . . . . . + + + + + + + + ",
"e#e#e#e#e#e#e#e#e#e#e#e#e#e#e#e#e#e#e#e#e#e#e#e#e#e#e#e#e#e#e#e#f#f#f#f#f#f#f#f#N.N.N.N.N.N.N.N.N.N.N.N.N.N.N.N.r$s$t$u$r@v$w$-.H+H+x$y$z$A$3@S@N.N.N.N.N.N.N.N.= = = = = = = = = = = = = = = = = = = = = = = =                 . . . . . . . . + + + + + + + + ",
"e#e#e#e#e#e#e#e#e#e#e#e#e#e#e#e#e#e#e#e#e#e#e#e#e#e#e#e#e#e#e#e#f#f#f#f#f#f#f#f#N.N.N.N.N.N.N.N.N.N.N.N.N.N.N.N.I B$C$D$E$F$G$H$I$J$K$&#L$M$v+N$N.N.N.N.N.N.N.N.= = = = = = = = = = = = = = = = = = = = = = = =                 . . . . . . . . + + + + + + + + ",
"e#e#e#e#e#e#e#e#e#e#e#e#e#e#e#e#e#e#e#e#e#e#e#e#e#e#e#e#e#e#e#e#f#f#f#f#f#f#f#f#N.N.N.N.N.N.N.N.N.N.N.N.N.N.N.N.[@O$P$Q$R$P@_+S$, T$U$V$W$f#X$Y$N.N.N.N.N.N.N.N.= = = = = = = = = = = = = = = = = = = = = = = =                 . . . . . . . . + + + + + + + + ",
"e#e#e#e#e#e#e#e#e#e#e#e#e#e#e#e#e#e#e#e#e#e#e#e#e#e#e#e#e#e#e#e#f#f#f#f#f#f#f#f#N.N.N.N.N.N.N.N.N.N.N.N.N.N.N.N.Z$`$<. %D .%+%@%#%%#$%Y#A$%%&%*%N.N.N.N.N.N.N.N.= = = = = = = = = = = = = = = = = = = = = = = =                 . . . . . . . . + + + + + + + + ",
"^@L+=%8.-%L+^@;%>%,%'%)%Y$q.!%~%Q$Q$Q$Q$Q$Q$Q$Q$F#F#F#F#F#F#F#F#e#e#e#e#e#e#e#e#e#e#e#e#e#e#e#e#f#f#f#f#f#f#f#f#N.N.N.N.N.N.N.N.N.N.N.N.N.N.N.N.N.N.N.N.N.N.N.N.N.N.N.N.N.N.N.N.N.N.N.N.N.N.N.N.N.N.N.N.N.N.N.N.= = = = = = = = 0 @#+#) u+  ]@{%6 >@) ) 6 d@]%+#",
"U.-%Y$^@^%Q$U.&%/%(%_%-%q.^@E#:%Q$Q$Q$Q$Q$Q$Q$Q$F#F#F#F#F#F#F#F#e#e#e#e#e#e#e#e#e#e#e#e#e#e#e#e#f#f#f#f#f#f#f#f#N.N.N.N.N.N.N.N.N.N.N.N.N.N.N.N.N.N.N.N.N.N.N.N.N.N.N.N.N.N.N.N.N.N.N.N.N.N.N.N.N.N.N.N.N.N.N.N.= = = = = = = = <%Y#<%>@{ [%@.# e@7   . . 7 2@u+",
"U.Q$L+}%U.8.^@Q$' |%`+z$L$U.1%2%Q$Q$Q$Q$Q$Q$Q$Q$F#F#F#F#F#F#F#F#e#e#e#e#e#e#e#e#e#e#e#e#e#e#e#e#f#f#f#f#f#f#f#f#N.N.N.N.N.N.N.N.N.N.N.N.N.N.N.N.N.N.N.N.N.N.N.N.N.N.N.N.N.N.N.N.N.N.N.N.N.N.N.N.N.N.N.N.N.N.N.N.= = = = = = = = 3%b@6 +#) 4%T+p u@7 u+  7 . u+7 ",
")%'%<.5%6%*%7%)%O$9@N@h#1+;%8%q.Q$Q$Q$Q$Q$Q$Q$Q$F#F#F#F#F#F#F#F#e#e#e#e#e#e#e#e#e#e#e#e#e#e#e#e#f#f#f#f#f#f#f#f#N.N.N.N.N.N.N.N.N.N.N.N.N.N.N.N.N.N.N.N.N.N.N.N.N.N.N.N.N.N.N.N.N.N.N.N.N.N.N.N.N.N.N.N.N.N.N.N.= = = = = = = = 2@e@/ ,#6 _@b ##    7 u+. 7 / 2@",
"9%)%*%7%)%5%)%Y+0%a%b%c%d%q.F#d.Q$Q$Q$Q$Q$Q$Q$Q$F#F#F#F#F#F#F#F#e#e#e#e#e#e#e#e#e#e#e#e#e#e#e#e#f#f#f#f#f#f#f#f#N.N.N.N.N.N.N.N.N.N.N.N.N.N.N.N.N.N.N.N.N.N.N.N.N.N.N.N.N.N.N.N.N.N.N.N.N.N.N.N.N.N.N.N.N.N.N.N.= = = = = = = = 8 c$= e%f%_+g%&@@@c#h%= = 5@4@S.",
"i%j%3$i%R R k%l%m%m%n%.$o%q.N.W#Q$Q$Q$Q$Q$Q$Q$Q$F#F#F#F#F#F#F#F#e#e#e#e#e#e#e#e#e#e#e#e#e#e#e#e#f#f#f#f#f#f#f#f#N.N.N.N.N.N.N.N.N.N.N.N.N.N.N.N.N.N.N.N.N.N.N.N.N.N.N.N.N.N.N.N.N.N.N.N.N.N.N.N.N.N.N.N.N.N.N.N.= = = = = = = = @ w#c#p%q%r%s%n$t%4@h%3@c#%.= 3@",
"k%u%v%w%x%y%z%A%B%X.C%D%E%-%u.)#Q$Q$Q$Q$Q$Q$Q$Q$F#F#F#F#F#F#F#F#e#e#e#e#e#e#e#e#e#e#e#e#e#e#e#e#f#f#f#f#f#f#f#f#N.N.N.N.N.N.N.N.N.N.N.N.N.N.N.N.N.N.N.N.N.N.N.N.N.N.N.N.N.N.N.N.N.N.N.N.N.N.N.N.N.N.N.N.N.N.N.N.= = = = = = = = F+F%G%H%I%J%K%L%M%Z#Z#Z#=@t@=@=@",
"v%y%v%u%N%-#i%O%K@n.|.P%Q%8%r+F%Q$Q$Q$Q$Q$Q$Q$Q$F#F#F#F#F#F#F#F#e#e#e#e#e#e#e#e#e#e#e#e#e#e#e#e#f#f#f#f#f#f#f#f#N.N.N.N.N.N.N.N.N.N.N.N.N.N.N.N.N.N.N.N.N.N.N.N.N.N.N.N.N.N.N.N.N.N.N.N.N.N.N.N.N.N.N.N.N.N.N.N.= = = = = = = = R%S%t@T%U%K#X.6#V%W#B$Z#N.s@B$:#",
"N$W@U.W%X%Y%Z%|.`%A./+ &.&%%B$+&)%)%)%)%)%)%)%)%5%5%5%5%5%5%5%5%G@G@G@G@G@G@G@G@N N N N N N N N N N N N N N N N N N N N N N N N N.N.N.N.N.N.N.N.N.N.N.N.N.N.N.N.N.N.N.N.N.N.N.N.= = = = = = = = = = = = = = = = = = = = = = = = j +&@&I+#&n#B%.+$&%&&&S#x@*&q@=&",
"}%-&;&>&,&'&-.-.k.)&++!&~&{&V#]&^&^&^&^&^&^&^&^&^&^&^&^&^&^&^&^&S S S S S S S S /&/&/&/&/&/&/&/&/&/&/&/&/&/&/&/&/&/&/&/&/&/&/&/&(&(&(&(&(&(&(&(&(&(&(&(&(&(&(&(&(&(&(&(&(&(&(&(&_&_&_&_&_&_&_&_&_&_&_&_&_&_&_&_&_&_&_&_&_&_&_&_&)%)%-$i@:&<&A.B%[&'&4+}&|&1&d@Q$",
"/&&#2&3&K@4&3.5&6&D.A.B%B%B%>.>.7&7&7&7&7&7&7&7&7&7&7&7&7&7&7&7&|.|.|.|.|.|.|.|.-.-.-.-.-.-.-.-.-.-.-.-.-.-.-.-.-.-.-.-.-.-.-.-.-.-.-.-.-.-.-.-.-.-.-.-.-.-.-.-.-.-.-.-.-.-.-.-.-.-.-.-.-.-.-.-.-.-.-.-.-.-.-.-.-.-.-.-.-.-.-.-.|.|.-.K#-.3.8&j$9&h.n.>.0&}${.:#",
"a%b$a&b&K@n.c&9$Z@d&l.h.A.k.8$e&A.A.A.A.A.A.A.A.A.A.A.A.A.A.A.A.A.A.A.A.A.A.A.A.A.A.A.A.A.A.A.A.A.A.A.A.A.A.A.A.A.A.A.A.A.A.A.A.D.D.D.D.D.D.D.D.D.D.D.D.D.D.D.D.D.D.D.D.D.D.D.D.A.A.A.A.A.A.A.A.A.A.A.A.A.A.A.A.A.A.A.A.A.A.A.A.f&D.B%A.j@K@k+g&h&i&x.1.j&k&:$l&",
"^&&#m&n&o&p&D.q&Z@d&l.h.A.k.8$e&A.A.A.A.A.A.A.A.A.A.A.A.A.A.A.A.A.A.A.A.A.A.A.A.A.A.A.A.A.A.A.A.A.A.A.A.A.A.A.A.A.A.A.A.A.A.A.A.D.D.D.D.D.D.D.D.D.D.D.D.D.D.D.D.D.D.D.D.D.D.D.D.A.A.A.A.A.A.A.A.A.A.A.A.A.A.A.A.A.A.A.A.A.A.A.A.f&D.B%A.j@K@k+g&k.z.8$K#r&k&G ,$",
"H%;&s&>&t&>.1.-.6&D.A.B%B%B%>.>.7&7&7&7&7&7&7&7&7&7&7&7&7&7&7&7&|.|.|.|.|.|.|.|.-.-.-.-.-.-.-.-.-.-.-.-.-.-.-.-.-.-.-.-.-.-.-.-.-.-.-.-.-.-.-.-.-.-.-.-.-.-.-.-.-.-.-.-.-.-.-.-.-.-.-.-.-.-.-.-.-.-.-.-.-.-.-.-.-.-.-.-.-.-.-.-.|.|.-.K#-.3.8&j$u&D.v&1.w&5$x&&$",
"y&z&/%)%A&B&C&D&k.)&++!&~&{&V#]&^&^&^&^&^&^&^&^&^&^&^&^&^&^&^&^&S S S S S S S S /&/&/&/&/&/&/&/&/&/&/&/&/&/&/&/&/&/&/&/&/&/&/&/&(&(&(&(&(&(&(&(&(&(&(&(&(&(&(&(&(&(&(&(&(&(&(&(&_&_&_&_&_&_&_&_&_&_&_&_&_&_&_&_&_&_&_&_&_&_&_&_&)%)%-$i@:&<&A.B%6.-.l@E&_+F&h%G&",
"'$X$>$H&}%I&J&K&`%A./+ &.&%%B$+&)%)%)%)%)%)%)%)%5%5%5%5%5%5%5%5%G@G@G@G@G@G@G@G@N N N N N N N N N N N N N N N N N N N N N N N N N.N.N.N.N.N.N.N.N.N.N.N.N.N.N.N.N.N.N.N.N.N.N.N.= = = = = = = = = = = = = = = = = = = = = = = = j +&@&I+#&n#B%.+L&M&N&O&+#P&q$Q&",
"R&R&R&R&R&R&R&R&S&T&U&s&&#V&&#W&)%)%)%)%)%)%)%)%5%5%5%5%5%5%5%5%5%5%5%5%5%5%5%5%Q$Q$Q$Q$Q$Q$Q$Q$Q$Q$Q$Q$Q$Q$Q$Q$Q$Q$Q$Q$Q$Q$Q$Q$e#e#e#e#e#e#e#e#e#e#e#e#e#e#e#e#e#e#e#e#e#e#e#e#e#e#e#e#e#e#e#e#f#f#f#f#f#f#f#f#N.N.N.N.N.N.N.N.K.# s@X&Y&>.-.1.Z&`&*+W#Z#s@:#G%",
"R&R&R&R&R&R&R&R& *.*A&&#s&+*S#@*)%)%)%)%)%)%)%)%5%5%5%5%5%5%5%5%5%5%5%5%5%5%5%5%Q$Q$Q$Q$Q$Q$Q$Q$Q$Q$Q$Q$Q$Q$Q$Q$Q$Q$Q$Q$Q$Q$Q$Q$e#e#e#e#e#e#e#e#e#e#e#e#e#e#e#e#e#e#e#e#e#e#e#e#e#e#e#e#e#e#e#e#f#f#f#f#f#f#f#f#N.N.N.N.N.N.N.N.+##**+x%$*%*&***=*t@N.G%:#s@=@Z#",
"R&R&R&R&R&R&R&R&O&-*S&;*>*;&@*+*)%)%)%)%)%)%)%)%5%5%5%5%5%5%5%5%5%5%5%5%5%5%5%5%Q$Q$Q$Q$Q$Q$Q$Q$Q$Q$Q$Q$Q$Q$Q$Q$Q$Q$Q$Q$Q$Q$Q$Q$e#e#e#e#e#e#e#e#e#e#e#e#e#e#e#e#e#e#e#e#e#e#e#e#e#e#e#e#e#e#e#e#f#f#f#f#f#f#f#f#N.N.N.N.N.N.N.N.u+b#B$q.,*'*)*!*~*S@G%=@B$*+=@Z#",
"R&R&R&R&R&R&R&R&{*]*^*/*y&(*;&W&)%)%)%)%)%)%)%)%5%5%5%5%5%5%5%5%5%5%5%5%5%5%5%5%Q$Q$Q$Q$Q$Q$Q$Q$Q$Q$Q$Q$Q$Q$Q$Q$Q$Q$Q$Q$Q$Q$Q$Q$e#e#e#e#e#e#e#e#e#e#e#e#e#e#e#e#e#e#e#e#e#e#e#e#e#e#e#e#e#e#e#e#f#f#f#f#f#f#f#f#N.N.N.N.N.N.N.N.:%Z#:#M$!%_*/&S :#B$s@G%N.*+:#Z#",
"R&R&R&R&R&R&R&R&.*I+{*-$o% @W&S#)%)%)%)%)%)%)%)%5%5%5%5%5%5%5%5%5%5%5%5%5%5%5%5%Q$Q$Q$Q$Q$Q$Q$Q$Q$Q$Q$Q$Q$Q$Q$Q$Q$Q$Q$Q$Q$Q$Q$Q$e#e#e#e#e#e#e#e#e#e#e#e#e#e#e#e#e#e#e#e#e#e#e#e#e#e#e#e#e#e#e#e#f#f#f#f#f#f#f#f#N.N.N.N.N.N.N.N.s@W#=@f#A$g#:*:*G%N.Z#Z#*+G%S@Z#",
"R&R&R&R&R&R&R&R&X&<*<*R&,*W&W&[*)%)%)%)%)%)%)%)%5%5%5%5%5%5%5%5%5%5%5%5%5%5%5%5%Q$Q$Q$Q$Q$Q$Q$Q$Q$Q$Q$Q$Q$Q$Q$Q$Q$Q$Q$Q$Q$Q$Q$Q$e#e#e#e#e#e#e#e#e#e#e#e#e#e#e#e#e#e#e#e#e#e#e#e#e#e#e#e#e#e#e#e#f#f#f#f#f#f#f#f#N.N.N.N.N.N.N.N.B$f#=@c#= S.7 J+*+:#B$N.Z#=@B$Z#",
"R&R&R&R&R&R&R&R&S&^*{*R&>*+*i++*)%)%)%)%)%)%)%)%5%5%5%5%5%5%5%5%5%5%5%5%5%5%5%5%Q$Q$Q$Q$Q$Q$Q$Q$Q$Q$Q$Q$Q$Q$Q$Q$Q$Q$Q$Q$Q$Q$Q$Q$e#e#e#e#e#e#e#e#e#e#e#e#e#e#e#e#e#e#e#e#e#e#e#e#e#e#e#e#e#e#e#e#f#f#f#f#f#f#f#f#N.N.N.N.N.N.N.N.=@W$:#=@B$[ N+q$N.S@B$G%N.=@G%N.",
"R&R&R&R&R&R&R&R&A& *T%I&/*@*[*S#)%)%)%)%)%)%)%)%5%5%5%5%5%5%5%5%5%5%5%5%5%5%5%5%Q$Q$Q$Q$Q$Q$Q$Q$Q$Q$Q$Q$Q$Q$Q$Q$Q$Q$Q$Q$Q$Q$Q$Q$e#e#e#e#e#e#e#e#e#e#e#e#e#e#e#e#e#e#e#e#e#e#e#e#e#e#e#e#e#e#e#e#f#f#f#f#f#f#f#f#N.N.N.N.N.N.N.N.}*x&=@t@[$<$|*1*:#=@Z#s@N.N.s@:#",
"R&R&R&R&R&R&R&R&R&R&R&R&R&R&R&R&R&R&R&R&R&R&R&R&R&R&R&R&R&R&R&R&[*[*[*[*[*[*[*[*)%)%)%)%)%)%)%)%5%5%5%5%5%5%5%5%Q$Q$Q$Q$Q$Q$Q$Q$Q$Q$Q$Q$Q$Q$Q$Q$Q$Q$Q$Q$Q$Q$Q$Q$Q$Q$Q$Q$Q$Q$Q$Q$F#F#F#F#F#F#F#F#e#e#e#e#e#e#e#e#e#e#e#e#e#e#e#e#e#e#e#e#e#e#e#e#N.N.N.N.N.N.N.N.",
"R&R&R&R&R&R&R&R&R&R&R&R&R&R&R&R&R&R&R&R&R&R&R&R&R&R&R&R&R&R&R&R&[*[*[*[*[*[*[*[*)%)%)%)%)%)%)%)%5%5%5%5%5%5%5%5%Q$Q$Q$Q$Q$Q$Q$Q$Q$Q$Q$Q$Q$Q$Q$Q$Q$Q$Q$Q$Q$Q$Q$Q$Q$Q$Q$Q$Q$Q$Q$Q$F#F#F#F#F#F#F#F#e#e#e#e#e#e#e#e#e#e#e#e#e#e#e#e#e#e#e#e#e#e#e#e#N.N.N.N.N.N.N.N.",
"R&R&R&R&R&R&R&R&R&R&R&R&R&R&R&R&R&R&R&R&R&R&R&R&R&R&R&R&R&R&R&R&[*[*[*[*[*[*[*[*)%)%)%)%)%)%)%)%5%5%5%5%5%5%5%5%Q$Q$Q$Q$Q$Q$Q$Q$Q$Q$Q$Q$Q$Q$Q$Q$Q$Q$Q$Q$Q$Q$Q$Q$Q$Q$Q$Q$Q$Q$Q$Q$F#F#F#F#F#F#F#F#e#e#e#e#e#e#e#e#e#e#e#e#e#e#e#e#e#e#e#e#e#e#e#e#N.N.N.N.N.N.N.N.",
"R&R&R&R&R&R&R&R&R&R&R&R&R&R&R&R&R&R&R&R&R&R&R&R&R&R&R&R&R&R&R&R&[*[*[*[*[*[*[*[*)%)%)%)%)%)%)%)%5%5%5%5%5%5%5%5%Q$Q$Q$Q$Q$Q$Q$Q$Q$Q$Q$Q$Q$Q$Q$Q$Q$Q$Q$Q$Q$Q$Q$Q$Q$Q$Q$Q$Q$Q$Q$Q$F#F#F#F#F#F#F#F#e#e#e#e#e#e#e#e#e#e#e#e#e#e#e#e#e#e#e#e#e#e#e#e#N.N.N.N.N.N.N.N.",
"R&R&R&R&R&R&R&R&R&R&R&R&R&R&R&R&R&R&R&R&R&R&R&R&R&R&R&R&R&R&R&R&[*[*[*[*[*[*[*[*)%)%)%)%)%)%)%)%5%5%5%5%5%5%5%5%Q$Q$Q$Q$Q$Q$Q$Q$Q$Q$Q$Q$Q$Q$Q$Q$Q$Q$Q$Q$Q$Q$Q$Q$Q$Q$Q$Q$Q$Q$Q$Q$F#F#F#F#F#F#F#F#e#e#e#e#e#e#e#e#e#e#e#e#e#e#e#e#e#e#e#e#e#e#e#e#N.N.N.N.N.N.N.N.",
"R&R&R&R&R&R&R&R&R&R&R&R&R&R&R&R&R&R&R&R&R&R&R&R&R&R&R&R&R&R&R&R&[*[*[*[*[*[*[*[*)%)%)%)%)%)%)%)%5%5%5%5%5%5%5%5%Q$Q$Q$Q$Q$Q$Q$Q$Q$Q$Q$Q$Q$Q$Q$Q$Q$Q$Q$Q$Q$Q$Q$Q$Q$Q$Q$Q$Q$Q$Q$Q$F#F#F#F#F#F#F#F#e#e#e#e#e#e#e#e#e#e#e#e#e#e#e#e#e#e#e#e#e#e#e#e#N.N.N.N.N.N.N.N.",
"R&R&R&R&R&R&R&R&R&R&R&R&R&R&R&R&R&R&R&R&R&R&R&R&R&R&R&R&R&R&R&R&[*[*[*[*[*[*[*[*)%)%)%)%)%)%)%)%5%5%5%5%5%5%5%5%Q$Q$Q$Q$Q$Q$Q$Q$Q$Q$Q$Q$Q$Q$Q$Q$Q$Q$Q$Q$Q$Q$Q$Q$Q$Q$Q$Q$Q$Q$Q$Q$F#F#F#F#F#F#F#F#e#e#e#e#e#e#e#e#e#e#e#e#e#e#e#e#e#e#e#e#e#e#e#e#N.N.N.N.N.N.N.N.",
"R&R&R&R&R&R&R&R&R&R&R&R&R&R&R&R&R&R&R&R&R&R&R&R&R&R&R&R&R&R&R&R&[*[*[*[*[*[*[*[*)%)%)%)%)%)%)%)%5%5%5%5%5%5%5%5%Q$Q$Q$Q$Q$Q$Q$Q$Q$Q$Q$Q$Q$Q$Q$Q$Q$Q$Q$Q$Q$Q$Q$Q$Q$Q$Q$Q$Q$Q$Q$Q$F#F#F#F#F#F#F#F#e#e#e#e#e#e#e#e#e#e#e#e#e#e#e#e#e#e#e#e#e#e#e#e#N.N.N.N.N.N.N.N.",
"2*Y+k#3*0%>&4*|%m+5*6*F$7*7*8*9*0*a*F$[*F$=@s$6 b*@*c*/&~@d*e*f*g*h*b$i+i*j*k*l*m*&@n*h*S$o*b*p*q*7*r*n*s*t*a+u*[*[*[*[*[*[*[*[*6*9@[+&@0*a%v*w*x*x*y*z*/*A*^&S B*m*0*c*c*0*m*B*h#A&!.C*x*D*l*9*u E*F*G G*)#H*/&U.I*k*~.T@- J*3%K*l*L*M*(&(*a+N*O*P*4*Q*R*h@p%:#",
"S*T*q%Q$q.U*q%V*w%B@W*X*Y*Z* *`* =.=+=@=#=$=%=&=*===-=I+;=^*X&S&>=,=+='=)=Z*e..=!=~='%~===!.{='%j%`*x%5%'%]=^=/=!=!=!=!=!=!=!=!=>%(=_=5%:=y%u%3$I+C$<=[=}=|=1=]$S@(%3#2=2=3#(%S@3=4=5=6=7#&$'%7=8=J&,%9=0=a=b=c=Q%==d=e=f=g=!.h=7='%S@:#i=_=_ [%,#}#b@/ / [%@ [%",
"p$j=k=l=m=~=}=Q%n=o=p=q=r=h=s=s=t=U.u=Y+ *v=m=b=+=+=p=w=x=!=I+5%v+t$P$:=y=W@1=z=A=B=p$b*C=D=E=i+F=^=>%G=c=b=H=^$N N N N N N N N |=I=b=J=G=!=K=L=n=M=&#(*N=O=|=P=G&Q=!=s=s=!=Q=G&<.>%R=S=!=/$T=U=^=y&V=!=b*S# %W=5@:#7#i+;=1='%<.U=T=X=F=b*Y=Z=:%8#`==@ -.-:%e+6@",
"F$+-@-L#;+W@^&#-$-%-F$_*_&&-[+*-=---;->-X$,-'-)-[+k&!-c*z*F$~-:${-p*C*D#&@]-.$^-+=i+/-(-U$h@_-:-<-,$1+[-n*m*G*I }-}-}-}-}-}-}-}-G G*m*n*|-W@,$<-Q%q%1-2-`+a+|&3-8.T y@#%#%y@T 8.N#v+a+4-5-[+)#B*S#6-o%>*7-8-9-0-a-b-c-d-e-4*f-t$B*X#[+:$U 5$g-h-i-L+j-_*_*k-(&l-",
"m-D.C.u&n-A.A.h.o-I#8&F.L@p-J#q-e&z.r-s-x.t-u-v-s-w-x.x.8$x-J#y-++j+8$x.z-9&D.9$A-J#B-C-D-I#E-n.F-G-G-Z@k.Z@i.A.A.A.A.A.A.A.A.A.A.H-k.k.Z@I-G-F-J-Z@K-L-q-D-M-n.N-q-O-n.n.O-q-N-P-F-Z@Z@Q-k.D.R-S-D-T-q-U-V-Z@W-x.x.X-Y-z.Z-e&9$`-h.D. ;F.Z@F-P-Z@F.Z@D.A..;+;++",
"v-h&++@;D.#;$;A. ;h.{+++%;A.k.&;*;++++=;/+]+A.5.-;;;++++>;A.,;k+++8$';v-k./+A.);C.A.++h.!;~;k.++{;];n.^;++++/;.+A.A.A.A.A.A.A.A..+(;++++_;n.:;{;u&A.++h.I#<;D.++2.l.h. + +h.l.2.v&n.Y@A.D.f&[;++9&A.++++7$A.A.};|;A.++=;/+1;++2;++3;H-A.A.Y@n.4;J#8$z.5;z.6;7;8;",
"9;|.0;a;b;c;|.6#H+H+H+v.d;H+e;f;g;h;H+=.i;j;k;j;l;u-m;|.w$H+n;j;o;p;q;r;s;$@;.t;U#u;U#v;w;x;y;v.5#z;=.A;U#B;I#C;v;v;v;v;v;v;v;v;D;I#E;U#F;=.G;5#v.H;o.I;J;w;K;L; $U#M;N;N;M;U# $H+O;P;H+Q;N;R;S;U#H+U#T;U#U#U;J;V;W;H+X;Y;X;Z;H+`; >S;.>H+P;+>H+=.P;U#|.-.@>x.#>",
"$>%>&>*>=>z;->;>>>,>'>)>!>~>{>]>^>/>(>_>:><>[>}>v.|>1>2>3>4>5>6>7>8>%>9>0>a>b>c>d>e>f>g>h>i>j>k>l>m>n>o>p>q>r>d;s>s>s>s>s>s>s>s>d;t>u>v>w>x>y>z>A>B>C>D>]>G;E>F>G>H>I>J>J>I>H>G>K>L>M>N>O>P>Q>R>H>S>T>U>V>W>X>Y>Z>`> ,.,+,@,#,$,%,&,P>O>*,=,-,;,>,,,',A;),!,~,$@",
"{,H.],^,/,U#(,_,:,<,[,},|,1,2,4;i.3,4,5,6,7,8,9,0,a,b,c,d,e,f,g,h,i,7&-.j,k,l,m,n,o,k,p,-.q,i,r,s,t,u,v,w,x,y,z,t,t,t,t,t,t,t,t,U#A,g,B,5,C,D,5,E,F,G,H,A.8$I,J,K,L,M,A.N,O,P,Q,R,S,T,U,V,w.H+W,X,Y,Z,5,`, '.'+'@'#'$'%'&'*'='-';'D.k+J,>'e,,''')'!'~'{']'^'/'B%",
"/+('_':'<'-.Z;['}'|'1'2'3'4'5'6'D.7'8'9'0'a'b'c'0,a,b,G,1'd'e'f'g'h'-.n.i'j'k'l'm'k'n'o'L@k+p'q'[,:,r'>'s'_'t'z,e'e'e'e'e'e'e'e'3.u'v'w'x'y'z'<,A'B'C'c'A.8$D'E'F'f'M,A.N,O,''G'H'I'J'K'L'-.U#M'8,N'O'P'Q'R'S'=.U#T'U'Q'V'W'X'Y'Z'A.-.8,`'d' )E'.)+)Q,{'^+@)#)/+",
"0,$)%)&)*)n.-.=)B'-);)>),)')))7&h.!)~)8,{)s,8'])^)a,D'/)()_):)E'<)[)n-9+})|)1)2)3)4)5)6)u&W.7)8)9)0)a)8'b)N't'/+0)0)0)0)0)0)0)0)s-c)d)e)f)g)h)i)j)k)3'l)++2.m))'$'n)o)h.B%p)q)()r)s)t)u)v)w)o.x)y)z)A)B)C)D)E)Z;F)G)H)I)J)K)L)M)8'A+-.b'N)O))'E,y)P)k)Q)R)S)|.T)",
"/+U)V)W)X)x.4.Y)Z)`) !.!+!@!#!|.n.$!%!E,&!E'*!=!^)-!N'1,;!>!,!E,'!)!l.A.!!~!{!]!^!/!(!_!h.k.:!<!w'[!}!|!w'1!2!/+3!3!3!3!3!3!3!3!4!5!6!7!8!9!0!a!b!c!d!])n#6'e!w'Z)N)f!p&p&g!N)Z)h!i!j!k!l!A.|.m!n!o!p!q!k,h!r!s!t!u!v!w!x!y!z!b!3!B%|.8'A!B!C!|'D!E!}!^)^)F!G!-;",
"/+H!I!J!K!`#U#L!M!N!N)O!P!Q!R!o.-.S!T!N)U!w'V!M){'-!e!W!X!h)}!w'Y!Z!`! ~.~+~@~#~I,$~%~&~p-*~Z!=~-~;~o!>~-~,~'~++A!A!A!A!A!A!A!A!)~S;!~~~{~]~^~/~(~_~:~<~++K-[~}~|~-~1~2~9&_~-~|~3~4~5~6~7~ ~8~9~0~a~b~W!c~d~7)e~f~g~h~i~j~k~l~m~n~K-|.N)o~&!A!`)p~q~r~s~V.t~u~v~",
"++w~x~y~9~z~A~B~C~D~E~F~G~H~T,`#|.I~J~-~K~-~L~x!M~s!U!N~O~P~Q~n~-~e'R~('M!S~T~U~@)V~W~3!|. >u,6~X~Y~Y~V!6~I!Z~/+X~X~X~X~X~X~X~X~`~ {.{+{@{#{${%{&{*{@!={n#>.8!-{;{`)C~ #j@X!o~>{,{'{){!{~{|.H+{{I)]{^{N)/{#{({j;j;@~_{:{<{b'[{}{|{K-U#A!1{2{x!3{4{5{6{`;S;7{8{9{",
"0{a{b{c{d{e{f{g{x!h{i{j{6~k{l{|.U#m{n{6~j{6~o{p{q{s!z)W~r{s{*{-~t{u{:@6.v{(~w{x{#{y{z{A{6.D&B{C{k{D{E{W~F{G{H{++I{I{I{I{I{I{I{I{1.J{K{L{6~|~M{N{O{;{P{Q{9&K#R{S{T{U{V{W{j@Y!X{Y{Z{`{ ].]+]@]#]$]%]&]P''!*]=]-];]>],]'])]!]~]{]]]^]8+U#/](]_]:]<][]}]|]1]2]3]H{/+",
"4]5]6]-{7]8]9]0]a]b]c]d]e]f]g]U#U#h]i]e]j]e]k]Y{l]s!8!m]n]o]p]i{q]r]s]t]u]v]w]x]y]z]A]B]C]D]E]F]G]H]o]W)I]J]H{/+K]K]K]K]K]K]K]K]L]M]N]O]P]Q]z{R]S]T]S{x'U]'&V]W]X]K]V{w) #Y!K]Y]Z]`] ^.^+^@^#^$^%^&^@{*^J~=^-^;^>^,^'^)^k{X!!^~^{^t;H+H)]^^^S]/^)](^_^:^<^[^}^|^",
"/+Z;1^2^f]/^3^4^5^5^5^5^5^5^5^5^5^5^5^5^5^5^5^5^5^5^5^5^5^5^5^5^5^5^5^5^5^5^5^5^6^6^6^6^6^6^6^6^5^5^5^5^5^5^5^5^6^6^6^6^6^6^6^6^5^5^5^5^5^5^5^5^5^5^5^5^5^5^5^5^5^5^5^5^5^5^5^5^5^5^5^5^5^5^5^5^5^5^5^5^5^5^5^5^6^6^6^6^6^6^6^6^5^5^5^5^5^5^5^5^3^7^8^9^0^a^=.b^",
"c^=.d^e^f^g^h^i^j^j^j^j^j^j^j^j^j^j^j^j^j^j^j^j^j^j^j^j^j^j^j^j^j^j^j^j^j^j^j^j^j^j^j^j^j^j^j^j^j^j^j^j^j^j^j^j^j^j^j^j^j^j^j^j^j^j^j^j^j^j^j^j^j^j^j^j^j^j^j^j^j^j^j^j^j^j^j^j^j^j^j^j^j^j^j^j^j^j^j^j^j^j^j^j^j^j^j^j^j^j^j^j^j^j^j^j^j^j^j^j^k^5^l^0^m^n^H+b^",
"c^j;o^p^q^r^s^t^u^u^u^u^u^u^u^u^u^u^u^u^u^u^u^u^u^u^u^u^u^u^u^u^u^u^u^u^u^u^u^u^v^v^v^v^v^v^v^v^u^u^u^u^u^u^u^u^v^v^v^v^v^v^v^v^u^u^u^u^u^u^u^u^u^u^u^u^u^u^u^u^u^u^u^u^u^u^u^u^u^u^u^u^u^u^u^u^u^u^u^u^u^u^u^u^v^v^v^v^v^v^v^v^u^u^u^u^u^u^u^u^w^u^u^x^i^y^=.z^",
"s-j;A^B^C^D^C^E^F^F^F^F^F^F^F^F^F^F^F^F^F^F^F^F^F^F^F^F^F^F^F^F^F^F^F^F^F^F^F^F^C^C^C^C^C^C^C^C^F^F^F^F^F^F^F^F^C^C^C^C^C^C^C^C^F^F^F^F^F^F^F^F^F^F^F^F^F^F^F^F^F^F^F^F^F^F^F^F^F^F^F^F^F^F^F^F^F^F^F^F^F^F^F^F^C^C^C^C^C^C^C^C^F^F^F^F^F^F^F^F^G^H^I^t^J^K^=.L^",
"s-5#M^N^N^O^P^Q^R^R^R^R^R^R^R^R^R^R^R^R^R^R^R^R^R^R^R^R^R^R^R^R^R^R^R^R^R^R^R^R^S^S^S^S^S^S^S^S^R^R^R^R^R^R^R^R^S^S^S^S^S^S^S^S^R^R^R^R^R^R^R^R^R^R^R^R^R^R^R^R^R^R^R^R^R^R^R^R^R^R^R^R^R^R^R^R^R^R^R^R^R^R^R^R^S^S^S^S^S^S^S^S^R^R^R^R^R^R^R^R^T^U^P^V^W^X^j;Y^",
"w-5#Z^`^ /./+/@/#/#/#/#/#/#/#/#/#/#/#/#/#/#/#/#/#/#/#/#/#/#/#/#/#/#/#/#/#/#/#/#/$/$/$/$/$/$/$/$/#/#/#/#/#/#/#/#/$/$/$/$/$/$/$/$/#/#/#/#/#/#/#/#/#/#/#/#/#/#/#/#/#/#/#/#/#/#/#/#/#/#/#/#/#/#/#/#/#/#/#/#/#/#/#/#/$/$/$/$/$/$/$/$/#/#/#/#/#/#/#/#/%/./T^&/*/=/j;-/",
"x.5#;/>/,/'/)/!/~/~/~/~/~/~/~/~/~/~/~/~/~/~/~/~/~/~/~/~/~/~/~/~/~/~/~/~/~/~/~/~/~/~/~/~/~/~/~/~/~/~/~/~/~/~/~/~/~/~/~/~/~/~/~/~/~/~/~/~/~/~/~/~/~/~/~/~/~/~/~/~/~/~/~/~/~/~/~/~/~/~/~/~/~/~/~/~/~/~/~/~/~/~/~/~/~/~/~/~/~/~/~/~/~/~/~/~/~/~/~/~/{/]/^///(/_/j;M~",
"8$z;:/</[/}/%/|/1/1/1/1/1/1/1/1/1/1/1/1/1/1/1/1/1/1/1/1/1/1/1/1/1/1/1/1/1/1/1/1/2/2/2/2/2/2/2/2/1/1/1/1/1/1/1/1/2/2/2/2/2/2/2/2/1/1/1/1/1/1/1/1/1/1/1/1/1/1/1/1/1/1/1/1/1/1/1/1/1/1/1/1/1/1/1/1/1/1/1/1/1/1/1/1/2/2/2/2/2/2/2/2/1/1/1/1/1/1/1/1/3/4/5/|/6/7/5#q{",
"e&8/9/0/a/b/)/c/d/d/d/d/d/d/d/d/d/d/d/d/d/d/d/d/e/e/e/e/e/e/e/e/d/d/d/d/d/d/d/d/d/d/d/d/d/d/d/d/d/d/d/d/d/d/d/d/f/f/f/f/f/f/f/f/f/f/f/f/f/f/f/f/g/g/g/g/g/g/g/g/d/d/d/d/d/d/d/d/d/d/d/d/d/d/d/d/e/e/e/e/e/e/e/e/g/g/g/g/g/g/g/g/h/h/h/h/h/h/h/h/i/,/j/k/l/m/n/9$",
"++o/p/q/r/s/t/u/v/v/v/v/v/v/v/v/v/v/v/v/v/v/v/v/w/w/w/w/w/w/w/w/v/v/v/v/v/v/v/v/v/v/v/v/v/v/v/v/v/v/v/v/v/v/v/v/w/w/w/w/w/w/w/w/w/w/w/w/w/w/w/w/v/v/v/v/v/v/v/v/x/x/x/x/x/x/x/x/x/x/x/x/x/x/x/x/y/y/y/y/y/y/y/y/v/v/v/v/v/v/v/v/x/x/x/x/x/x/x/x/z/A/B/C/D/E/z;`%",
"/+j;F/G/H/I/J/K/L/L/L/L/L/L/L/L/L/L/L/L/L/L/L/L/M/M/M/M/M/M/M/M/L/L/L/L/L/L/L/L/L/L/L/L/L/L/L/L/L/L/L/L/L/L/L/L/N/N/N/N/N/N/N/N/N/N/N/N/N/N/N/N/O/O/O/O/O/O/O/O/P/P/P/P/P/P/P/P/P/P/P/P/P/P/P/P/Q/Q/Q/Q/Q/Q/Q/Q/O/O/O/O/O/O/O/O/R/R/R/R/R/R/R/R/S/T/U/V/W/X/5#Y/",
"Z/`/ (.(+(@(#($(%(%(%(%(%(%(%(%(%(%(%(%(%(%(%(%(&(&(&(&(&(&(&(&(%(%(%(%(%(%(%(%(%(%(%(%(%(%(%(%(%(%(%(%(%(%(%(%(*(*(*(*(*(*(*(*(*(*(*(*(*(*(*(*(=(=(=(=(=(=(=(=(%(%(%(%(%(%(%(%(%(%(%(%(%(%(%(%(&(&(&(&(&(&(&(&(=(=(=(=(=(=(=(=(-(-(-(-(-(-(-(-(;(>(,('()(!('&~(",
"{(](^(/(((_(1/:(<(<(<(<(<(<(<(<(<(<(<(<(<(<(<(<([([([([([([([([(<(<(<(<(<(<(<(<(<(<(<(<(<(<(<(<(<(<(<(<(<(<(<(<([([([([([([([([([([([([([([([([(<(<(<(<(<(<(<(<(}(}(}(}(}(}(}(}(}(}(}(}(}(}(}(}(|(|(|(|(|(|(|(|(<(<(<(<(<(<(<(<(}(}(}(}(}(}(}(}(1(2(v/3(4(5(j;6(",
"7(A,8(9(0(a(b(c(d(d(d(d(d(d(d(d(d(d(d(d(d(d(d(d(e(e(e(e(e(e(e(e(d(d(d(d(d(d(d(d(d(d(d(d(d(d(d(d(d(d(d(d(d(d(d(d(f(f(f(f(f(f(f(f(f(f(f(f(f(f(f(f(g(g(g(g(g(g(g(g(h(h(h(h(h(h(h(h(h(h(h(h(h(h(h(h(i(i(i(i(i(i(i(i(g(g(g(g(g(g(g(g(j(j(j(j(j(j(j(j(k(l(m(n(o(p(q(r(",
"^)s(t(u(v(w(x(y(z(z(z(z(z(z(z(z(z(z(z(z(z(z(z(z(A(A(A(A(A(A(A(A(z(z(z(z(z(z(z(z(z(z(z(z(z(z(z(z(z(z(z(z(z(z(z(z(A(A(A(A(A(A(A(A(A(A(A(A(A(A(A(A(z(z(z(z(z(z(z(z(B(B(B(B(B(B(B(B(B(B(B(B(B(B(B(B(C(C(C(C(C(C(C(C(z(z(z(z(z(z(z(z(D(D(D(D(D(D(D(D(E(F(G(H(I(J(K(Z/",
"L(M(N(O(P(Q(U)}.{;{;{;{;{;{;{;{;{;{;{;{;{;{;{;{;k.k.k.k.k.k.k.k.{;{;{;{;{;{;{;{;{;{;{;{;{;{;{;{;{;{;{;{;{;{;{;{;.+.+.+.+.+.+.+.+.+.+.+.+.+.+.+.+ > > > > > > > >R(R(R(R(R(R(R(R(R(R(R(R(R(R(R(R(f&f&f&f&f&f&f&f& > > > > > > > > > > > > > > > >A;j;S(T(O(N(U(V(",
"w-w-w-w-w-w-w-w-x.x.x.x.x.x.x.x.W(W(W(W(W(W(W(W(c&c&c&c&c&c&c&c&2.2.2.2.2.2.2.2.X(X(X(X(X(X(X(X(8$8$8$8$8$8$8$8$8$8$8$8$8$8$8$8$8$8$8$8$8$8$8$8$8$8$8$8$8$8$8$8$X(X(X(X(X(X(X(X(8$8$8$8$8$8$8$8$8$8$8$8$8$8$8$8$8$8$8$8$8$8$8$8$8$8$8$8$8$8$8$8$J#J#J#J#J#J#J#J#",
"B%B%B%B%B%B%B%B%B%B%B%B%B%B%B%B%B%B%B%B%B%B%B%B%B%B%B%B%B%B%B%B%B%B%B%B%B%B%B%B%B%B%B%B%B%B%B%B%B%B%B%B%B%B%B%B%B%B%B%B%B%B%B%B%B%B%B%B%B%B%B%B%B%B%B%B%B%B%B%B%B%B%B%B%B%B%B%B%B%B%B%B%B%B%B%B%B%B%B%B%B%B%B%B%B%B%B%B%B%B%B%B%B%B%B%B%B%B%B%B%X.X.X.X.X.X.X.X.",
"Y(Y(Y(Y(Y(Y(Y(Y(Y(Y(Y(Y(Y(Y(Y(Y(Z(Z(Z(Z(Z(Z(Z(Z(`(`(`(`(`(`(`(`( _ _ _ _ _ _ _ _._._._._._._._._+_+_+_+_+_+_+_+_+_+_+_+_+_+_+_+_+_+_+_+_+_+_+_+_+_+_+_+_+_+_+_+_._._._._._._._._+_+_+_+_+_+_+_+_+_+_+_+_+_+_+_+_@_@_@_@_@_@_@_@_@_@_@_@_@_@_@_@_#_#_#_#_#_#_#_#_",
"r=r=r=r=r=r=r=r=#_#_#_#_#_#_#_#_r=r=r=r=r=r=r=r=r=r=r=r=r=r=r=r=$_$_$_$_$_$_$_$_y&y&y&y&y&y&y&y&-$-$-$-$-$-$-$-$-$-$-$-$-$-$-$-$W&W&W&W&W&W&W&W&W&W&W&W&W&W&W&W&S#S#S#S#S#S#S#S#W&W&W&W&W&W&W&W&W&W&W&W&W&W&W&W&%_%_%_%_%_%_%_%_%_%_%_%_%_%_%_%_U.U.U.U.U.U.U.U.",
"+=+=+=+=+=+=+=+=&_&_&_&_&_&_&_&_+=+=+=+=+=+=+=+=+=+=+=+=+=+=+=+=+=+=+=+=+=+=+=+=Z*Z*Z*Z*Z*Z*Z*Z* * * * * * * * * * * * * * * * *u%u%u%u%u%u%u%u%u%u%u%u%u%u%u%u%v%v%v%v%v%v%v%v%u%u%u%u%u%u%u%u%u%u%u%u%u%u%u%u%<.<.<.<.<.<.<.<.'%'%'%'%'%'%'%'%)%)%)%)%)%)%)%)%",
"*_*_*_*_*_*_*_*_*_*_*_*_*_*_*_*_=_=_=_=_=_=_=_=_-_-_-_-_-_-_-_-_$=$=$=$=$=$=$=$=+=+=+=+=+=+=+=+=+=+=+=+=+=+=+=+=+=+=+=+=+=+=+=+=.=.=.=.=.=.=.=.=.=.=.=.=.=.=.=.=.=.=.=.=.=.=.=.=.=.=.=.=.=.=.=.=.=.=.=.=.=.=.=.=H=H=H=H=H=H=H=H=I=I=I=I=I=I=I=I=================",
";_;_;_;_;_;_;_;_>_>_>_>_>_>_>_>_&_&_&_&_&_&_&_&_,_,_,_,_,_,_,_,_r=r=r=r=r=r=r=r=+=+=+=+=+=+=+=+='_'_'_'_'_'_'_'_'_'_'_'_'_'_'_'_E%E%E%E%E%E%E%E%E%E%E%E%E%E%E%E%)_)_)_)_)_)_)_)_E%E%E%E%E%E%E%E%E%E%E%E%E%E%E%E%!_!_!_!_!_!_!_!_!_!_!_!_!_!_!_!_!_!_!_!_!_!_!_!_",
"~_~_~_~_~_~_~_~_/*/*/*/*/*/*/*/*R R R R R R R R {_{_{_{_{_{_{_{_z@z@z@z@z@z@z@z@l+l+l+l+l+l+l+l+#-#-#-#-#-#-#-#-#-#-#-#-#-#-#-#-z@z@z@z@z@z@z@z@z@z@z@z@z@z@z@z@]_]_]_]_]_]_]_]_z@z@z@z@z@z@z@z@z@z@z@z@z@z@z@z@n@n@n@n@n@n@n@n@n@n@n@n@n@n@n@n@S#S#S#S#S#S#S#S#",
"._._._._._._._._._._._._._._._._>_>_>_>_>_>_>_>_>_>_>_>_>_>_>_>_+-+-+-+-+-+-+-+-+-+-+-+-+-+-+-+-+-+-+-+-+-+-+-+-+-+-+-+-+-+-+-+-+-+-+-+-+-+-+-+-Q%Q%Q%Q%Q%Q%Q%Q%)_)_)_)_)_)_)_)_#-#-#-#-#-#-#-#-)_)_)_)_)_)_)_)_I+I+I+I+I+I+I+I+I+I+I+I+I+I+I+I+I+I+I+I+I+I+I+I+",
"._._._._._._._._._._._._._._._._>_>_>_>_>_>_>_>_>_>_>_>_>_>_>_>_+-+-+-+-+-+-+-+-+-+-+-+-+-+-+-+-+-+-+-+-+-+-+-+-+-+-+-+-+-+-+-+-+-+-+-+-+-+-+-+-Q%Q%Q%Q%Q%Q%Q%Q%)_)_)_)_)_)_)_)_#-#-#-#-#-#-#-#-)_)_)_)_)_)_)_)_I+I+I+I+I+I+I+I+I+I+I+I+I+I+I+I+I+I+I+I+I+I+I+I+",
"._._._._._._._._._._._._._._._._>_>_>_>_>_>_>_>_>_>_>_>_>_>_>_>_+-+-+-+-+-+-+-+-+-+-+-+-+-+-+-+-+-+-+-+-+-+-+-+-+-+-+-+-+-+-+-+-+-+-+-+-+-+-+-+-Q%Q%Q%Q%Q%Q%Q%Q%)_)_)_)_)_)_)_)_#-#-#-#-#-#-#-#-)_)_)_)_)_)_)_)_I+I+I+I+I+I+I+I+I+I+I+I+I+I+I+I+I+I+I+I+I+I+I+I+",
"._._._._._._._._._._._._._._._._>_>_>_>_>_>_>_>_>_>_>_>_>_>_>_>_+-+-+-+-+-+-+-+-+-+-+-+-+-+-+-+-+-+-+-+-+-+-+-+-+-+-+-+-+-+-+-+-+-+-+-+-+-+-+-+-Q%Q%Q%Q%Q%Q%Q%Q%)_)_)_)_)_)_)_)_#-#-#-#-#-#-#-#-)_)_)_)_)_)_)_)_I+I+I+I+I+I+I+I+I+I+I+I+I+I+I+I+I+I+I+I+I+I+I+I+",
"._._._._._._._._._._._._._._._._>_>_>_>_>_>_>_>_>_>_>_>_>_>_>_>_+-+-+-+-+-+-+-+-+-+-+-+-+-+-+-+-+-+-+-+-+-+-+-+-+-+-+-+-+-+-+-+-+-+-+-+-+-+-+-+-Q%Q%Q%Q%Q%Q%Q%Q%)_)_)_)_)_)_)_)_#-#-#-#-#-#-#-#-)_)_)_)_)_)_)_)_I+I+I+I+I+I+I+I+I+I+I+I+I+I+I+I+I+I+I+I+I+I+I+I+",
"._._._._._._._._._._._._._._._._>_>_>_>_>_>_>_>_>_>_>_>_>_>_>_>_+-+-+-+-+-+-+-+-+-+-+-+-+-+-+-+-+-+-+-+-+-+-+-+-+-+-+-+-+-+-+-+-+-+-+-+-+-+-+-+-Q%Q%Q%Q%Q%Q%Q%Q%)_)_)_)_)_)_)_)_#-#-#-#-#-#-#-#-)_)_)_)_)_)_)_)_I+I+I+I+I+I+I+I+I+I+I+I+I+I+I+I+I+I+I+I+I+I+I+I+",
"._._._._._._._._._._._._._._._._>_>_>_>_>_>_>_>_>_>_>_>_>_>_>_>_+-+-+-+-+-+-+-+-+-+-+-+-+-+-+-+-+-+-+-+-+-+-+-+-+-+-+-+-+-+-+-+-+-+-+-+-+-+-+-+-Q%Q%Q%Q%Q%Q%Q%Q%)_)_)_)_)_)_)_)_#-#-#-#-#-#-#-#-)_)_)_)_)_)_)_)_I+I+I+I+I+I+I+I+I+I+I+I+I+I+I+I+I+I+I+I+I+I+I+I+",
"._._._._._._._._._._._._._._._._>_>_>_>_>_>_>_>_>_>_>_>_>_>_>_>_+-+-+-+-+-+-+-+-+-+-+-+-+-+-+-+-+-+-+-+-+-+-+-+-+-+-+-+-+-+-+-+-+-+-+-+-+-+-+-+-Q%Q%Q%Q%Q%Q%Q%Q%)_)_)_)_)_)_)_)_#-#-#-#-#-#-#-#-)_)_)_)_)_)_)_)_I+I+I+I+I+I+I+I+I+I+I+I+I+I+I+I+I+I+I+I+I+I+I+I+"};
