/* XPM */
static const char * btnLoad_xpm[] = {
"15 12 3 1",
" 	c None",
".	c #000000",
"+	c #FFFFFF",
"  ....         ",
" .++++.        ",
".+++++......   ",
".+++++++++++.  ",
".+++.......... ",
".++.++++++++++.",
".+.+++++++++++.",
".+.++++++++++. ",
"..+++++++++++. ",
".+++++++++++.  ",
"..+++++++++.   ",
" ...........   "};
