/* XPM */
static const char * QmitkMemoryUsageIndicatorImagesOrange_xpm[] = {
"100 100 1867 2",
"  	c None",
". 	c #ADADAD",
"+ 	c #AEAEAE",
"@ 	c #AFAFAF",
"# 	c #B0B0B0",
"$ 	c #B1B1B1",
"% 	c #B2B2B2",
"& 	c #B3B3B3",
"* 	c #B4B4B4",
"= 	c #ABABAB",
"- 	c #A9A9A9",
"; 	c #A7A7A7",
"> 	c #A6A6A6",
", 	c #A5A5A5",
"' 	c #A8A8A8",
") 	c #AAAAAA",
"! 	c #ACACAC",
"~ 	c #A2A2A2",
"{ 	c #9E9E9E",
"] 	c #9C9C9C",
"^ 	c #9A9A9A",
"/ 	c #999999",
"( 	c #989898",
"_ 	c #A0A0A0",
": 	c #A4A4A4",
"< 	c #B5B5B5",
"[ 	c #A3A3A3",
"} 	c #9F9F9F",
"| 	c #959696",
"1 	c #939494",
"2 	c #909292",
"3 	c #8D9091",
"4 	c #8C8F90",
"5 	c #8B8E8F",
"6 	c #8A8D8F",
"7 	c #898D8E",
"8 	c #8A8E8F",
"9 	c #8F9192",
"0 	c #919393",
"a 	c #949595",
"b 	c #979797",
"c 	c #A1A1A1",
"d 	c #929292",
"e 	c #8B8B8B",
"f 	c #868686",
"g 	c #828282",
"h 	c #818181",
"i 	c #848484",
"j 	c #898989",
"k 	c #8F8F8F",
"l 	c #B6B6B6",
"m 	c #969696",
"n 	c #909192",
"o 	c #8B8E8E",
"p 	c #868A8B",
"q 	c #818688",
"r 	c #7C8487",
"s 	c #7A8285",
"t 	c #7C8081",
"u 	c #807D7C",
"v 	c #847A77",
"w 	c #887772",
"x 	c #8A756E",
"y 	c #8D736B",
"z 	c #8E7268",
"A 	c #8F7167",
"B 	c #8E7168",
"C 	c #8D7269",
"D 	c #8C746C",
"E 	c #897670",
"F 	c #857975",
"G 	c #817C7B",
"H 	c #7D8080",
"I 	c #7B8283",
"J 	c #7C8386",
"K 	c #7F8688",
"L 	c #83888A",
"M 	c #898C8D",
"N 	c #8E9090",
"O 	c #909090",
"P 	c #888888",
"Q 	c #818283",
"R 	c #877F7C",
"S 	c #8D7B75",
"T 	c #94766D",
"U 	c #9A7265",
"V 	c #9F6E5E",
"W 	c #A36B59",
"X 	c #A66A56",
"Y 	c #A76954",
"Z 	c #A66954",
"` 	c #A56955",
" .	c #A46B57",
"..	c #A26D5B",
"+.	c #9D7061",
"@.	c #967469",
"#.	c #8F7972",
"$.	c #887E7A",
"%.	c #84817F",
"&.	c #838383",
"*.	c #8C8C8C",
"=.	c #9D9D9C",
"-.	c #949494",
";.	c #8C8E8E",
">.	c #858889",
",.	c #7E8587",
"'.	c #7B8284",
").	c #807E7D",
"!.	c #877872",
"~.	c #907065",
"{.	c #996859",
"].	c #A0624E",
"^.	c #A75F48",
"/.	c #AF644B",
"(.	c #B66A51",
"_.	c #BC6F55",
":.	c #C07259",
"<.	c #C4745A",
"[.	c #C6755B",
"}.	c #C9795E",
"|.	c #CA7B60",
"1.	c #C9795F",
"2.	c #C8775C",
"3.	c #C67459",
"4.	c #C27358",
"5.	c #BD7057",
"6.	c #B86A51",
"7.	c #B2654A",
"8.	c #AB6149",
"9.	c #A4614B",
"0.	c #9C6654",
"a.	c #956D60",
"b.	c #8B756D",
"c.	c #837D7A",
"d.	c #7D8081",
"e.	c #7C8385",
"f.	c #828789",
"g.	c #8A8D8D",
"h.	c #929393",
"i.	c #B7B7B7",
"j.	c #818383",
"k.	c #838281",
"l.	c #8C7B75",
"m.	c #997265",
"n.	c #A86751",
"o.	c #B85C3E",
"p.	c #C5522D",
"q.	c #D14F24",
"r.	c #DA5A30",
"s.	c #E16A43",
"t.	c #E47652",
"u.	c #E68160",
"v.	c #E78869",
"w.	c #E88E70",
"x.	c #EA9579",
"y.	c #EB9A7F",
"z.	c #EA977B",
"A.	c #E99174",
"B.	c #E88A6B",
"C.	c #E78463",
"D.	c #E57C59",
"E.	c #E26C45",
"F.	c #DE5D32",
"G.	c #D65429",
"H.	c #CB5129",
"I.	c #BF5836",
"J.	c #B16349",
"K.	c #A06E5D",
"L.	c #917970",
"M.	c #887F7C",
"N.	c #828485",
"O.	c #9D9D9D",
"P.	c #B8B8B8",
"Q.	c #A7A6A6",
"R.	c #9B9B9B",
"S.	c #919191",
"T.	c #888A8A",
"U.	c #808688",
"V.	c #837C7A",
"W.	c #8E746B",
"X.	c #996959",
"Y.	c #A6624B",
"Z.	c #B3684E",
"`.	c #CC7D63",
" +	c #D8876D",
".+	c #E28E72",
"++	c #EA9478",
"@+	c #EF9E83",
"#+	c #F3A88F",
"$+	c #F4AF99",
"%+	c #F5B5A1",
"&+	c #F5BAA6",
"*+	c #F5BDAA",
"=+	c #F6C1B0",
"-+	c #F7C4B3",
";+	c #F6C2B1",
">+	c #F6BFAD",
",+	c #F5BBA8",
"'+	c #F5B7A3",
")+	c #F4B29C",
"!+	c #F4AA91",
"~+	c #F1A086",
"{+	c #EC987C",
"]+	c #E59074",
"^+	c #DD8A6E",
"/+	c #D28268",
"(+	c #C6755A",
"_+	c #B86A4F",
":+	c #AC654D",
"<+	c #A06653",
"[+	c #937065",
"}+	c #887C78",
"|+	c #818182",
"1+	c #808587",
"2+	c #8F9090",
"3+	c #818484",
"4+	c #848382",
"5+	c #927971",
"6+	c #A46C5A",
"7+	c #BA5B3C",
"8+	c #CE532A",
"9+	c #DC653D",
"0+	c #EDA086",
"a+	c #F2BDAB",
"b+	c #F6D2C6",
"c+	c #F9E1D8",
"d+	c #FAE7E0",
"e+	c #FAE8E2",
"f+	c #FAE8E3",
"g+	c #FAE9E3",
"h+	c #F9E3DB",
"i+	c #F7D8CD",
"j+	c #F4C6B6",
"k+	c #EFAD97",
"l+	c #E98A6B",
"m+	c #E16B44",
"n+	c #D45C33",
"o+	c #C35834",
"p+	c #AD654D",
"q+	c #98766B",
"r+	c #8C7F7B",
"s+	c #858585",
"t+	c #838586",
"u+	c #B9B9B9",
"v+	c #BABABA",
"w+	c #A2A1A1",
"x+	c #959595",
"y+	c #898B8C",
"z+	c #808485",
"A+	c #7F8182",
"B+	c #857E7B",
"C+	c #937064",
"D+	c #A46650",
"E+	c #B66D53",
"F+	c #C8795F",
"G+	c #D98669",
"H+	c #E89478",
"I+	c #F0A48B",
"J+	c #F8C8B8",
"K+	c #FAD8CD",
"L+	c #FBE5DD",
"M+	c #FCEEE8",
"N+	c #FCF0EC",
"O+	c #FBEFEB",
"P+	c #FBEEEA",
"Q+	c #FBEEE9",
"R+	c #FBEDE9",
"S+	c #FBEDE8",
"T+	c #FCF0ED",
"U+	c #FCF1ED",
"V+	c #FCEEEA",
"W+	c #FBE8E2",
"X+	c #FADED4",
"Y+	c #F8CFC1",
"Z+	c #F6BCA9",
"`+	c #F2A990",
" @	c #E08C71",
".@	c #CF7B5E",
"+@	c #BD6C51",
"@@	c #AD6953",
"#@	c #9D6D5D",
"$@	c #8E7872",
"%@	c #838485",
"&@	c #87898A",
"*@	c #919292",
"=@	c #BBBBBB",
"-@	c #828384",
";@	c #89817E",
">@	c #947A70",
",@	c #AE654A",
"'@	c #CA5830",
")@	c #DC6F49",
"!@	c #EA9476",
"~@	c #F3BBA7",
"{@	c #F8DCD2",
"]@	c #FAE6E0",
"^@	c #FAEAE4",
"/@	c #F9DED6",
"(@	c #F5CABC",
"_@	c #EE9E83",
":@	c #E3734D",
"<@	c #D1613C",
"[@	c #BC5F40",
"}@	c #A26F5E",
"|@	c #8D827F",
"1@	c #878687",
"2@	c #878787",
"3@	c #868787",
"4@	c #8A8A8A",
"5@	c #868A8C",
"6@	c #808486",
"7@	c #867F7C",
"8@	c #927970",
"9@	c #A46F5C",
"0@	c #B96B4E",
"a@	c #D07959",
"b@	c #E48E6F",
"c@	c #F0A78D",
"d@	c #F7C1AE",
"e@	c #FBD9CD",
"f@	c #FCEBE5",
"g@	c #FCF0EB",
"h@	c #FCEFEA",
"i@	c #FBECE6",
"j@	c #FBEAE4",
"k@	c #FBE9E3",
"l@	c #FBE9E2",
"m@	c #FBEBE5",
"n@	c #FBECE7",
"o@	c #FCF1EC",
"p@	c #FCECE7",
"q@	c #FBE1D8",
"r@	c #F9C9B9",
"s@	c #F3AE95",
"t@	c #E89579",
"u@	c #D88062",
"v@	c #C46F52",
"w@	c #AF684F",
"x@	c #9C7466",
"y@	c #8C8380",
"z@	c #868687",
"A@	c #868889",
"B@	c #8E9091",
"C@	c #AAA9A9",
"D@	c #BCBCBC",
"E@	c #828587",
"F@	c #937A71",
"G@	c #A86F5A",
"H@	c #C46643",
"I@	c #DF6C41",
"J@	c #ED9A7B",
"K@	c #F5CCBD",
"L@	c #F9E0D7",
"M@	c #FBEBE4",
"N@	c #FAE8E1",
"O@	c #F6D0C2",
"P@	c #EFAD96",
"Q@	c #E47E5A",
"R@	c #D45B30",
"S@	c #B76649",
"T@	c #9B7D72",
"U@	c #8E8582",
"V@	c #878989",
"W@	c #828688",
"X@	c #897F7B",
"Y@	c #99776B",
"Z@	c #AF6C54",
"`@	c #C76A48",
" #	c #DE8260",
".#	c #F0A487",
"+#	c #F8C5B2",
"@#	c #FAE0D6",
"##	c #FCEAE4",
"$#	c #FCECE6",
"%#	c #FBE8E0",
"&#	c #FBE7E0",
"*#	c #FBE7DF",
"=#	c #FBE2D9",
"-#	c #F8CEBF",
";#	c #F3AD94",
">#	c #E88C6B",
",#	c #D37350",
"'#	c #BB6647",
")#	c #A47260",
"!#	c #91837E",
"~#	c #888787",
"{#	c #878A8A",
"]#	c #99786B",
"^#	c #B36B50",
"/#	c #CD6842",
"(#	c #E4754C",
"_#	c #F1A98F",
":#	c #F8DDD3",
"<#	c #FAE8E0",
"[#	c #FAE5DD",
"}#	c #FAE4DC",
"|#	c #FAE6DF",
"1#	c #F9DBD0",
"2#	c #F4C5B3",
"3#	c #EB8E6B",
"4#	c #DB5E2F",
"5#	c #BE6443",
"6#	c #A17A6B",
"7#	c #92847F",
"8#	c #888A8B",
"9#	c #848788",
"0#	c #8B827E",
"a#	c #9A7C70",
"b#	c #B36D53",
"c#	c #CD6942",
"d#	c #E2835F",
"e#	c #F2A88D",
"f#	c #F8CBBA",
"g#	c #FAE6DE",
"h#	c #FAE3DA",
"i#	c #FAE2D9",
"j#	c #F9E1D9",
"k#	c #FAE1D8",
"l#	c #FAE0D8",
"m#	c #FAE0D7",
"n#	c #FAE3DB",
"o#	c #F9D8CC",
"p#	c #F5B59D",
"q#	c #D7734D",
"r#	c #C06542",
"s#	c #A7735F",
"t#	c #938783",
"u#	c #8A8B8B",
"v#	c #949596",
"w#	c #BDBDBD",
"x#	c #84898A",
"y#	c #9B7C6F",
"z#	c #B46F54",
"A#	c #CD6A42",
"B#	c #E47448",
"C#	c #F1A78A",
"D#	c #F8DACF",
"E#	c #F9DFD5",
"F#	c #F9DED4",
"G#	c #F9DDD3",
"H#	c #F9DED5",
"I#	c #F8D8CC",
"J#	c #EC8C67",
"K#	c #DD5A28",
"L#	c #BF6542",
"M#	c #A27F71",
"N#	c #938883",
"O#	c #8D8D8D",
"P#	c #8D8F90",
"Q#	c #BFBFBF",
"R#	c #919293",
"S#	c #888989",
"T#	c #8A8685",
"U#	c #95827B",
"V#	c #AF6E54",
"W#	c #CC6237",
"X#	c #E07950",
"Y#	c #EF9D7C",
"Z#	c #F6C3AE",
"`#	c #FAE2DA",
" $	c #F9DCD1",
".$	c #F8DBD0",
"+$	c #F8DBD1",
"@$	c #F8DCD0",
"#$	c #F8DCD1",
"$$	c #F8DBCF",
"%$	c #F7D5C8",
"&$	c #F2A78A",
"*$	c #E8784D",
"=$	c #D5693F",
"-$	c #BF6A48",
";$	c #A57A69",
">$	c #908C8B",
",$	c #8B8E90",
"'$	c #BEBEBE",
")$	c #888B8D",
"!$	c #A87865",
"~$	c #C5643D",
"{$	c #E05F2A",
"]$	c #ED906A",
"^$	c #F4C7B4",
"/$	c #F7D7C9",
"($	c #F8D9CD",
"_$	c #F8DACE",
":$	c #F7D8CB",
"<$	c #F7D7CB",
"[$	c #F8DAD0",
"}$	c #F3C0AD",
"|$	c #EDA183",
"1$	c #E7774B",
"2$	c #DA5A27",
"3$	c #B96C4D",
"4$	c #998780",
"5$	c #8F8D8C",
"6$	c #949696",
"7$	c #C0C0C0",
"8$	c #9C9C9D",
"9$	c #878A8B",
"0$	c #8E8A88",
"a$	c #A77966",
"b$	c #C46A45",
"c$	c #D86A3D",
"d$	c #E8794C",
"e$	c #F2A788",
"f$	c #F7D3C4",
"g$	c #F8DBCE",
"h$	c #F8D7C9",
"i$	c #F8D6C8",
"j$	c #F7D6C8",
"k$	c #F8D5C8",
"l$	c #F8D5C9",
"m$	c #F7D6C7",
"n$	c #F7D5C7",
"o$	c #F6D5C7",
"p$	c #F6D4C7",
"q$	c #F7D7CA",
"r$	c #F7D6C9",
"s$	c #F6D0C1",
"t$	c #F2BEA9",
"u$	c #ED8D66",
"v$	c #E2612E",
"w$	c #CC653B",
"x$	c #B4775E",
"y$	c #9D847A",
"z$	c #8D9295",
"A$	c #C1C1C1",
"B$	c #939495",
"C$	c #8C8A88",
"D$	c #98867E",
"E$	c #BA6E4E",
"F$	c #DC5E2A",
"G$	c #E87648",
"H$	c #EC9B7A",
"I$	c #F2BBA4",
"J$	c #F7D4C5",
"K$	c #F8D8CA",
"L$	c #F7D3C5",
"M$	c #F6D2C4",
"N$	c #F6D2C3",
"O$	c #F6D1C2",
"P$	c #EFA384",
"Q$	c #E57345",
"R$	c #DD6433",
"S$	c #CF663B",
"T$	c #AF7A64",
"U$	c #918F8E",
"V$	c #8B9093",
"W$	c #8B9092",
"X$	c #8A8C8D",
"Y$	c #99847B",
"Z$	c #B07A62",
"`$	c #CA6539",
" %	c #E15C24",
".%	c #EC8458",
"+%	c #F1B49A",
"@%	c #F5C8B6",
"#%	c #F7D2C3",
"$%	c #F6D0C0",
"%%	c #F6D1C1",
"&%	c #F6D1C0",
"*%	c #F6D0BF",
"=%	c #F7D0BF",
"-%	c #F7D0C0",
";%	c #F6CFBF",
">%	c #F1B197",
",%	c #EA8A63",
"'%	c #E56E3C",
")%	c #DB602C",
"!%	c #BE704F",
"~%	c #A0877C",
"{%	c #938D8A",
"]%	c #999B9B",
"^%	c #C2C2C2",
"/%	c #8E8E8E",
"(%	c #878D8F",
"_%	c #A97E6B",
":%	c #C96D45",
"<%	c #D85F2B",
"[%	c #E1622A",
"}%	c #EC926A",
"|%	c #F4C5B0",
"1%	c #F6CEBD",
"2%	c #F6CDBC",
"3%	c #F6CDBB",
"4%	c #F6CCBB",
"5%	c #F3BBA4",
"6%	c #EEA282",
"7%	c #EA7C4D",
"8%	c #E15E26",
"9%	c #CC673C",
"0%	c #B47C64",
"a%	c #A0897F",
"b%	c #939393",
"c%	c #939698",
"d%	c #C3C3C3",
"e%	c #9D9E9E",
"f%	c #8B8C8B",
"g%	c #968A84",
"h%	c #B7775B",
"i%	c #D86634",
"j%	c #E1632C",
"k%	c #E4703D",
"l%	c #ED9E7A",
"m%	c #F5CAB6",
"n%	c #F6CBB9",
"o%	c #F6CBB8",
"p%	c #F6CBB7",
"q%	c #F6CAB7",
"r%	c #F5CAB7",
"s%	c #F5C5B0",
"t%	c #F2B59B",
"u%	c #EB885C",
"v%	c #E25F26",
"w%	c #D9602B",
"x%	c #CA7048",
"y%	c #AD8370",
"z%	c #8F9597",
"A%	c #C4C4C4",
"B%	c #969899",
"C%	c #948A85",
"D%	c #A48475",
"E%	c #C4714B",
"F%	c #E2632A",
"G%	c #E86B33",
"H%	c #E78052",
"I%	c #EEA686",
"J%	c #F5C9B5",
"K%	c #F6CEBB",
"L%	c #F5C9B4",
"M%	c #F5C8B4",
"N%	c #F5C8B3",
"O%	c #F4C2AC",
"P%	c #EB926A",
"Q%	c #E25C20",
"R%	c #DC6631",
"S%	c #BA7C60",
"T%	c #98928F",
"U%	c #909495",
"V%	c #C5C5C5",
"W%	c #909496",
"X%	c #8F9091",
"Y%	c #A1867A",
"Z%	c #B87B5E",
"`%	c #D06C3D",
" &	c #E46429",
".&	c #E8713A",
"+&	c #E9885C",
"@&	c #EFAA8A",
"#&	c #F5C7B2",
"$&	c #F5CBB7",
"%&	c #F4C6B1",
"&&	c #F4C7B1",
"*&	c #F5C7B1",
"=&	c #F4C7B0",
"-&	c #F4C6B0",
";&	c #F4C6AF",
">&	c #F4C5AF",
",&	c #F5C6B0",
"'&	c #EC9770",
")&	c #E36931",
"!&	c #E55E21",
"~&	c #E2642B",
"{&	c #C57652",
"]&	c #A68A7D",
"^&	c #98908C",
"/&	c #9E9FA0",
"(&	c #8C9294",
"_&	c #AD826E",
":&	c #CD7248",
"<&	c #DB6832",
"[&	c #E3662C",
"}&	c #E77641",
"|&	c #EA8E63",
"1&	c #EFAC8B",
"2&	c #F4C4AD",
"3&	c #F4C4AC",
"4&	c #F4C3AC",
"5&	c #ED9A73",
"6&	c #E56F39",
"7&	c #E66328",
"8&	c #E3652C",
"9&	c #D07045",
"0&	c #B88066",
"a&	c #A38C81",
"b&	c #999C9E",
"c&	c #C6C6C6",
"d&	c #8C9092",
"e&	c #95908E",
"f&	c #B77E64",
"g&	c #DB6D39",
"h&	c #E3652A",
"i&	c #E4682E",
"j&	c #E87B48",
"k&	c #EC956B",
"l&	c #F0AE8F",
"m&	c #F4C2AA",
"n&	c #F5C5AE",
"o&	c #F3C1A9",
"p&	c #F3C1AA",
"q&	c #F3C2AA",
"r&	c #F3C0A8",
"s&	c #F3C0A9",
"t&	c #F4C1A8",
"u&	c #ED9C76",
"v&	c #E67641",
"w&	c #E6692E",
"x&	c #E4672C",
"y&	c #D96C39",
"z&	c #C97851",
"A&	c #AE8977",
"B&	c #979899",
"C&	c #959A9D",
"D&	c #A1A2A3",
"E&	c #90908F",
"F&	c #9C8D86",
"G&	c #C17B5A",
"H&	c #E46A30",
"I&	c #E86526",
"J&	c #E56A2F",
"K&	c #E97F4C",
"L&	c #ED9970",
"M&	c #F1AF90",
"N&	c #F4C0A7",
"O&	c #F4C0A6",
"P&	c #F3BFA6",
"Q&	c #F3BEA6",
"R&	c #F3BEA5",
"S&	c #F3BEA4",
"T&	c #ED9E77",
"U&	c #E77B47",
"V&	c #E66D34",
"W&	c #E4692E",
"X&	c #E1692F",
"Y&	c #D7713F",
"Z&	c #B7866D",
"`&	c #93999C",
" *	c #C7C7C7",
".*	c #9D9FA0",
"+*	c #998E88",
"@*	c #AA8877",
"#*	c #CA7951",
"$*	c #E66B2F",
"%*	c #E96727",
"&*	c #E66C30",
"**	c #E97F4A",
"=*	c #ED966B",
"-*	c #F1AC8B",
";*	c #F4BDA3",
">*	c #F4BEA3",
",*	c #F3BDA3",
"'*	c #F3BDA2",
")*	c #F3BCA2",
"!*	c #F3BCA1",
"~*	c #ED9C74",
"{*	c #E77A44",
"]*	c #E56E34",
"^*	c #E46B30",
"/*	c #E6692B",
"(*	c #E06E35",
"_*	c #C08264",
":*	c #A09792",
"<*	c #A9AAAA",
"[*	c #C8C8C8",
"}*	c #999D9E",
"|*	c #A28C80",
"1*	c #B98367",
"2*	c #D27749",
"3*	c #E66E31",
"4*	c #E86A2A",
"5*	c #E97D46",
"6*	c #EC9163",
"7*	c #F0A884",
"8*	c #F3BB9F",
"9*	c #F3BEA3",
"0*	c #F3BA9E",
"a*	c #F4BEA4",
"b*	c #ED996F",
"c*	c #E7773F",
"d*	c #E56E32",
"e*	c #E56D31",
"f*	c #E96A2B",
"g*	c #C7805B",
"h*	c #A89388",
"i*	c #9B9795",
"j*	c #A6A7A8",
"k*	c #C9C9C9",
"l*	c #969A9D",
"m*	c #AB8B7A",
"n*	c #C57F5B",
"o*	c #D97643",
"p*	c #E77032",
"q*	c #E86D2D",
"r*	c #E67032",
"s*	c #E97B44",
"t*	c #EC8D5D",
"u*	c #F0A57F",
"v*	c #F3BA9C",
"w*	c #F3BCA0",
"x*	c #F3B99C",
"y*	c #F3B99B",
"z*	c #F3B89B",
"A*	c #F3B89A",
"B*	c #F2B89A",
"C*	c #E67439",
"D*	c #E56D30",
"E*	c #E66F32",
"F*	c #E96C2C",
"G*	c #CD7D54",
"H*	c #B18E7C",
"I*	c #A2958F",
"J*	c #A4A6A7",
"K*	c #CACACA",
"L*	c #93989B",
"M*	c #B28A75",
"N*	c #D07C50",
"O*	c #DF753E",
"P*	c #E77134",
"Q*	c #E86F30",
"R*	c #E87A40",
"S*	c #EB8855",
"T*	c #EFA179",
"U*	c #F3B899",
"V*	c #F4BB9D",
"W*	c #F3B898",
"X*	c #F3B798",
"Y*	c #F3B698",
"Z*	c #F3B697",
"`*	c #F3B696",
" =	c #F2B696",
".=	c #F2B495",
"+=	c #EC9265",
"@=	c #E67135",
"#=	c #E56C2E",
"$=	c #E67033",
"%=	c #E96E2F",
"&=	c #D27B4E",
"*=	c #BB896F",
"==	c #A89489",
"-=	c #A2A5A7",
";=	c #CBCBCB",
">=	c #92989B",
",=	c #B88970",
"'=	c #DA7A46",
")=	c #E57439",
"!=	c #E87336",
"~=	c #E87233",
"{=	c #E8763A",
"]=	c #EA8048",
"^=	c #EE9C70",
"/=	c #F3B695",
"(=	c #F3B99A",
"_=	c #F2B695",
":=	c #F2B595",
"<=	c #F2B594",
"[=	c #F2B494",
"}=	c #F2B493",
"|=	c #F3B493",
"1=	c #F2B392",
"2=	c #F1AB86",
"3=	c #EC8E5D",
"4=	c #E77235",
"5=	c #E66E30",
"6=	c #E67134",
"7=	c #E97031",
"8=	c #D87A49",
"9=	c #C48665",
"0=	c #AE9284",
"a=	c #A0A4A6",
"b=	c #92989C",
"c=	c #BD896C",
"d=	c #E2783F",
"e=	c #EA7435",
"f=	c #E87537",
"g=	c #E87536",
"h=	c #E87434",
"i=	c #E9793C",
"j=	c #EE9565",
"k=	c #F2B18E",
"l=	c #F2B492",
"m=	c #F2B391",
"n=	c #F2B290",
"o=	c #EF9F74",
"p=	c #EB8853",
"q=	c #E87436",
"r=	c #E77132",
"s=	c #E77336",
"t=	c #E97234",
"u=	c #DD7945",
"v=	c #CD835C",
"w=	c #B4917F",
"x=	c #9FA4A6",
"y=	c #9C9997",
"z=	c #C18869",
"A=	c #E7783B",
"B=	c #EC7534",
"C=	c #E87638",
"D=	c #E97638",
"E=	c #E97739",
"F=	c #ED8F5B",
"G=	c #F1A77F",
"H=	c #F2B08B",
"I=	c #F2B28F",
"J=	c #F2B390",
"K=	c #F2B28E",
"L=	c #F2B18D",
"M=	c #F2B08D",
"N=	c #F2B08C",
"O=	c #F0A37A",
"P=	c #ED9261",
"Q=	c #EB8249",
"R=	c #E97637",
"S=	c #E87334",
"T=	c #E97435",
"U=	c #E17941",
"V=	c #D48155",
"W=	c #B8917C",
"X=	c #9DA3A5",
"Y=	c #CCCCCC",
"Z=	c #ACACAD",
"`=	c #96999A",
" -	c #9F9894",
".-	c #C48866",
"+-	c #E97839",
"@-	c #EE7633",
"#-	c #E97636",
"$-	c #EC8851",
"%-	c #EF9B6C",
"&-	c #F1A87F",
"*-	c #F2AF8A",
"=-	c #F2AE89",
"--	c #EF9C6D",
";-	c #EC874F",
">-	c #EA7D40",
",-	c #E97738",
"'-	c #EA7637",
")-	c #E5793E",
"!-	c #DA804F",
"~-	c #BC9179",
"{-	c #9CA2A5",
"]-	c #ACADAD",
"^-	c #99999A",
"/-	c #A49891",
"(-	c #C78965",
"_-	c #EA7A3A",
":-	c #EE7835",
"<-	c #E97A3B",
"[-	c #E97939",
"}-	c #E97A3A",
"|-	c #EB8145",
"1-	c #ED8D56",
"2-	c #EF9F71",
"3-	c #F2AE88",
"4-	c #F2B18B",
"5-	c #F2AE87",
"6-	c #F2AE86",
"7-	c #F2AD86",
"8-	c #F2AD87",
"9-	c #F1A87E",
"0-	c #EE9360",
"a-	c #EB7F43",
"b-	c #EA793A",
"c-	c #EA783A",
"d-	c #EA7838",
"e-	c #E87A3D",
"f-	c #DE804B",
"g-	c #BF9178",
"h-	c #CECECE",
"i-	c #CDCDCD",
"j-	c #ACAEAE",
"k-	c #9C9A99",
"l-	c #A8988F",
"m-	c #CA8A65",
"n-	c #EA7C3C",
"o-	c #EE7A37",
"p-	c #EB8244",
"q-	c #EE9663",
"r-	c #F1AA81",
"s-	c #F2AD85",
"t-	c #F2AC84",
"u-	c #F2AC83",
"v-	c #F2AD84",
"w-	c #F1A77C",
"x-	c #F09E6E",
"y-	c #ED8B53",
"z-	c #EA7A3B",
"A-	c #EB7A3A",
"B-	c #E97B3C",
"C-	c #E18049",
"D-	c #C19277",
"E-	c #9DA3A6",
"F-	c #CFCFCF",
"G-	c #ADAEAF",
"H-	c #9E9B98",
"I-	c #AA988E",
"J-	c #CB8B64",
"K-	c #EA7E3D",
"L-	c #EF7C38",
"M-	c #EA7D3D",
"N-	c #EA7C3B",
"O-	c #EB7F3E",
"P-	c #ED8D53",
"Q-	c #EF9C6B",
"R-	c #F1A67B",
"S-	c #F2AC82",
"T-	c #F2AB82",
"U-	c #F2AB81",
"V-	c #F2AB80",
"W-	c #F2AA80",
"X-	c #F09E6D",
"Y-	c #EE8F57",
"Z-	c #EC8346",
"`-	c #EA7B3B",
" ;	c #EB7C3C",
".;	c #EB7C3B",
"+;	c #E48147",
"@;	c #C39276",
"#;	c #9DA3A7",
"$;	c #AB998D",
"%;	c #CC8C64",
"&;	c #EB803E",
"*;	c #EF7E39",
"=;	c #EB7E3D",
"-;	c #EC8546",
";;	c #ED8E54",
">;	c #F09D6B",
",;	c #F2AA7F",
"';	c #F2AA7E",
");	c #F2A97E",
"!;	c #F2A87E",
"~;	c #F2A87D",
"{;	c #F1A578",
"];	c #EE945E",
"^;	c #EC8243",
"/;	c #EB7E3C",
"(;	c #EC7E3C",
"_;	c #E58247",
":;	c #C49376",
"<;	c #9DA4A7",
"[;	c #AEAFB0",
"};	c #9F9C99",
"|;	c #AC9A8E",
"1;	c #CC8D66",
"2;	c #EC8240",
"3;	c #EF803B",
"4;	c #EC8140",
"5;	c #EB803F",
"6;	c #EB813F",
"7;	c #EC8241",
"8;	c #EC8748",
"9;	c #EE9259",
"0;	c #F09F6C",
"a;	c #F1A677",
"b;	c #F2A97C",
"c;	c #F2A87C",
"d;	c #F2A87B",
"e;	c #F2A87A",
"f;	c #F2A77A",
"g;	c #F2A679",
"h;	c #F0A06F",
"i;	c #EF9660",
"j;	c #ED8A4E",
"k;	c #EC803F",
"l;	c #EB7F3C",
"m;	c #EC803E",
"n;	c #E58449",
"o;	c #C59578",
"p;	c #9FA5A9",
"q;	c #D0D0D0",
"r;	c #B0B1B1",
"s;	c #A09D9B",
"t;	c #AC9B90",
"u;	c #CD8F68",
"v;	c #EC8341",
"w;	c #F0823C",
"x;	c #ED894A",
"y;	c #EE9257",
"z;	c #F09D69",
"A;	c #F2A779",
"B;	c #F2A678",
"C;	c #F2A677",
"D;	c #F2A676",
"E;	c #F1A271",
"F;	c #EF955D",
"G;	c #ED8849",
"H;	c #EC8342",
"I;	c #EC823F",
"J;	c #E4874C",
"K;	c #C5977A",
"L;	c #A1A6AA",
"M;	c #D2D2D2",
"N;	c #B2B2B3",
"O;	c #A09F9E",
"P;	c #AB9E94",
"Q;	c #CD916A",
"R;	c #ED8442",
"S;	c #F1833D",
"T;	c #EC8442",
"U;	c #EC8542",
"V;	c #ED8542",
"W;	c #EC8441",
"X;	c #ED8644",
"Y;	c #ED8A4A",
"Z;	c #EF9358",
"`;	c #F19C66",
" >	c #F1A270",
".>	c #F2A778",
"+>	c #F2A575",
"@>	c #F2A574",
"#>	c #F2A675",
"$>	c #F2A372",
"%>	c #F19D69",
"&>	c #EF955C",
"*>	c #EE8C4E",
"=>	c #ED8443",
"->	c #EC8340",
";>	c #ED8341",
">>	c #EB8443",
",>	c #E28950",
"'>	c #C5997D",
")>	c #A3A9AC",
"!>	c #D1D1D1",
"~>	c #B4B5B5",
"{>	c #A0A1A2",
"]>	c #AAA19A",
"^>	c #CC936E",
"/>	c #ED8643",
"(>	c #F1843E",
"_>	c #EE8A49",
":>	c #EF9053",
"<>	c #F09A62",
"[>	c #F1A370",
"}>	c #F2A573",
"|>	c #F2A472",
"1>	c #F2A473",
"2>	c #F2A270",
"3>	c #F09359",
"4>	c #EE8949",
"5>	c #ED8543",
"6>	c #EE8542",
"7>	c #EA8747",
"8>	c #E08C56",
"9>	c #C49B81",
"0>	c #A5ABAE",
"a>	c #9FA3A6",
"b>	c #A8A4A1",
"c>	c #CA9673",
"d>	c #EC8845",
"e>	c #F1863F",
"f>	c #EE8844",
"g>	c #EE8845",
"h>	c #ED8743",
"i>	c #EE8B4A",
"j>	c #EF9153",
"k>	c #EF975D",
"l>	c #F09C65",
"m>	c #F1A16B",
"n>	c #F2A470",
"o>	c #F2A572",
"p>	c #F2A471",
"q>	c #F2A370",
"r>	c #F2A36F",
"s>	c #F19C65",
"t>	c #F0975E",
"u>	c #EF9256",
"v>	c #EE8C4D",
"w>	c #EE8744",
"x>	c #ED8744",
"y>	c #EF8642",
"z>	c #E88A4C",
"A>	c #DC905D",
"B>	c #C29D85",
"C>	c #A7ACAF",
"D>	c #D3D3D3",
"E>	c #C89978",
"F>	c #EA8B4A",
"G>	c #F08942",
"H>	c #EE8A46",
"I>	c #EE8A47",
"J>	c #EE8C4A",
"K>	c #EF9354",
"L>	c #F09B60",
"M>	c #F1A068",
"N>	c #F2A36E",
"O>	c #F2A46F",
"P>	c #F2A26E",
"Q>	c #F2A26D",
"R>	c #F2A26C",
"S>	c #F1A16A",
"T>	c #F19B61",
"U>	c #F09457",
"V>	c #EF8E4D",
"W>	c #EE8946",
"X>	c #EE8945",
"Y>	c #EF8843",
"Z>	c #E68D51",
"`>	c #D89466",
" ,	c #C0A08A",
".,	c #AAAEB1",
"+,	c #A0A6AA",
"@,	c #A6A7A7",
"#,	c #C59B7E",
"$,	c #E58F53",
"%,	c #EE8C48",
"&,	c #EE8C47",
"*,	c #EF8B46",
"=,	c #EF8C47",
"-,	c #EE8B46",
";,	c #EE8A45",
">,	c #EF8F4C",
",,	c #EF9353",
"',	c #F09658",
"),	c #F0995D",
"!,	c #F19C61",
"~,	c #F29E65",
"{,	c #F2A068",
"],	c #F2A26B",
"^,	c #F2A36C",
"/,	c #F2A26A",
"(,	c #F19E65",
"_,	c #F09A5D",
":,	c #F09759",
"<,	c #F09353",
"[,	c #EF8F4E",
"},	c #EF8C48",
"|,	c #EF8B47",
"1,	c #EE8B47",
"2,	c #F08A43",
"3,	c #E39057",
"4,	c #D39870",
"5,	c #BDA390",
"6,	c #AEB1B4",
"7,	c #D4D4D4",
"8,	c #A2A7AB",
"9,	c #C29D84",
"0,	c #DF935E",
"a,	c #EA8F4E",
"b,	c #EF8D48",
"c,	c #F08D47",
"d,	c #EF8E4A",
"e,	c #EF904D",
"f,	c #F09453",
"g,	c #F1985A",
"h,	c #F29C60",
"i,	c #F29F65",
"j,	c #F2A067",
"k,	c #F2A168",
"l,	c #F2A066",
"m,	c #F19D62",
"n,	c #F0995C",
"o,	c #F09555",
"p,	c #EF914E",
"q,	c #EF8E49",
"r,	c #F18B44",
"s,	c #E0935E",
"t,	c #CD9D7C",
"u,	c #BAA697",
"v,	c #B2B5B7",
"w,	c #D5D5D5",
"x,	c #A7ABAE",
"y,	c #BEA08B",
"z,	c #D7986B",
"A,	c #E69256",
"B,	c #F08F49",
"C,	c #F18E47",
"D,	c #EF8E48",
"E,	c #EF8F4A",
"F,	c #F0914D",
"G,	c #F09451",
"H,	c #F19654",
"I,	c #F19857",
"J,	c #F19959",
"K,	c #F19A5B",
"L,	c #F19B5D",
"M,	c #F29C5F",
"N,	c #F29D60",
"O,	c #F29D61",
"P,	c #F29E62",
"Q,	c #F29E61",
"R,	c #F29B5D",
"S,	c #F1995A",
"T,	c #F19758",
"U,	c #F09655",
"V,	c #F09452",
"W,	c #F0914E",
"X,	c #F08F4A",
"Y,	c #EF8E47",
"Z,	c #EF8D47",
"`,	c #F08E49",
" '	c #F08E48",
".'	c #F28D44",
"+'	c #DC9866",
"@'	c #C6A38A",
"#'	c #B7A99F",
"$'	c #B5B7B9",
"%'	c #D6D6D6",
"&'	c #ACB0B2",
"*'	c #B9A394",
"='	c #CE9D79",
"-'	c #E1965F",
";'	c #F0914B",
">'	c #F29048",
",'	c #F0924D",
"''	c #F0944F",
")'	c #F09652",
"!'	c #F19755",
"~'	c #F19856",
"{'	c #F19A5A",
"]'	c #F19958",
"^'	c #F19552",
"/'	c #F0934F",
"('	c #F0914C",
"_'	c #F0904B",
":'	c #F0904A",
"<'	c #F38E45",
"['	c #D89C70",
"}'	c #BFA998",
"|'	c #B3ADA8",
"1'	c #B9BABB",
"2'	c #B1B3B5",
"3'	c #B4A79D",
"4'	c #C4A289",
"5'	c #DC9A68",
"6'	c #F1934C",
"7'	c #F49248",
"8'	c #F0934D",
"9'	c #F0934C",
"0'	c #F0924C",
"a'	c #F0924B",
"b'	c #F0914A",
"c'	c #F1944E",
"d'	c #F19550",
"e'	c #F19551",
"f'	c #F19652",
"g'	c #F19653",
"h'	c #F19651",
"i'	c #F1954F",
"j'	c #F1924C",
"k'	c #F1914B",
"l'	c #F39047",
"m'	c #EF924E",
"n'	c #D4A07A",
"o'	c #B9AEA6",
"p'	c #B0B0AF",
"q'	c #BDBDBE",
"r'	c #B6B7B8",
"s'	c #AFAAA6",
"t'	c #BAA799",
"u'	c #D69E72",
"v'	c #F1954E",
"w'	c #F49449",
"x'	c #F1944D",
"y'	c #F1934D",
"z'	c #EB9657",
"A'	c #CFA484",
"B'	c #B4B2B1",
"C'	c #AEB2B6",
"D'	c #BBBBBC",
"E'	c #ABACAD",
"F'	c #B3ACA6",
"G'	c #D1A27D",
"H'	c #EE9854",
"I'	c #F4964D",
"J'	c #F2964F",
"K'	c #F2974F",
"L'	c #F2964E",
"M'	c #F2954E",
"N'	c #F2954F",
"O'	c #F3954C",
"P'	c #ED9856",
"Q'	c #E29D68",
"R'	c #CAA990",
"S'	c #B1B5B9",
"T'	c #D7D7D7",
"U'	c #A9AEB2",
"V'	c #CAA688",
"W'	c #E79C60",
"X'	c #F09953",
"Y'	c #F39850",
"Z'	c #F4984F",
"`'	c #F29850",
" )	c #F29750",
".)	c #F4964C",
"+)	c #E79D62",
"@)	c #D7A57D",
"#)	c #C4AD9B",
"$)	c #B5B8BA",
"%)	c #D9D9D9",
"&)	c #D8D8D8",
"*)	c #ADB1B5",
"=)	c #AFB0B1",
"-)	c #C2AA96",
";)	c #D9A276",
">)	c #E99D5F",
",)	c #F49A50",
"')	c #F6994F",
"))	c #F49A52",
"!)	c #F49A51",
"~)	c #F49951",
"{)	c #F39951",
"])	c #F29951",
"^)	c #F29950",
"/)	c #F5974B",
"()	c #F3984F",
"_)	c #DFA270",
":)	c #CAAD95",
"<)	c #BCB2A9",
"[)	c #B9BBBD",
"})	c #DADADA",
"|)	c #B4B6B8",
"1)	c #BAADA2",
"2)	c #CAA98E",
"3)	c #E1A26E",
"4)	c #F49C53",
"5)	c #F79B4F",
"6)	c #F49C52",
"7)	c #F49B52",
"8)	c #F39B52",
"9)	c #F39A52",
"0)	c #F5984E",
"a)	c #F19A54",
"b)	c #D8A77F",
"c)	c #BEB4AB",
"d)	c #B6B6B5",
"e)	c #BFBFC0",
"f)	c #BABBBC",
"g)	c #B3B0AE",
"h)	c #BEAFA3",
"i)	c #D8A77D",
"j)	c #F29F59",
"k)	c #F69D52",
"l)	c #F49E54",
"m)	c #F59D54",
"n)	c #F49D54",
"o)	c #F49D53",
"p)	c #F59D53",
"q)	c #F39C53",
"r)	c #F39D53",
"s)	c #F49C51",
"t)	c #F19D57",
"u)	c #E8A166",
"v)	c #D0AC8F",
"w)	c #BAB8B5",
"x)	c #B6B9BB",
"y)	c #C5C5C6",
"z)	c #C1C2C2",
"A)	c #AFB3B6",
"B)	c #B5B3B2",
"C)	c #CFAB8C",
"D)	c #EBA365",
"E)	c #F3A058",
"F)	c #F59F55",
"G)	c #F69F54",
"H)	c #F69D51",
"I)	c #EAA266",
"J)	c #DBA97F",
"K)	c #C9B29F",
"L)	c #B8BBBE",
"M)	c #DBDBDB",
"N)	c #B2B6B9",
"O)	c #B4B5B6",
"P)	c #C4B09E",
"Q)	c #D9AA82",
"R)	c #EAA467",
"S)	c #F7A054",
"T)	c #F8A053",
"U)	c #F6A156",
"V)	c #F5A157",
"W)	c #F6A056",
"X)	c #F6A057",
"Y)	c #F6A157",
"Z)	c #F5A056",
"`)	c #F5A055",
" !	c #F49F55",
".!	c #F4A055",
"+!	c #F79E51",
"@!	c #F49F56",
"#!	c #E1A877",
"$!	c #CCB29D",
"%!	c #C0B7B0",
"&!	c #BABBBB",
"*!	c #BDBFC1",
"=!	c #DCDCDC",
"-!	c #DDDDDD",
";!	c #B8BABB",
">!	c #BAB4AE",
",!	c #C6B19F",
"'!	c #DFAA7B",
")!	c #F6A359",
"!!	c #F9A254",
"~!	c #F6A358",
"{!	c #F6A258",
"]!	c #F6A257",
"^!	c #F5A156",
"/!	c #EFA360",
"(!	c #D7AE8B",
"_!	c #BFBAB6",
":!	c #C3C4C4",
"<!	c #C0C0C1",
"[!	c #B7B7B8",
"}!	c #BDB6B0",
"|!	c #D3AF8F",
"1!	c #EAA86D",
"2!	c #F4A55E",
"3!	c #F8A457",
"4!	c #F6A459",
"5!	c #F6A458",
"6!	c #F7A359",
"7!	c #F7A459",
"8!	c #F8A254",
"9!	c #F7A256",
"0!	c #EDA767",
"a!	c #DEAD81",
"b!	c #CCB6A2",
"c!	c #BCBDBD",
"d!	c #BABDC0",
"e!	c #C8B4A3",
"f!	c #DAAF87",
"g!	c #EBAA6D",
"h!	c #F7A65A",
"i!	c #F9A557",
"j!	c #F7A55A",
"k!	c #F9A456",
"l!	c #F6A55B",
"m!	c #E2AE7E",
"n!	c #CDB8A4",
"o!	c #C3BCB5",
"p!	c #BFC0C1",
"q!	c #BCBEC0",
"r!	c #BEB8B2",
"s!	c #CAB6A4",
"t!	c #DEB084",
"u!	c #F1AA67",
"v!	c #F7A85C",
"w!	c #F8A85A",
"x!	c #F8A85C",
"y!	c #F8A85B",
"z!	c #F8A75B",
"A!	c #F7A75B",
"B!	c #F9A658",
"C!	c #F3A962",
"D!	c #E8AD75",
"E!	c #D6B697",
"F!	c #C5BEB7",
"G!	c #BFBEBE",
"H!	c #C5C6C6",
"I!	c #DEDEDE",
"J!	c #BDBCBB",
"K!	c #D0B69D",
"L!	c #E6B07B",
"M!	c #F2AC68",
"N!	c #F8AA5D",
"O!	c #F9AA5B",
"P!	c #F8AA5C",
"Q!	c #F8A95C",
"R!	c #FAA858",
"S!	c #E9AF76",
"T!	c #D8B695",
"U!	c #CABCAE",
"V!	c #BFC1C3",
"W!	c #DFDFDF",
"X!	c #BBBEC1",
"Y!	c #BBBDBF",
"Z!	c #C5BBB1",
"`!	c #D3B89D",
" ~	c #E4B380",
".~	c #F4AD66",
"+~	c #F9AC5E",
"@~	c #FAAB5C",
"#~	c #F8AC5E",
"$~	c #F8AB5E",
"%~	c #F8AB5D",
"&~	c #F8AA5E",
"*~	c #F9AA5D",
"=~	c #FAAA5A",
"-~	c #F5AC63",
";~	c #ECAF74",
">~	c #DCB792",
",~	c #CCBDB0",
"'~	c #C3C0BC",
")~	c #C0C2C3",
"!~	c #C4C5C7",
"~~	c #E0E0E0",
"{~	c #C2C3C3",
"]~	c #BDBFC0",
"^~	c #C2BFBC",
"/~	c #D5B99B",
"(~	c #EAB278",
"_~	c #F4AF67",
":~	c #F9AD5F",
"<~	c #FAAD5D",
"[~	c #F9AC5F",
"}~	c #FBAB5C",
"|~	c #EDB175",
"1~	c #DDB792",
"2~	c #CEBEAE",
"3~	c #C0C3C5",
"4~	c #E1E1E1",
"5~	c #BEC0C3",
"6~	c #BFC0C2",
"7~	c #C8BDB2",
"8~	c #D5B99C",
"9~	c #E4B584",
"0~	c #F1B16E",
"a~	c #F8AF62",
"b~	c #FCAE5D",
"c~	c #FBAF5D",
"d~	c #FAAF60",
"e~	c #F9AF61",
"f~	c #FAAE60",
"g~	c #FAAE61",
"h~	c #FAAF61",
"i~	c #F9AE60",
"j~	c #FAAE5F",
"k~	c #FCAD5C",
"l~	c #FCAE5C",
"m~	c #F5B069",
"n~	c #EBB47C",
"o~	c #DDBA96",
"p~	c #CFBFAF",
"q~	c #C6C2BD",
"r~	c #C2C4C6",
"s~	c #C4C6C8",
"t~	c #C2C0BE",
"u~	c #D2BBA3",
"v~	c #E5B684",
"w~	c #F2B36F",
"x~	c #FAB162",
"y~	c #FBB160",
"z~	c #FAB062",
"A~	c #FAB061",
"B~	c #FBB05E",
"C~	c #F9B163",
"D~	c #EBB77E",
"E~	c #DBBD9D",
"F~	c #CEC2B5",
"G~	c #C3C5C7",
"H~	c #E2E2E2",
"I~	c #BFC1C4",
"J~	c #C7C0B7",
"K~	c #D3BDA6",
"L~	c #DFBA92",
"M~	c #F5B46D",
"N~	c #FCB261",
"O~	c #FDB25F",
"P~	c #FBB262",
"Q~	c #FBB263",
"R~	c #FAB363",
"S~	c #FAB263",
"T~	c #FCB260",
"U~	c #FCB25F",
"V~	c #FCB160",
"W~	c #F9B265",
"X~	c #F1B675",
"Y~	c #E6BA89",
"Z~	c #DABFA0",
"`~	c #C7C4C1",
" {	c #C3C5C8",
".{	c #C6C8CA",
"+{	c #C2C3C5",
"@{	c #CDC1B4",
"#{	c #D9BD9E",
"${	c #EAB982",
"%{	c #F8B56A",
"&{	c #FBB464",
"*{	c #FCB463",
"={	c #F9B468",
"-{	c #F3B673",
";{	c #E2BC92",
">{	c #D1C3B2",
",{	c #C9C5C0",
"'{	c #C4C5C6",
"){	c #E3E3E3",
"!{	c #C5C7CA",
"~{	c #C2C5C8",
"{{	c #C6C4C1",
"]{	c #CEC2B6",
"^{	c #D8C0A5",
"/{	c #E2BD93",
"({	c #EBBA83",
"_{	c #F3B874",
":{	c #FAB669",
"<{	c #FEB561",
"[{	c #FDB563",
"}{	c #FDB564",
"|{	c #FCB565",
"1{	c #FCB666",
"2{	c #FBB666",
"3{	c #FCB665",
"4{	c #FCB564",
"5{	c #FDB562",
"6{	c #FCB664",
"7{	c #F7B76E",
"8{	c #EFB97C",
"9{	c #E6BB8B",
"0{	c #DDBE9C",
"a{	c #D2C2B0",
"b{	c #C9C6C1",
"c{	c #C8CACB",
"d{	c #E4E4E4",
"e{	c #C6C6C7",
"f{	c #C8C6C5",
"g{	c #CCC5BD",
"h{	c #D9C1A6",
"i{	c #E7BD8B",
"j{	c #F3BA77",
"k{	c #FBB869",
"l{	c #FDB766",
"m{	c #FCB767",
"n{	c #FCB766",
"o{	c #FCB765",
"p{	c #FCB867",
"q{	c #F8B96E",
"r{	c #EDBC81",
"s{	c #E0BF99",
"t{	c #D3C3B1",
"u{	c #C8C6C4",
"v{	c #C6C7C8",
"w{	c #E5E5E5",
"x{	c #D8D7D7",
"y{	c #CBCCCD",
"z{	c #CDC5BB",
"A{	c #D6C3AC",
"B{	c #DEC19F",
"C{	c #E5C093",
"D{	c #ECBE87",
"E{	c #F1BC7D",
"F{	c #F7BA72",
"G{	c #FBB96A",
"H{	c #FEB965",
"I{	c #FFB863",
"J{	c #FFB864",
"K{	c #FEB966",
"L{	c #FFB964",
"M{	c #FCB967",
"N{	c #F8B96D",
"O{	c #F4BB77",
"P{	c #EEBD82",
"Q{	c #E8BE8D",
"R{	c #E1C099",
"S{	c #D9C2A6",
"T{	c #D2C4B3",
"U{	c #CAC5C0",
"V{	c #C4C7CA",
"W{	c #C5C8CB",
"X{	c #C9CACB",
"Y{	c #CECECF",
"Z{	c #C7C8C8",
"`{	c #CAC8C5",
" ]	c #CFC7BD",
".]	c #D8C4AC",
"+]	c #E3C198",
"@]	c #EDBF86",
"#]	c #F5BD77",
"$]	c #FABC6E",
"%]	c #FDBB69",
"&]	c #FEBB68",
"*]	c #FDBB68",
"=]	c #FCBB6A",
"-]	c #F7BC72",
";]	c #F0BD7E",
">]	c #E7C08F",
",]	c #DDC3A2",
"']	c #D2C5B5",
")]	c #CAC7C4",
"!]	c #E6E6E6",
"~]	c #D3D3D4",
"{]	c #CFCFD0",
"]]	c #CACBCD",
"^]	c #C6C9CC",
"/]	c #C8C8C7",
"(]	c #CEC7BE",
"_]	c #D4C5B3",
":]	c #D9C4AA",
"<]	c #DFC3A1",
"[]	c #E3C299",
"}]	c #E7C292",
"|]	c #EBC18C",
"1]	c #EEC187",
"2]	c #F0C083",
"3]	c #F2BF7F",
"4]	c #F4BF7C",
"5]	c #F5BF7A",
"6]	c #F6BF78",
"7]	c #F7BE76",
"8]	c #F6BE77",
"9]	c #F4BF7B",
"0]	c #F3BF7D",
"a]	c #F1BF80",
"b]	c #EFC084",
"c]	c #ECC089",
"d]	c #E9C18F",
"e]	c #E5C296",
"f]	c #E0C39D",
"g]	c #DCC3A5",
"h]	c #D6C5AF",
"i]	c #D0C6B9",
"j]	c #CAC7C3",
"k]	c #C5C8CC",
"l]	c #C8CACC",
"m]	c #CCCDCE",
"n]	c #D1D1D2",
"o]	c #C9C9CA",
"p]	c #CCC9C4",
"q]	c #D0C8BD",
"r]	c #D6C7B3",
"s]	c #DCC6A9",
"t]	c #E0C5A1",
"u]	c #E4C49A",
"v]	c #E7C395",
"w]	c #E9C391",
"x]	c #EBC28D",
"y]	c #ECC28B",
"z]	c #EBC28C",
"A]	c #EAC28F",
"B]	c #E8C393",
"C]	c #E5C498",
"D]	c #E2C49D",
"E]	c #DEC4A4",
"F]	c #D9C5AC",
"G]	c #D3C7B8",
"H]	c #CDC9C3",
"I]	c #CAC9C7",
"J]	c #E7E7E7",
"K]	c #E8E8E8",
"L]	c #D4D4D5",
"M]	c #CDCED0",
"N]	c #C9CCCE",
"O]	c #C6C9CD",
"P]	c #C4C8CC",
"Q]	c #CCC8C2",
"R]	c #CFC7BC",
"S]	c #D2C7B8",
"T]	c #D4C6B4",
"U]	c #D6C6B1",
"V]	c #D7C6AF",
"W]	c #D8C6AD",
"X]	c #D9C5AB",
"Y]	c #D8C5AC",
"Z]	c #D8C6AE",
"`]	c #D7C6B0",
" ^	c #D5C6B2",
".^	c #D3C6B5",
"+^	c #D1C6B9",
"@^	c #C7C8CA",
"#^	c #C5C9CC",
"$^	c #C8CBCE",
"%^	c #CCCED0",
"&^	c #CFD0D1",
"*^	c #E9E9E9",
"=^	c #D1D2D3",
"-^	c #CFD0D2",
";^	c #CDCFD1",
">^	c #CBCDD0",
",^	c #CACCD0",
"'^	c #C9CCCF",
")^	c #C9CCD0",
"!^	c #CACDD0",
"~^	c #CED0D2",
"{^	c #D0D1D2",
"]^	c #D2D2D3",
"^^	c #EAEAEA",
"/^	c #EBEBEB",
"(^	c #ECECEC",
"_^	c #EDEDED",
":^	c #EEEEEE",
"<^	c #EFEFEF",
"[^	c #F0F0F0",
"                                                                          . . . . . . . . . . . . . . . . . . . . . . . . .                                                                             ",
"                                                                        . . . . . . . . . . . . . . . . . . . . . . . . . . .                                                                           ",
"                                                              + + +   + + . . . . . . . . . . . . . . . . . . . . . . . . . + +   + + +                                                                 ",
"                                                            + + + + + + + + + + + + + + + + + + + + + + + + + + + + + + + + + + + + + + +                                                               ",
"                                                      @ @ @ @ + + + + + + + @ + + + + + + + + + + + + + + + + + + + + + @ + + + + + + + @ @ @ @                                                         ",
"                                                    @ @ @ @ @ @ @ @ @ @ @ @ @ @ @ @ @ @ @ @ @ @ @ @ @ @ @ @ @ @ @ @ @ @ @ @ @ @ @ @ @ @ @ @ @ @ @                                                       ",
"                                                  # # @ @ @ @ @ @ @ @ @ @ @ @ @ @ # # # # $ $ $ $ $ $ $ $ $ $ $ # # # # @ @ @ @ @ @ @ @ @ @ @ @ @ # # #                                                 ",
"                                                # # # # # # # # # # # # # # # # # # # # # # # # # # # # # # # # # # # # # # # # # # # # # # # # # # # # #                                               ",
"                                          % % % $ $ $ $ $ $ $ $ $ $ $ % % & & * & % # . = - ; ; > , , , > ' - ) ! + $ & & & & % % $ $ $ $ $ $ $ $ $ $ $ $ % % %                                         ",
"                                        % % % % % % % % % % % % % % % % % % % % $ @ = > ~ { ] ^ / ( ( ( ^ ] { _ : ' ! # % % % % % % % % % % % % % % % % % % % % %                                       ",
"                                      & & % % % % & & & & & & & * < * $ . ' [ } ] ( | 1 2 3 4 5 6 7 7 7 8 4 3 9 0 a b ^ { c > ) @ & < * * & & % % % & % % % % % & &                                     ",
"                                    & & & & & & & & & & & & & & * & # = [ ^ d e f g h g g g g g g g g g g g g g g g g i j k b } ' @ % & & & & & & & & & & & & & & & &                                   ",
"                                  * & & & & & & & & * * < l * # ) ~ ] m n o p q r s t u v w x y z A A B C D E F G H I J K L M N 1 / } > + * l l < * * * * * * * * * * <                                 ",
"                                * * * * * * * * * * * * < * # ' ] O P g h g g g Q g R S T U V W X Y Z `  ...+.@.#.$.%.g g g g g h &.*.b : @ * < < < < < < < < < < < < < <                               ",
"                              l < < < < < < < < l l l < + , =.-.;.>.,.'.).!.~.{.].^./.(._.:.<.[.}.|.|.1.2.3.4.5.6.7.8.9.0.a.b.c.d.e.f.g.h.^ [ = % i.i.l l l l l l l < < l l                             ",
"                            l l l l l l l l l l l l < # [ -.j g h g j.k.l.m.n.o.p.q.r.s.t.u.v.w.x.y.y.z.A.B.C.D.E.F.G.H.I.J.K.L.M.&.N.i i f O O.) * l l l l l l l l l l l l l                           ",
"                          i.l l l l i.l l l P.P.l $ Q.R.S.T.U.e.V.W.X.Y.Z.:.`. +.+++@+#+$+%+&+*+=+-+-+;+>+,+'+)+!+~+{+]+^+/+(+_+:+<+[+}+|+1+p 2+( ~ . < P.i.i.l l l l l l l l i.                        ",
"                        i.i.i.i.i.i.i.i.i.i.P.i.$ ; m f g g 3+4+5+6+7+8+9+u.0+a+b+c+d+e+f+e+e+e+e+e+e+e+e+e+e+e+g+e+h+i+j+k+l+m+n+o+p+q+r+s+t+s+P k _ # l i.i.i.i.i.i.i.i.i.i.i.i.                      ",
"                      u+P.P.P.P.P.P.P.P.v+v+< . w+x+y+z+A+B+C+D+E+F+G+H+I+%+J+K+L+M+N+N+O+P+P+Q+R+S+S+S+R+Q+P+O+T+U+V+W+X+Y+Z+`+y. @.@+@@@#@$@%@f.&@*@O.- * P.u+u+P.P.P.P.P.P.P.P.u+                    ",
"                    u+u+u+u+u+u+u+u+u+u+=@u++ _ S.s+-@i ;@>@,@'@)@!@~@{@]@e+g+e+e+e+e+e+e+e+e+e+e+e+e+e+e+e+e+e+e+e+e+e+e+e+^@e+/@(@_@:@<@[@}@|@1@2@3@4@R.. < u+v+u+u+u+u+u+u+u+u+u+u+                  ",
"                  v+v+u+u+v+v+v+u+v+=@=@l + _ d 5@6@7@8@9@0@a@b@c@d@e@f@g@h@Q+i@j@k@k@l@l@l@l@l@l@l@l@l@l@l@l@l@l@l@k@j@m@n@g@o@p@q@r@s@t@u@v@w@x@y@z@A@B@R.C@l v+v+v+v+v+v+v+v+u+u+u+                  ",
"                v+v+v+v+v+v+v+v+v+v+D@v++ } S.f E@s+F@G@H@I@J@K@L@l@M@l@l@l@l@l@l@l@l@l@l@l@l@l@l@l@l@l@l@l@l@l@l@l@l@l@l@l@l@l@l@l@i@N@O@P@Q@R@S@T@U@j V@e ] + l v+=@v+v+v+v+v+v+v+v+                  ",
"                v+v+v+v+=@v+v+v+D@=@P.$ c S.5@W@X@Y@Z@`@ #.#+#@###$#M@%#&#*#*#*#*#&#&#&#&#&#&#&#&#&#&#&#&#&#&#&#&#&#&#&#*#&#*#&#%#l@S+M+=#-#;#>#,#'#)#!#~#{#2 ] = i.=@=@=@v+v+v+v+v+=@=@                ",
"                =@=@=@=@=@=@=@=@D@=@$ : -.f q f ]#^#/#(#_#:#<#[#[#}#}#}#}#}#}#}#}#}#}#}#}#}#}#}#}#}#}#}#}#}#}#}#}#}#}#}#}#}#}#}#}#}#}#}#|#}#1#2#3#4#5#6#7#e 8#*.{ $ P.=@D@=@=@=@=@=@=@=@=@              ",
"              D@D@=@=@=@=@=@D@D@=@i.; m 7 9#0#a#b#c#d#e#f#g#l@}#h#i#j#i#i#i#i#i#k#k#k#k#k#k#k#k#c+k#k#k#k#k#k#k#k#k#k#k#k#k#k#l#l#l#m#k#n#}#h#o#p#3#q#r#s#t#4@u#v#~ # D@w#D@D@D@D@D@D@D@D@D@            ",
"            D@D@D@D@D@D@D@D@w#D@P.@ ] 4@x#j y#z#A#B#C#D#h#E#E#E#E#E#E#E#E#E#E#E#F#F#F#F#F#F#F#F#F#F#F#F#F#F#F#F#F#F#F#F#F#F#F#G#G#G#G#G#G#G#H#G#I#2#J#K#L#M#N#O#P#-.; u+w#w#w#w#w#w#w#w#D@D@D@          ",
"          w#w#w#w#w#w#w#w#w#Q#w## } R#S#T#U#V#W#X#Y#Z#L@`# $1#.$.$.$+$@$@$@$#$#$.$.$.$.$.$.$.$.$1#.$.$$$$$$$$$$$$$$$$$.$.$.$$$D#D#D#D#D#D#D##${@F#%$&$*$=$-$;$>$,$O O.. i.'$Q#'$w#'$'$'$w#w#D@          ",
"        w#w#w#'$'$'$'$'$'$'$Q#=@> O )$4@U#!$~${$]$^$/$($_$I#I#I#I#I#I#I#I#I#I#I#I#I#I#I#I#I#I#I#I#I#I#:$:$:$:$:$:$:$:$:$:$:$:$:$:$:$:$:$:$:$:$<$[$<$}$|$1$2$3$4$5$k 6$} # '$7$'$'$'$'$'$'$'$'$          ",
"        '$'$'$'$Q#'$'$'$7$Q#u+@ 8$e 9$0$a$b$c$d$e$f$g$h$h$i$j$i$i$i$i$k$l$k$k$k$k$i$i$i$i$i$i$i$i$i$j$j$m$j$j$j$j$j$n$o$o$o$o$o$o$o$o$o$o$o$o$p$q$r$s$t$u$v$w$x$y$B@z$m ' v+'$Q#Q#Q#Q#Q#Q#Q#7$A$        ",
"        Q#Q#Q#Q#Q#Q#Q#Q#A$Q#$ c B$e C$D$E$F$G$H$I$J$K$J$J$J$J$J$J$J$J$L$L$L$f$f$f$f$f$f$f$f$f$f$f$f$f$f$f$f$f$f$f$f$M$N$N$N$N$N$N$N$N$N$N$N$N$N$N$N$q$O$P$Q$R$S$T$U$V$S.c % =@7$A$7$7$7$7$7$A$A$A$      ",
"          7$7$7$7$7$7$7$A$'$) m W$X$Y$Z$`$ %.%+%@%#%f$$%$%$%%%$%&%$%s$s$s$s$$%$%$%$%$%$%$%$%$%*%*%*%=%-%-%-%-%-%-%-%*%;%;%;%;%;%;%;%;%;%;%;%;%;%;%;%n$#%>%,%'%)%!%~%{%S.]%> < A$^%A$A$A$A$A$A$A$A$      ",
"        A$A$A$A$A$A$A$A$7$v+: /%(%O#_%:%<%[%}%|%*%1%1%2%2%2%2%2%2%2%2%2%2%2%2%2%2%2%2%2%2%2%2%3%3%3%3%3%3%3%3%3%3%3%3%3%3%3%3%3%3%3%3%3%4%4%4%4%4%4%;%4%5%6%7%8%9%0%a%b%c%R.+ 7$d%A$A$A$A$A$A$A$A$      ",
"      ^%^%^%^%^%^%^%d%^%=@# e%O#f%g%h%i%j%k%l%m%*%n%n%o%o%o%o%o%o%o%o%o%o%o%o%o%o%o%o%o%o%o%o%p%p%p%p%p%p%p%p%q%r%q%q%q%p%q%q%q%q%q%p%q%q%q%q%q%q%q%n%q%s%t%u%v%w%x%y%-.z%m ' =@A$A$^%A$A$A$A$A$        ",
"    ^%^%^%^%^%^%^%^%A%^%* : B%k C%D%E%F%G%H%I%J%K%J%J%J%J%J%J%J%J%J%L%L%L%L%L%L%L%L%L%L%L%L%L%L%L%L%L%L%L%L%M%N%N%N%N%N%N%N%N%N%N%N%N%N%N%N%N%N%N%N%N%N%o%O%P%F%Q%R%S%T%U%-.[ * w#^%d%^%^%^%^%^%^%      ",
"    ^%^%^%^%^%^%^%^%V%^%@ R.W%X%Y%Z%`% &.&+&@&#&$&%&%&%&&&%&%&%&&&&&*&=&=&=&=&=&=&=&=&=&-&-&-&-&-&-&-&-&-&-&-&;&>&;&;&;&;&;&;&;&;&;&>&;&;&;&;&;&;&-&,&-&p%>&'&)&!&~&{&]&^&-./&! u+d%V%d%d%d%d%d%d%A%    ",
"    d%d%d%d%d%d%d%d%V%A$= -.(&S._&:&<&[&}&|&1&2&#&2&2&2&2&2&2&2&2&2&2&2&2&2&2&2&2&2&2&2&3&4&4&4&4&4&4&4&4&4&4&4&4&4&4&4&4&4&4&4&4&4&4&4&4&4&4&4&4&4&4&4&N%4&5&6&7&8&9&0&a&m b&: < A%c&A%A%A%A%A%A%A%A%  ",
"      A%A%A%A%A%V%A%^%=@> d d&e&f&g&h&i&j&k&l&m&n&m&m&m&m&m&m&m&m&o&o&p&p&p&o&p&p&q&q&q&o&o&o&o&o&o&o&o&o&r&r&r&s&r&r&r&r&r&r&r&r&r&r&r&r&r&s&r&r&r&r&r&>&t&u&v&w&x&y&z&A&B&C&O.$ d%c&V%V%V%V%V%A%A%A%  ",
"    V%V%V%V%V%V%c&V%Q#* D&d E&F&G&H&I&J&K&L&M&N&m&N&N&N&N&N&N&N&O&P&P&P&P&P&P&P&P&P&P&P&P&P&P&P&P&P&P&P&Q&R&R&R&R&R&R&R&R&R&R&R&R&R&R&R&R&R&R&R&S&S&S&S&m&S&T&U&V&W&X&Y&Z&/ `&/ . A$c&V%V%V%V%V%V%V%V%  ",
"   *c&c&c&c&c&c& *c&=@. .*b%+*@*#*$*%*&***=*-*;*O&;*;*;*;*>*>*>*,*'*'*'*'*'*,*'*'*)*)*)*)*)*)*)*)*)*'*)*)*)*!*)*)*)*)*)*)*)*)*)*)*)*!*)*)*)*)*)*!*!*!*!*N&!*~*{*]*^*/*(*_*:*B%/ <*D@d%V%c&V%V%V%V%V%V%  ",
" * *c&c&c&c&c&c&[*c&P.; }*-.|*1*2*3*4*3*5*6*7*8*9*8*8*8*8*8*8*8*8*8*8*8*8*8*8*8*0*0*0*0*0*0*0*0*0*0*0*0*0*0*0*0*0*0*0*0*0*0*0*0*0*0*0*0*0*0*0*0*0*0*0*0*a*0*b*c*d*e*f*e*g*h*i*^ j*l 7$c& *c&c&c&c&c&c&  ",
" * * *c&c&c&c&c&k* ** c l*m m*n*o*p*q*r*s*t*u*v*w*x*x*x*x*y*y*y*y*y*y*x*x*x*x*x*y*z*z*z*z*z*z*z*z*A*A*A*A*A*A*A*A*A*A*A*z*A*A*A*A*A*z*A*A*A*A*B*B*B*B*B*!*z*=*C*D*E*F*3*G*H*I*R.J*% '$ *[* * * * * *    ",
" * * * * * * * *K* *% ] L*b M*N*O*P*Q*P*R*S*T*U*V*U*U*U*W*X*X*X*X*X*X*X*X*X*X*X*X*X*X*X*X*X*X*X*Y*Z*Z*Z*Z*Z*Z*Z*Z*Z*Z*Z*Z*Z*Z*Z*Z*Z*Z*Z*`*`* = = = = = =x*.=+=@=#=$=%=$=&=*===O.-=+ D@[*K*[*[*[*[*[*[*  ",
"[*[*[*[*[*[*[*[*;=[*$ ^ >=( ,='=)=!=~=!={=]=^=/=(= = = =_=_=:=_=_=_=:=<=<=<=<=<=<=<=:=<=<=<=:=<=<=[=[=[=[=[=[=[=[=[=[=}=}=}=}=}=}=}=}=}=|=}=}=}=}=}=<=}=1=2=3=4=5=6=7=6=8=9=0={ a== =@k*K*k*k*k*k*k*k*k*",
"k*k*k*k*k*k*k*k*;= *# / b=/ c=d=e=f=g=f=h=i=j=k=/=l=l=l=l=l=l=l=l=l=l=m=m=m=m=m=m=m=m=m=m=m=m=m=m=m=m=m=m=m=m=m=m=m=n=n=n=n=n=n=n=n=n=n=n=n=n=n=n=n=1=n=2=o=p=q=r=s=t=s=u=v=w=} x=- v+k*;=k*k*k*k*k*k*k*",
"K*K*K*K*K*K*K*K*k*A%+ / L*y=z=A=B=C=D=C=h=E=F=G=H=I=J=K=K=K=I=K=I=K=K=K=k=K=K=K=K=K=K=K=K=K=k=K=K=K=K=K=K=K=K=K=K=K=k=k=k=k=k=k=k=k=L=M=M=N=N=N=N=N=n=k=O=P=Q=R=S=f=T=f=U=V=W=_ X=> P.k*Y=k*k*k*k*k*k*k*",
"K*K*K*K*K*K*;=K* *7$Z=^ `= -.-+-@-+-+-+-#-+-$-%-&-H=L=H=H=H=H=H=H=H=H=H=H=H=H=H=H=H=H=H=H=H=H=H=H=H=H=H=H=H=H=H=H=H=H=H=H=H=H=H=H=H=H=*-=-=-=-=-=-=-M==---;->-,-R=,-'-,-)-!-~-c {-[ i.K*Y=K*K*K*K*K*K*K*",
";=;=;=;=;=;=Y=;= *Q#]-] ^-/-(-_-:-_-<-_-[-}-|-1-2-3-4-3-3-3-3-3-3-3-3-5-5-5-5-5-5-5-5-3-3-3-3-3-3-3-3-3-3-3-5-5-5-5-5-5-5-5-5-5-5-5-5-6-7-7-7-7-8-7-7-9-0-a-b-c-+-c-d-c-e-f-g-~ {-[ i.;=h-;=;=;=;=;=;=;=",
"Y=Y=Y=Y=Y=Y=i-Y=[*Q#j-O.k-l-m-n-o-n-n-n-n-n-n-p-q-r-5-s-s-s-s-s-s-s-t-t-t-t-t-t-t-t-t-t-t-t-t-t-t-t-t-t-t-t-t-u-u-u-u-u-u-u-u-u-u-u-u-u-u-u-u-u-v-u-w-x-y-z-d-z-z-z-A-z-B-C-D-[ E-[ P.Y=F-Y=Y=Y=Y=Y=Y=Y=",
"i-i-i-i-i-i-i-i-[*Q#G-{ H-I-J-K-L-K-K-K-M-K-N-O-P-Q-R-v-s-S-T-S-S-S-T-U-U-U-U-U-U-U-U-U-U-U-U-U-U-U-U-U-U-U-U-V-V-V-V-V-V-V-V-W-W-W-W-W-W-W-W-W-u-W-X-Y-Z-`-_-n- ;n-.;n- ;+;@;[ #;[ P.Y=F-Y=i-Y=Y=Y=Y=Y=",
"i-i-i-i-i-i-h-i-k*7$G-{ H-$;%;&;*;&;&;O-O-O-=;O--;;;>;,;S-,;,;,;,;,;,;,;,;,;,;,;,;,;';';';';';';';';';';';';';';';';';';';';';);!;~;~;~;~;~;~;~;);{;];^;=;=;=;=;=;=;/;=;(;_;:;: <;: P.Y=F-i-i-i-i-i-i-i-",
"i-i-i-i-i-i-h-i-k*A$[;} };|;1;2;3;2;4;4;4;4;5;6;7;8;9;0;a;';';b;c;c;c;c;b;c;c;c;c;c;c;c;d;c;c;c;b;c;d;e;e;e;e;e;e;e;e;e;e;e;d;f;f;f;f;f;f;f;d;g;h;i;j;k;l;m;&;m;m;m;m;m;m;n;o;, p;, u+i-q;h-h-h-h-h-h-h-",
"h-h-h-h-h-h-F-h-K*^%r;_ s;t;u;v;w;v;v;v;v;v;v;v;2;v;x;y;z;A;d;A;A;A;A;A;A;A;A;A;A;A;A;A;A;A;A;A;A;A;B;C;C;C;C;C;C;C;C;C;C;C;C;C;C;C;C;C;C;C;D;E;F;G;H;2;I;2;2;2;2;2;I;2;2;J;K;; L;; =@F-M;F-F-F-F-F-F-F-",
"F-F-F-F-F-F-q;F-Y=A%N;c O;P;Q;R;S;T;T;T;U;T;V;T;W;W;X;Y;Z;`; >D;.>C;C;D;D;D;D;D;D;D;D;D;D;D;D;D;D;D;D;+>+>+>+>+>+>+>+>+>+>@>@>@>@>+>#>D;+>$>%>&>*>=>->v;v;T;R;T;T;T;;>T;>>,>'>- )>- w#q;M;q;q;q;q;q;q;q;",
"q;q;q;q;q;q;!>q;h- *~>[ {>]>^>/>(>/>/>/>/>/>/>/>/>/>V;/>_>:><>[>@>@>@>@>@>@>@>}>}>}>}>}>}>}>}>}>}>}>}>}>}>}>}>}>}>}>}>}>|>|>|>|>|>|>1>|>2>%>3>4>X;5>5>5>5>5>5>5>5>5>6>5>7>8>9>) 0>! '$q;M;q;q;q;q;q;q;q;",
"!>!>!>!>!>!>!>!>q;;=i.: a>b>c>d>e>f>f>f>f>f>f>f>g>f>h>h>g>i>j>k>l>m>n>}>}>o>p>p>p>n>n>n>p>n>n>q>q>r>r>n>n>n>n>n>n>n>n>n>r>r>q>n>p>n>m>s>t>u>v>w>/>h>x>w>w>w>w>w>w>w>y>w>z>A>B>) C>@ 7$q;D>q;q;q;q;q;q;q;",
"!>!>!>!>!>!>!>!>M;h-v+> p;> E>F>G>H>H>H>H>H>H>H>H>H>H>H>H>H>I>J>K>L>M>N>O>N>N>N>N>N>N>N>N>N>P>Q>R>R>R>R>R>R>R>R>R>R>R>R>R>R>R>R>R>S>T>U>V>W>f>X>X>X>X>X>X>X>X>X>X>X>Y>X>Z>`> ,= .,% ^%!>D>!>!>!>!>!>!>!>",
"!>!>!>!>!>!>M;!>D>q;D@; +,@,#,$,%,&,*,&,&,&,&,&,&,&,=,&,-,-,;,-,>,,,',),!,~,{,],R>^,^,R>R>R>],],],/,/,/,/,/,],],],],],],/,{,(,!,_,:,<,[,},;,;,-,-,-,|,-,-,-,1,-,-,H>2,H>3,4,5,! 6,i.V%M;7,M;M;M;M;M;M;M;",
"!>!>M;M;M;M;M;M;7,M;'$) 8,; 9,0,a,b,c,b,b,b,b,b,b,b,b,b,b,b,b,b,b,b,d,e,f,g,h,i,j,k,k,k,k,k,k,k,k,k,k,k,k,k,k,k,k,k,k,k,l,m,n,o,p,q,b,b,b,b,b,b,b,b,b,b,b,b,b,b,},=,r,=,s,t,u,+ v,D@[*D>7,D>D>D>D>D>D>D>",
"D>D>D>D>D>D>D>D>w,D>^%# x,' y,z,A,B,C,B,B,B,B,B,B,B,B,B,B,B,B,B,D,D,D,E,F,G,H,I,J,K,L,M,M,N,O,P,P,P,P,P,Q,O,O,N,M,R,K,S,T,U,V,W,X,Y,Z,D,D,`,B,`,`,`,`,`,B,B,B,B,q, '.' '+'@'#'@ $'7$;=7,w,7,7,7,7,7,D>D>",
"7,7,7,7,7,7,7,7,%'7,c&i.&') *'='-';'>';';';';';';';';';';';';';';';';';';';';';',''')'!'~'I,J,{'K,K,K,{'{'J,]'I,!'^'/'('_':':':':':':':':':':':':':':':':':':':':':'<':'['}'|'# 1'V%h-7,w,7,7,7,7,7,7,  ",
"  7,7,w,w,w,w,w,%'w,K*w#2'! 3'4'5'6'7'8'8'8'8'8'8'8'8'8'8'8'9'0'0'0'0'0'a'a'b'b'a'9'c'd'd'e'f'f'g'g'g'f'f'f'h'e'i'c'j';'b'b'b'a'a'a'j'0'0'0'0'0'0'0'0'0'0'(';'('k'0'l'm'n'o'p'$ q';=!>7,w,7,7,7,7,7,    ",
"    w,w,w,w,w,w,%'w,i-d%r'. s't'u'v'w'v'v'v'v'v'v'v'v'v'v'v'c'x'x'x'x'x'x'x'x'x'x'x'x'x'x'x'x'x'x'x'x'x'x'x'x'x'x'x'x'x'x'x'x'x'x'x'x'x'x'x'x'x'x'x'x'x'x'y'y'y'6'y'6'z'A'B'C'& A$q;7,w,w,w,w,w,w,w,w,  ",
"      w,w,w,w,w,%'w,M;K*D'. E'F'G'H'I'J'J'J'J'J'J'J'K'K'K'K'J'L'L'L'L'L'L'L'J'L'L'v'v'v'v'v'v'v'v'v'v'v'v'v'v'v'v'v'v'M'N'J'J'J'L'L'L'L'L'L'L'L'M'L'L'L'M'M'v'M'O'M'P'Q'R'* S'i.c&7,T'%'%'%'%'%'%'%'%'  ",
"    %'%'%'%'%'%'%'%'%'!>7$@ U'@ V'W'X'Y'Z'Y'Y'Y'Y'Y'Y'Y'Y'Y'Y'Y'Y'Y'Y'Y'Y'Y'Y'Y'`' ) ) ) ) ) ) ) ) ) ) ) ) ) ) ) ) ) ) ) ) ) ) ) )K'K'K'K'K'K'K'K'K'K'K'K'K'K'K'.)K'+)@)#)< $)D@K*T'%)T'T'T'T'T'T'T'T'  ",
"    T'T'T'T'T'T'T'T'&)w,V%< *)=)-);)>),)')))))))))))!)~)~)~)~)!)!)!)!)!)!)!)!)!){){){){){){){){){){){)])])])])])])])])])])]){)])])^)^)^)^)^)^)^)^)^)^)`'`'`'])`'/)()_):)<)l [)^%h-&)%)&)T'&)T'&)&)&)&)  ",
"    &)&)&)&)&)&)&)&)})&);=w#|)$ 1)2)3)4)5)4)4)4)4)4)6)7)7)7)7)7)7)7)7)7)7)7)7)7)7)7)7)7)7)7)7)7)7)7)7)8)8)8)8)8)8)8)8)8)8)8)8)8)8)8)8)8)8)8)8)8)8)8)9)9)9)9)9)9)0)a)b)c)d)i.e)k*M;&)%)&)&)&)&)&)%)%)%)  ",
"      &)&)&)%)&)&)&)})%)!> *f)% g)h)i)j)k)l)m)l)l)l)n)o)o)o)o)o)o)o)o)o)o)o)o)o)p)p)p)p)p)p)p)m)m)m)n)n)n)n)n)n)n)n)n)n)o)q)q)q)q)q)q)q)q)q)r)o)o)o)4)4)q)4)s)6)t)u)v)w)x)v+y)M;T'%)%)%)%)%)%)%)%)%)    ",
"        %)%)%)%)%)%)})%)%'q;z)* A)B)C)D)E)F)G)F)F)F)F)F)F)F)F)F)F)F)F)F)F)F)F)F)F)F)F)F)F)F)F)F)F)F)F)F)F)F)F)F)F)F)F)F)l)l)l)l)l)l)l)l)l)l)l)l)l)l)l)l)l)l)H)l)I)J)K)v+L)'$Y=%)M)})})})})})})})})      ",
"          })})})})})})})})T'[*u+N)O)P)Q)R)S)T)U)V)W)X)X)Y)X)X)X)X)X)X)X)X)X)X)X)X)X)X)X)X)X)W)W)Z)W)W)W)W)W)W)W)U)U)U)U)Z)`)`)`)`)`)`)`)`)`)`) ! ! ! !.!`).!+!@!#!$!%!&!*!V%!>M)=!M)M)M)M)M)M)M)M)      ",
"        M)M)M)M)M)M)M)M)-!M)h-7$;!l >!,!'!)!!!~!{!{!{!{!{!{!{!{!{!{!{!{!{!{!{!{!{!{!{!{!{!{!{!]!]!]!]!]!]!]!]!]!]!]!]!]!]!]!]!]!]!]!]!]!]!]!]!V)V)V)V)V)^!V)^!/!(!_![)D@:!i-w,M)=!M)M)M)M)M)M)M)M)      ",
"        M)M)M)=!=!=!=!=!-!=!w,;=<![!l }!|!1!2!3!3!4!4!4!4!4!4!4!4!4!4!4!4!4!4!4!4!4!4!4!4!4!4!5!5!5!5!5!5!5!5!5!5!~!~!~!6!7!7!7!7!7!7!7!7!7!)!)!)!)!)!)!8!9!0!a!b!c!d!Q#K*w,})=!=!=!M)=!=!=!M)M)        ",
"        M)M)M)=!=!=!=!=!=!=!M)%'[*=@x)u+e!f!g!h!i!h!h!h!h!h!h!h!h!h!h!h!h!h!h!h!h!h!h!h!h!h!h!h!h!h!h!h!h!h!h!h!h!j!j!j!j!j!j!j!j!j!j!j!j!j!j!j!j!j!j!j!k!l!m!n!o!'$p!A%q;M)-!=!=!=!=!=!=!=!=!          ",
"          M)=!=!=!=!=!=!-!=!-!M)q;A%q!;!r!s!t!u!v!w!w!x!v!x!x!x!x!x!x!x!x!x!x!x!x!x!x!x!y!y!z!y!y!y!y!y!z!y!y!y!z!z!z!z!z!z!z!z!z!z!z!z!A!z!z!z!A!z!B!B!C!D!E!F!G!Q#H!h-%'-!I!=!=!=!=!=!-!-!-!          ",
"            -!-!-!-!-!-!-!-!I!-!T'F-A%=@L)J!K!L!M!N!O!N!N!N!N!N!N!N!N!N!N!N!N!N!N!N!N!N!P!Q!Q!Q!Q!Q!Q!Q!Q!Q!Q!Q!Q!Q!Q!Q!Q!Q!Q!Q!Q!Q!Q!Q!Q!Q!Q!Q!Q!Q!R!Q!S!T!U!A$V!^%i-&)=!-!-!-!-!-!-!-!-!-!-!          ",
"            I!I!I!I!I!I!I!I!W!I!-!&)i-A$X!Y!Z!`! ~.~+~@~@~#~#~#~#~#~#~#~#~#~$~#~#~#~#~#~$~%~%~%~%~%~%~%~%~%~%~N!N!N!%~N!N!N!N!N!N!&~&~&~$~&~$~*~=~=~-~;~>~,~'~)~!~;=7,-!I!I!I!I!I!I!I!I!I!-!            ",
"            W!W!W!W!W!W!W!W!W!W!~~W!w,K*{~'$]~^~/~(~_~:~<~:~:~:~:~:~:~:~:~:~:~:~:~:~:~:~:~:~:~:~:~:~:~:~:~:~[~[~[~[~[~[~[~[~[~[~[~[~[~[~[~[~[~[~}~[~|~1~2~d%3~d%;=w,M)W!~~W!W!W!W!W!W!W!W!              ",
"              W!~~~~~~~~~~~~~~~~4~~~=!w,;=^%5~6~7~8~9~0~a~b~c~d~e~d~e~d~d~d~d~d~d~f~f~f~g~g~h~g~g~g~g~g~h~g~g~g~g~g~g~g~g~g~g~g~f~f~i~f~f~j~k~l~m~n~o~p~q~r~s~K*D>=!W!~~~~~~W!~~~~~~W!W!W!              ",
"                ~~~~~~~~~~~~~~~~~~~~4~W!7,k*A%A$V!t~u~v~w~x~y~x~x~x~x~x~x~x~x~x~z~z~z~z~z~z~z~z~z~z~z~z~z~z~z~z~z~z~z~z~z~z~z~z~z~A~A~A~A~A~B~C~D~E~F~V%G~V%;=D>})~~4~~~~~~~~~~~~~~~W!W!W!              ",
"                  ~~~~4~4~~~~~~~~~~~H~4~=!w,i-V%3~I~J~K~L~D~M~N~O~N~P~Q~R~R~R~R~S~S~S~S~S~S~S~S~S~S~S~S~S~S~S~S~S~S~S~S~S~S~S~S~Q~P~T~U~V~W~X~Y~Z~F~`~ {.{Y=7,M)~~H~H~4~4~4~4~4~4~4~~~W!                ",
"                    4~4~4~4~4~4~4~4~4~4~H~~~%'Y=c&d%+{A%@{#{${%{&{&{&{&{&{&{&{&{&{&{&{&{&{&{&{&{&{&{&{&{&{&{&{&{&{&{&{&{&{&{&{&{&{&{*{&{={-{;{>{,{c&'{c&i-w,=!H~){H~H~H~H~H~H~H~H~H~H~                  ",
"                      4~H~H~H~H~H~H~H~H~){){I!&)!>;=!{~{{{]{^{/{({_{:{<{<{[{}{|{|{1{2{1{1{1{1{1{1{1{1{1{1{1{1{1{2{1{2{3{|{4{5{<{<{6{7{8{9{0{a{b{H!s~c{F-%'-!4~){){){){){){){){){H~H~                    ",
"                        ){){){){){){){){){){d{){=!7,i- *e{ *f{g{h{i{j{k{l{m{m{m{m{m{m{m{m{m{m{m{m{m{m{m{m{m{m{m{m{m{m{m{n{n{o{n{p{q{r{s{t{u{v{ *e{[*q;%)W!){d{){){){){){){){){){){                      ",
"                        d{d{d{d{){d{){d{){d{w{w{H~-!x{M;y{.{!{e{z{A{B{C{D{E{F{G{H{I{I{J{H{H{H{K{K{K{K{K{K{K{H{H{L{L{I{I{M{N{O{P{Q{R{S{T{U{V{W{X{Y{7,})~~){d{d{){){){){){d{d{){){                        ",
"                        w{w{w{d{d{d{d{d{d{d{d{d{d{d{H~-!7,;=[*[*Z{[*`{ ].]+]@]#]$]%]&]%]%]%]%]%]%]%]%]%]%]%]%]%]%]%]*]=]-];]>],]'])][*[*Z{[*K*F-&)~~){d{d{d{d{d{d{d{d{d{d{d{d{                          ",
"                          w{w{w{w{w{w{w{w{w{w{w{!]!]w{){I!&)~]{]]]^].{/](]_]:]<][]}]|]1]2]3]4]5]6]7]7]8]6]9]0]a]b]c]d]e]f]g]h]i]j]W{k]l]m]n]%'M)~~d{!]!]w{w{w{w{w{w{w{w{w{d{                            ",
"                            w{w{w{!]!]!]!]!]!]!]!]!]!]!]!]w{W!&)!>;=k*k*k*k*o]k*p]q]r]s]t]u]v]w]x]y]y]z]A]B]C]D]E]F]G]H]I]k*k*k*k*k*;=h-w,=!H~!]J]!]!]!]!]!]!]!]!]!]!]!]!]                              ",
"                              w{!]!]J]J]J]J]J]J]J]J]J]J]K]K]w{~~=!&)L]n]M]N]O]P].{/]Q]R]S]T]U]V]W]F]X]Y]Z]`] ^.^+^(])]@^#^O]$^%^&^D>T'M)W!){!]K]K]J]J]J]J]J]J]J]J]J]J]!]                                ",
"                                    J]J]J]J]J]J]J]J]J]J]J]J]J]J]J]w{4~M)w,q;Y=k*k*k*k*k*k*k*k*k*k*k*k*k*k*k*k*k*k*k*k*k*k*;=F-7,%)I!){J]K]J]J]J]J]J]J]J]J]J]J]J]J]J]J]                                  ",
"                                      J]J]K]K]J]J]J]J]J]J]K]K]K]*^K]!]H~W!=!})T'w,~]=^-^;^>^>^,^'^'^)^,^!^>^%^;^~^{^]^L]T'%)=!W!4~d{J]*^*^K]K]J]J]J]J]J]J]K]K]K]J]J]                                    ",
"                                        K]K]K]K]K]K]K]K]K]K]K]K]K]K]K]K]K]K]J]!]){W!=!%)%'7,D>M;!>!>!>M;M;D>7,%'&)})-!4~d{J]K]K]K]K]K]K]K]K]K]K]K]K]K]K]K]K]K]K]K]                                      ",
"                                          K]*^*^*^*^*^*^*^*^*^*^*^*^*^^^^^^^^^^^K]!]d{H~4~~~W!I!I!I!I!I!W!W!~~4~H~){w{J]*^^^^^^^^^^^*^*^*^*^*^*^*^*^*^*^*^*^K]K]                                        ",
"                                            ^^^^^^^^^^^^^^^^^^^^^^^^^^^^^^^^^^^^^^^^^^^^^^^^^^^^^^^^^^^^^^^^^^^^^^^^^^^^^^^^^^^^^^^^^^^^^^^^^^^^^^^^^^^^*^*^*^                                          ",
"                                              ^^^^^^/^/^/^/^/^/^/^/^/^/^/^/^/^/^/^/^/^(^(^(^(^(^(^(^(^(^(^(^(^(^(^/^/^/^/^/^/^/^/^/^/^/^/^/^/^/^^^^^^^^^^^*^                                            ",
"                                                    /^/^/^/^/^/^/^/^/^/^/^/^/^/^/^/^/^/^/^/^/^/^/^/^/^/^/^/^/^/^/^/^/^/^/^/^/^/^/^/^/^/^/^/^/^/^^^^^^^                                                  ",
"                                                      /^/^/^/^(^(^(^(^(^/^/^/^/^/^/^/^/^/^/^/^/^/^/^/^/^/^/^/^/^/^/^/^/^/^/^/^/^(^(^(^(^(^(^/^/^^^^^                                                    ",
"                                                            (^(^(^(^(^(^(^(^(^(^(^(^(^(^(^(^(^(^(^(^(^(^(^(^(^(^(^(^(^(^(^(^(^(^(^(^(^(^(^(^(^                                                          ",
"                                                              (^(^(^(^_^_^_^_^_^_^_^_^_^_^_^_^_^_^_^_^_^_^_^_^_^_^_^_^_^_^_^_^_^_^(^  (^(^(^                                                            ",
"                                                                    _^_^_^:^:^:^:^:^:^:^:^:^:^:^:^:^:^:^:^:^:^:^:^:^:^:^:^:^:^:^:^                                                                      ",
"                                                                      _^:^:^:^:^:^:^  :^<^<^:^:^:^:^<^<^<^:^:^:^  :^:^:^:^:^:^:^                                                                        ",
"                                                                                        <^<^<^:^:^:^<^[^<^:^:^                                                                                          "};
