/* XPM */
static char * document_save_xpm[] = {
"32 32 283 2",
"  	c None",
". 	c #1F4B8A",
"+ 	c #214C89",
"@ 	c #214C8A",
"# 	c #214D8A",
"$ 	c #204A88",
"% 	c #204B88",
"& 	c #2B558F",
"* 	c #5B80AF",
"= 	c #7998C0",
"- 	c #89A6C9",
"; 	c #85A2C6",
"> 	c #698AB5",
", 	c #355D95",
"' 	c #1F4C89",
") 	c #5377A7",
"! 	c #8AA5CA",
"~ 	c #8BA7CB",
"{ 	c #90ABCE",
"] 	c #93ADCE",
"^ 	c #96AFD0",
"/ 	c #98B1D1",
"( 	c #99B2D1",
"_ 	c #6C8CB6",
": 	c #234E89",
"< 	c #1F4987",
"[ 	c #5B7CAA",
"} 	c #5B7CAB",
"| 	c #41669C",
"1 	c #446BA0",
"2 	c #6283B2",
"3 	c #90ABCD",
"4 	c #93ADCF",
"5 	c #8CA7CC",
"6 	c #8AA6CB",
"7 	c #94ADCF",
"8 	c #7C99C1",
"9 	c #325A91",
"0 	c #2D558F",
"a 	c #1F4C87",
"b 	c #214C88",
"c 	c #315891",
"d 	c #86A2C7",
"e 	c #8DA9CC",
"f 	c #84A1C8",
"g 	c #809FC6",
"h 	c #6587B3",
"i 	c #204B8B",
"j 	c #224C88",
"k 	c #325C93",
"l 	c #7F9EC6",
"m 	c #7B9BC4",
"n 	c #7A9AC3",
"o 	c #91ACCE",
"p 	c #305991",
"q 	c #1E4A86",
"r 	c #204A8A",
"s 	c #6A8BB7",
"t 	c #83A1C8",
"u 	c #7697C2",
"v 	c #7395C1",
"w 	c #86A3C9",
"x 	c #6183B1",
"y 	c #1F4A87",
"z 	c #545454",
"A 	c #595959",
"B 	c #5C5C5C",
"C 	c #4D5766",
"D 	c #446798",
"E 	c #89A5CB",
"F 	c #7193BF",
"G 	c #6D90BE",
"H 	c #7797C2",
"I 	c #7F9DC4",
"J 	c #284E83",
"K 	c #5B5B5B",
"L 	c #585858",
"M 	c #535353",
"N 	c #AFAFAF",
"O 	c #FCFCFC",
"P 	c #FEFEFE",
"Q 	c #FDFDFD",
"R 	c #F0F2F5",
"S 	c #6B8FBD",
"T 	c #698DBC",
"U 	c #6A8EBD",
"V 	c #8EA9CC",
"W 	c #2A528D",
"X 	c #F6F6F6",
"Y 	c #F5F5F5",
"Z 	c #F4F4F4",
"` 	c #F3F3F3",
" .	c #F2F2F2",
"..	c #959595",
"+.	c #AFBCCE",
"@.	c #8CA8CC",
"#.	c #658ABA",
"$.	c #6388B9",
"%.	c #6187B8",
"&.	c #95AECF",
"*.	c #6F89AD",
"=.	c #DEDEDE",
"-.	c #979797",
";.	c #F8F8F8",
">.	c #E5E5E5",
",.	c #9CADC3",
"'.	c #385E95",
").	c #7A99C2",
"!.	c #8DA8CC",
"~.	c #5F85B8",
"{.	c #5D84B7",
"].	c #5B82B6",
"^.	c #94AFCF",
"/.	c #97B0D0",
"(.	c #6182B0",
"_.	c #486A9B",
":.	c #D9DADB",
"<.	c #EDEDED",
"[.	c #7E7E7E",
"}.	c #DFDFDF",
"|.	c #ECECEC",
"1.	c #E0E0E0",
"2.	c #E3E3E3",
"3.	c #869BB9",
"4.	c #3A6198",
"5.	c #7B9AC3",
"6.	c #5A82B5",
"7.	c #5981B5",
"8.	c #5880B4",
"9.	c #4E79B0",
"0.	c #4370AB",
"a.	c #3969A7",
"b.	c #6C8FBE",
"c.	c #6889B6",
"d.	c #345A90",
"e.	c #CACDD2",
"f.	c #D7D7D7",
"g.	c #E2E2E2",
"h.	c #C3C3C3",
"i.	c #696969",
"j.	c #FAFAFA",
"k.	c #E1E1E1",
"l.	c #E4E4E4",
"m.	c #E7E7E7",
"n.	c #6C87AC",
"o.	c #42699C",
"p.	c #7B9BC3",
"q.	c #5881B5",
"r.	c #4A76AE",
"s.	c #416EAA",
"t.	c #3666A5",
"u.	c #3364A4",
"v.	c #5C83B6",
"w.	c #7493BE",
"x.	c #2D568F",
"y.	c #BBC3CE",
"z.	c #DCDCDC",
"A.	c #D9D9D9",
"B.	c #E9E9E9",
"C.	c #5F5F5F",
"D.	c #BDBDBD",
"E.	c #F0F0F0",
"F.	c #E0E1E2",
"G.	c #5A78A3",
"H.	c #426A9F",
"I.	c #3A69A7",
"J.	c #4D78B0",
"K.	c #7D9CC4",
"L.	c #315992",
"M.	c #A2B0C2",
"N.	c #DBDBDB",
"O.	c #DADADA",
"P.	c #D8D8D8",
"Q.	c #A2A2A2",
"R.	c #555555",
"S.	c #DDDDDD",
"T.	c #D8D9DA",
"U.	c #486A9A",
"V.	c #476EA2",
"W.	c #6F92BF",
"X.	c #416FAA",
"Y.	c #82A0C7",
"Z.	c #3C6298",
"`.	c #7E93B1",
" +	c #919191",
".+	c #D6D6D6",
"++	c #CCCED2",
"@+	c #395E93",
"#+	c #557AAC",
"$+	c #7092BF",
"%+	c #3D6CA9",
"&+	c #7E9DC6",
"*+	c #4A70A2",
"=+	c #58769F",
"-+	c #D0D0D0",
";+	c #D1D1D1",
">+	c #D2D2D2",
",+	c #D4D4D4",
"'+	c #7F7F7F",
")+	c #D5D5D5",
"!+	c #BABFC6",
"~+	c #2F578E",
"{+	c #5E82B1",
"]+	c #89A5CA",
"^+	c #597CAD",
"/+	c #3C6093",
"(+	c #C1C3C5",
"_+	c #CACACA",
":+	c #CCCCCC",
"<+	c #CDCDCD",
"[+	c #676767",
"}+	c #CECECE",
"|+	c #C8C8C8",
"1+	c #AEB4BD",
"2+	c #2B538C",
"3+	c #4D72A6",
"4+	c #2B548D",
"5+	c #B0B5BB",
"6+	c #C4C4C4",
"7+	c #C6C6C6",
"8+	c #D3D3D3",
"9+	c #626262",
"0+	c #B6B6B6",
"a+	c #EBEBEB",
"b+	c #CFCFCF",
"c+	c #CBCBCB",
"d+	c #A2ABB8",
"e+	c #9D9D9D",
"f+	c #F7F7F7",
"g+	c #CDD0D5",
"h+	c #575757",
"i+	c #E8E8E8",
"j+	c #BABABA",
"k+	c #B9B9B9",
"l+	c #B8B8B8",
"m+	c #B7B7B7",
"n+	c #B5B5B5",
"o+	c #B4B4B4",
"p+	c #B3B3B3",
"q+	c #B2B2B2",
"r+	c #B1B1B1",
"s+	c #AEAEAE",
"t+	c #ADADAD",
"u+	c #ACACAC",
"v+	c #ABABAB",
"w+	c #AAAAAA",
"x+	c #A8A8A8",
"y+	c #A7A7A7",
"z+	c #A6A6A6",
"A+	c #A5A5A5",
"B+	c #A4A4A4",
"C+	c #A1A1A1",
"D+	c #A0A0A0",
"E+	c #9F9F9F",
"F+	c #EAEAEA",
"G+	c #848484",
"H+	c #8A8A8A",
"I+	c #929292",
"J+	c #999999",
"K+	c #9E9E9E",
"L+	c #A3A3A3",
"M+	c #989898",
"N+	c #C5C5C5",
"O+	c #949494",
"P+	c #C2C2C2",
"Q+	c #C1C1C1",
"R+	c #909090",
"S+	c #BFBFBF",
"T+	c #878787",
"U+	c #969696",
"V+	c #C0C0C0",
"W+	c #8F8F8F",
"X+	c #8E8E8E",
"Y+	c #8C8C8C",
"Z+	c #A9A9A9",
"`+	c #939393",
" @	c #B0B0B0",
".@	c #525252",
"+@	c #C9C9C9",
"@@	c #C7C7C7",
"#@	c #BBBBBB",
"$@	c #515151",
"%@	c #505050",
"                                                                ",
"                  . + @ # $                                     ",
"              % & * = - ; > , '                                 ",
"            % ) ! ~ { ] ^ / ( _ :                               ",
"          < [ } | 1 2 3 4 5 6 7 8 #                             ",
"          9 0 a     b c d e f g 3 h i                           ",
"        < j             k 3 l m n o p                           ",
"        q               r s t u v w x y                         ",
"            z A B B B B C D E F G H I J B K K K L M             ",
"          M N O P Q Q O R c ~ S T U V W X Y Z `  ...            ",
"          z Y +.y y y y y : @.#.$.%.&.y y y y y *.=.M           ",
"          -.;.>.,.'.).t w 6 !.~.{.].^./.( / (._.:.<.[.          ",
"        M }.|.1.2.3.4.5.#.].6.7.8.9.0.a.b.c.d.e.f.g.h.M         ",
"        i.j.k.l.m.m.n.o.p.q.r.s.t.u.u.v.w.x.y.z.A.A.B.C.        ",
"      z D.E.k.>.>.l.F.G.H.U I.u.u.u.J.K.L.M.z.N.O.P.l.Q.        ",
"      R.E.l.>.l.g.1.S.T.U.V.W.a.u.X.Y.Z.`.P.A.O.O.O.O.P.M       ",
"       +Y z.m.1.z.A..+.+++@+#+$+%+&+*+=+-+;+>+,+.+=.,+>.'+      ",
"    M P.m.z.2.}..+)+)+,+;+!+~+{+]+^+/+(+_+:+<+-+P.N.>+N.D.z     ",
"    [+Y z.A.f.}.}.f.,+;+}+|+1+2+3+4+5+6+7+_+<+P.A.<+-+8+1.9+    ",
"    0+a+S.O.P..+O.g.=.f.b+c+|+d+y d+7+_+-+f.O.>+}+b+>+P.S.e+    ",
"  M B.k.f+m.O.A..+)+.+A.z.z.N.O.g+A.N.A.f.-+}+b+;+8+g.X O.8+h+  ",
"  M X z.S.N.z.z.z.z.N.A.P.f..+,+,+,+)+.+f.f.P.P.P.f..+f.)+i+R.  ",
"  M E.1.k.k.1.1.}.}.=.S.S.S.z.z.N.N.O.O.O.A.P.f.f..+.+)+)+-+M   ",
"  M |.j+j+k+l+m+n+o+p+q+r+N s+t+u+v+w+x+y+z+A+B+Q.C+D+E+E+k+M   ",
"  M F+j+j+G+H+I+J+K+L+y+w+u+t+s+v+w+M+N+-.h.O+P+I+Q+R+S+E+m+M   ",
"  M B.j+k+T+H+I+J+K+L+y+w+v+t+t+v+w+M+N+U+h.O+P+ +V+W+S+E+o+M   ",
"  M m.j+k+X+Y+I+J+K+L+y+w+v+t+u+w+Z+M+N+U+h.`+Q+ +V+W+S+E+q+M   ",
"  M l.j+l+l+n+k+p+ @N u+t+w+u+u+w+Z+-.6+..h.`+Q+R+S+W+S+D+s+M   ",
"  .@N+k.1.=.z.N.A.f.)+8+;+b+<+c++@@@6+P+S+D.#@k+0+o+q+r+N ..$@  ",
"    $@M M M M M M M M M M M M M M M M M M M M M M M M M M %@    ",
"                                                                ",
"                                                                "};
